{"uid":"63af3bb7e8164bd7","name":"Testcase 5: Negative: Zero limit","fullName":"api/BookCatalog/Test_001_BooksApi.spec.ts:162:9","historyId":"3ad6e1a31b88634364131149d1f8850f:4151609b82fd60da52fe302128be4a3c","time":{"start":1784389047890,"stop":1784389047960,"duration":70},"status":"passed","flaky":false,"newFailed":false,"newBroken":false,"newPassed":false,"retriesCount":0,"retriesStatusChange":false,"beforeStages":[],"testStage":{"status":"passed","steps":[{"name":" [2026-07-18 15:37:27] [INFO] \uD83D\uDE80 Making GET request to https://buggy-books.onrender.com/api/books?page=1&limit=0","time":{"start":1784389047894,"stop":1784389047894,"duration":0},"status":"passed","steps":[],"attachments":[],"parameters":[],"stepsCount":0,"shouldDisplayMessage":false,"attachmentsCount":0,"hasContent":false,"attachmentStep":false},{"name":"✅ [2026-07-18 15:37:27] [PASS] ✅ Get books with invalid parameters: Zero limit Success! Status: 200 OK","time":{"start":1784389047960,"stop":1784389047960,"duration":0},"status":"passed","steps":[],"attachments":[],"parameters":[],"stepsCount":0,"shouldDisplayMessage":false,"attachmentsCount":0,"hasContent":false,"attachmentStep":false},{"name":" [2026-07-18 15:37:27] [INFO] \uD83D\uDCE5 Response Payload: {\n  \"books\": [\n    {\n      \"id\": \"1\",\n      \"title\": \"The Great Buggy Gatsby\",\n      \"author\": \"F. Scott Fitzgerald\",\n      \"price\": 10.99,\n      \"genre\": \"Classic\",\n      \"description\": \"A story of wealth, obsession, and bugs in the Jazz Age.\",\n      \"image\": \"https://images.unsplash.com/photo-1544947950-fa07a98d237f?q=80&w=600&auto=format&fit=crop\"\n    },\n    {\n      \"id\": \"2\",\n      \"title\": \"To Kill a Mockingbird Exception\",\n      \"author\": \"Harper Lee\",\n      \"price\": 15.5,\n      \"genre\": \"Classic\",\n      \"description\": \"A coming-of-age tale with unhandled exceptions.\",\n      \"image\": \"https://images.unsplash.com/photo-1512820790803-83ca734da794?q=80&w=600&auto=format&fit=crop\"\n    },\n    {\n      \"id\": \"3\",\n      \"title\": \"1984 Bugs\",\n      \"author\": \"George Orwell\",\n      \"price\": 12,\n      \"genre\": \"Dystopian\",\n      \"description\": \"Big Bug is watching your code.\",\n      \"image\": \"https://images.unsplash.com/photo-1543002588-bfa74002ed7e?q=80&w=600&auto=format&fit=crop\"\n    },\n    {\n      \"id\": \"4\",\n      \"title\": \"Pride and Prejudice and Performance Issues\",\n      \"author\": \"Jane Austen\",\n      \"price\": 9.99,\n      \"genre\": \"Classic\",\n      \"description\": \"A tale of love, society, and slow query performance.\",\n      \"image\": \"https://images.unsplash.com/photo-1589829085413-56de8ae18c73?q=80&w=600&auto=format&fit=crop\"\n    },\n    {\n      \"id\": \"5\",\n      \"title\": \"The Null and the Furious\",\n      \"author\": \"Cormac McCarthy\",\n      \"price\": 13.99,\n      \"genre\": \"Thriller\",\n      \"description\": \"Null pointer exceptions wreak havoc on the open road.\",\n      \"image\": \"https://images.unsplash.com/photo-1476275466078-4007374efbbe?q=80&w=600&auto=format&fit=crop\"\n    },\n    {\n      \"id\": \"6\",\n      \"title\": \"Harry Potter and the Goblet of Fire Events\",\n      \"author\": \"J.K. Rowling\",\n      \"price\": 19.99,\n      \"genre\": \"Fantasy\",\n      \"description\": \"Asynchronous magic tournaments and event loop chaos.\",\n      \"image\": \"https://images.unsplash.com/photo-1589998059171-988d887df646?q=80&w=600&auto=format&fit=crop\"\n    },\n    {\n      \"id\": \"7\",\n      \"title\": \"The Hitchhiker's Guide to the API\",\n      \"author\": \"Douglas Adams\",\n      \"price\": 11.5,\n      \"genre\": \"Sci-Fi\",\n      \"description\": \"The answer to life, the universe, and REST endpoints is 42.\",\n      \"image\": \"https://images.unsplash.com/photo-1462331940025-496dfbfc7564?q=80&w=600&auto=format&fit=crop\"\n    },\n    {\n      \"id\": \"8\",\n      \"title\": \"Moby Stack Overflow\",\n      \"author\": \"Herman Melville\",\n      \"price\": 8.99,\n      \"genre\": \"Classic\",\n      \"description\": \"Captain Ahab's obsessive pursuit of the white stack trace.\",\n      \"image\": \"https://images.unsplash.com/photo-1623018035782-b269248df916?q=80&w=600&auto=format&fit=crop\"\n    }\n  ],\n  \"total\": 15,\n  \"page\": 1,\n  \"totalPages\": 2,\n  \"limit\": 8\n}","time":{"start":1784389047961,"stop":1784389047961,"duration":0},"status":"passed","steps":[],"attachments":[],"parameters":[],"stepsCount":0,"shouldDisplayMessage":false,"attachmentsCount":0,"hasContent":false,"attachmentStep":false},{"name":"✅ [2026-07-18 15:37:27] [PASS]  Status code should be 200 or 400 for invalid parameters: Zero limit Success !! Actual and Expected Values are:: true","time":{"start":1784389047962,"stop":1784389047962,"duration":0},"status":"passed","steps":[],"attachments":[],"parameters":[],"stepsCount":0,"shouldDisplayMessage":false,"attachmentsCount":0,"hasContent":false,"attachmentStep":false}],"attachments":[{"uid":"ff4984e75b9c91b8","name":"stdout","source":"ff4984e75b9c91b8.txt","type":"text/plain","size":3234}],"parameters":[],"stepsCount":4,"shouldDisplayMessage":false,"attachmentsCount":1,"hasContent":true,"attachmentStep":false},"afterStages":[],"labels":[{"name":"language","value":"javascript"},{"name":"framework","value":"playwright"},{"name":"package","value":"api.BookCatalog.Test_001_BooksApi.spec.ts"},{"name":"titlePath","value":" > Google Chrome > api/BookCatalog/Test_001_BooksApi.spec.ts > Books API - List and Security"},{"name":"host","value":"d0af1dde9095"},{"name":"thread","value":"pid-1517-worker-0"},{"name":"parentSuite","value":"Google Chrome"},{"name":"suite","value":"api/BookCatalog/Test_001_BooksApi.spec.ts"},{"name":"subSuite","value":"Books API - List and Security"},{"name":"resultFormat","value":"allure2"}],"parameters":[{"name":"Project","value":"Google Chrome"}],"links":[],"hidden":false,"retry":false,"extra":{"severity":"normal","retries":[],"categories":[],"history":{"statistic":{"failed":0,"broken":0,"skipped":0,"passed":11,"unknown":0,"total":11},"items":[{"uid":"622dd28d25300118","reportUrl":"https://munna7862.github.io/buggy-books/AutomationReports/Docker/11/#testresult/622dd28d25300118","status":"passed","time":{"start":1784387378285,"stop":1784387378343,"duration":58}},{"uid":"cb8fca54505a314a","reportUrl":"https://munna7862.github.io/buggy-books/AutomationReports/Docker/10/#testresult/cb8fca54505a314a","status":"passed","time":{"start":1784387175053,"stop":1784387175146,"duration":93}},{"uid":"6c1ea198c365c8e1","reportUrl":"https://munna7862.github.io/buggy-books/AutomationReports/Docker/9/#testresult/6c1ea198c365c8e1","status":"passed","time":{"start":1784385817900,"stop":1784385817966,"duration":66}},{"uid":"718832c736ee8a7b","reportUrl":"https://munna7862.github.io/buggy-books/AutomationReports/Docker/8/#testresult/718832c736ee8a7b","status":"passed","time":{"start":1784384938909,"stop":1784384938948,"duration":39}},{"uid":"8fcbcdbc8c419e85","reportUrl":"https://munna7862.github.io/buggy-books/AutomationReports/Docker/7/#testresult/8fcbcdbc8c419e85","status":"passed","time":{"start":1784382002230,"stop":1784382002348,"duration":118}},{"uid":"6ed2f95e165cfa15","reportUrl":"https://munna7862.github.io/buggy-books/AutomationReports/Docker/6/#testresult/6ed2f95e165cfa15","status":"passed","time":{"start":1784374226500,"stop":1784374226589,"duration":89}},{"uid":"a3cfb79922267916","reportUrl":"https://munna7862.github.io/buggy-books/AutomationReports/Docker/5/#testresult/a3cfb79922267916","status":"passed","time":{"start":1784373680264,"stop":1784373680334,"duration":70}},{"uid":"136ddac8ce4c4179","reportUrl":"https://munna7862.github.io/buggy-books/AutomationReports/Docker/4/#testresult/136ddac8ce4c4179","status":"passed","time":{"start":1784372412432,"stop":1784372412542,"duration":110}},{"uid":"3abf88837ba6fef6","reportUrl":"https://munna7862.github.io/buggy-books/AutomationReports/Docker/3/#testresult/3abf88837ba6fef6","status":"passed","time":{"start":1784359375092,"stop":1784359375180,"duration":88}},{"uid":"bdbfe55a9286b9b7","reportUrl":"https://munna7862.github.io/buggy-books/AutomationReports/Docker/2/#testresult/bdbfe55a9286b9b7","status":"passed","time":{"start":1784356180755,"stop":1784356180842,"duration":87}}]},"tags":[]},"source":"63af3bb7e8164bd7.json","parameterValues":["Google Chrome"]}