[2026-07-19 02:10:49] INFO: 🚀 Making GET request to https://buggy-books.onrender.com/api/books?page=2&limit=8
[2026-07-19 02:10:50] INFO: ✅ Get books for page 2 Success! Status: 200 OK
[2026-07-19 02:10:50] INFO: 📥 Response Payload: {
  "books": [
    {
      "id": "9",
      "title": "War and Parse",
      "author": "Leo Tolstoy",
      "price": 17.99,
      "genre": "Classic",
      "description": "An epic battle between JSON and XML parsers.",
      "image": "https://images.unsplash.com/photo-1495446815901-a7297e633e8d?q=80&w=600&auto=format&fit=crop"
    },
    {
      "id": "10",
      "title": "Crime and Refactoring",
      "author": "Fyodor Dostoevsky",
      "price": 14.5,
      "genre": "Thriller",
      "description": "A developer's guilt-ridden journey of merging to production.",
      "image": "https://images.unsplash.com/photo-1506880018603-83d5b814b5a6?q=80&w=600&auto=format&fit=crop"
    },
    {
      "id": "11",
      "title": "Brave New Debug World",
      "author": "Aldous Huxley",
      "price": 11.99,
      "genre": "Dystopian",
      "description": "A world where logging is banned and breakpoints are illegal.",
      "image": "https://images.unsplash.com/photo-1614332287897-cdc485fa562d?q=80&w=600&auto=format&fit=crop"
    },
    {
      "id": "12",
      "title": "Of Memory and Men",
      "author": "John Steinbeck",
      "price": 9.5,
      "genre": "Classic",
      "description": "Two developers dream of the perfect memory allocation scheme.",
      "image": "https://images.unsplash.com/photo-1524995997946-a1c2e315a42f?q=80&w=600&auto=format&fit=crop"
    },
    {
      "id": "13",
      "title": "Fahrenheit 500: Internal Server Error",
      "author": "Ray Bradbury",
      "price": 12.99,
      "genre": "Dystopian",
      "description": "A society that burns documentation.",
      "image": "https://images.unsplash.com/photo-1541963463532-d68292c34b19?q=80&w=600&auto=format&fit=crop"
    },
    {
      "id": "14",
      "title": "The Catcher in the Deploy",
      "author": "J.D. Salinger",
      "price": 10,
      "genre": "Classic",
      "description": "Holden catches failed deployments before they hit production.",
      "image": "https://images.unsplash.com/photo-1532012197267-da84d127e765?q=80&w=600&auto=format&fit=crop"
    },
    {
      "id": "15",
      "title": "Don Quixote de la Repository",
      "author": "Miguel de Cervantes",
      "price": 16.99,
      "genre": "Classic",
      "description": "A delusional developer tilts at windmill microservices.",
      "image": "https://images.unsplash.com/photo-1497633762265-9d179a990aa6?q=80&w=600&auto=format&fit=crop"
    }
  ],
  "total": 15,
  "page": 2,
  "totalPages": 2,
  "limit": 8
}
[2026-07-19 02:10:50] INFO:  Response status Success !! Actual and Expected Values are:: 200
[2026-07-19 02:10:50] INFO:  Books property is an array Success !! Actual and Expected Values are:: true
[2026-07-19 02:10:50] INFO:  Total count is numeric Success !! Actual and Expected Values are:: number
[2026-07-19 02:10:50] INFO:  Page is numeric Success !! Actual and Expected Values are:: number
[2026-07-19 02:10:50] INFO:  Total pages is numeric Success !! Actual and Expected Values are:: number
[2026-07-19 02:10:50] INFO:  Limit is numeric Success !! Actual and Expected Values are:: number
[2026-07-19 02:10:50] INFO:  Returned page is 2 Success !! Actual and Expected Values are:: 2
[2026-07-19 02:10:50] INFO:  Returned limit is 8 Success !! Actual and Expected Values are:: 8
[2026-07-19 02:10:50] INFO:  Books array contains 7 entries Success !! Actual and Expected Values are:: true
[2026-07-19 02:10:50] INFO:  Book entry is an object Success !! Actual and Expected Values are:: object
[2026-07-19 02:10:50] INFO:  Book entry is not null Success !! Actual and Expected Values are:: true
[2026-07-19 02:10:50] INFO:  Book id is a string Success !! Actual and Expected Values are:: string
[2026-07-19 02:10:50] INFO:  Book title is a string Success !! Actual and Expected Values are:: string
[2026-07-19 02:10:50] INFO:  Book author is a string Success !! Actual and Expected Values are:: string
[2026-07-19 02:10:50] INFO:  Book price is a number Success !! Actual and Expected Values are:: number
[2026-07-19 02:10:50] INFO:  Book genre is a string Success !! Actual and Expected Values are:: string
[2026-07-19 02:10:50] INFO:  Book description is a string Success !! Actual and Expected Values are:: string
[2026-07-19 02:10:50] INFO:  Book image is a string Success !! Actual and Expected Values are:: string
[2026-07-19 02:10:50] INFO:  First book payload matches contract Success !! Actual and Expected Values are:: true
[2026-07-19 02:10:50] INFO:  Book entry is an object Success !! Actual and Expected Values are:: object
[2026-07-19 02:10:50] INFO:  Book entry is not null Success !! Actual and Expected Values are:: true
[2026-07-19 02:10:50] INFO:  Book id is a string Success !! Actual and Expected Values are:: string
[2026-07-19 02:10:50] INFO:  Book title is a string Success !! Actual and Expected Values are:: string
[2026-07-19 02:10:50] INFO:  Book author is a string Success !! Actual and Expected Values are:: string
[2026-07-19 02:10:50] INFO:  Book price is a number Success !! Actual and Expected Values are:: number
[2026-07-19 02:10:50] INFO:  Book genre is a string Success !! Actual and Expected Values are:: string
[2026-07-19 02:10:50] INFO:  Book description is a string Success !! Actual and Expected Values are:: string
[2026-07-19 02:10:50] INFO:  Book image is a string Success !! Actual and Expected Values are:: string
[2026-07-19 02:10:50] INFO:  Book entry is an object Success !! Actual and Expected Values are:: object
[2026-07-19 02:10:50] INFO:  Book entry is not null Success !! Actual and Expected Values are:: true
[2026-07-19 02:10:50] INFO:  Book id is a string Success !! Actual and Expected Values are:: string
[2026-07-19 02:10:50] INFO:  Book title is a string Success !! Actual and Expected Values are:: string
[2026-07-19 02:10:50] INFO:  Book author is a string Success !! Actual and Expected Values are:: string
[2026-07-19 02:10:50] INFO:  Book price is a number Success !! Actual and Expected Values are:: number
[2026-07-19 02:10:50] INFO:  Book genre is a string Success !! Actual and Expected Values are:: string
[2026-07-19 02:10:50] INFO:  Book description is a string Success !! Actual and Expected Values are:: string
[2026-07-19 02:10:50] INFO:  Book image is a string Success !! Actual and Expected Values are:: string
[2026-07-19 02:10:50] INFO:  Book id 9 has expected contract Success !! Actual and Expected Values are:: true
[2026-07-19 02:10:50] INFO:  Book entry is an object Success !! Actual and Expected Values are:: object
[2026-07-19 02:10:50] INFO:  Book entry is not null Success !! Actual and Expected Values are:: true
[2026-07-19 02:10:50] INFO:  Book id is a string Success !! Actual and Expected Values are:: string
[2026-07-19 02:10:50] INFO:  Book title is a string Success !! Actual and Expected Values are:: string
[2026-07-19 02:10:50] INFO:  Book author is a string Success !! Actual and Expected Values are:: string
[2026-07-19 02:10:50] INFO:  Book price is a number Success !! Actual and Expected Values are:: number
[2026-07-19 02:10:50] INFO:  Book genre is a string Success !! Actual and Expected Values are:: string
[2026-07-19 02:10:50] INFO:  Book description is a string Success !! Actual and Expected Values are:: string
[2026-07-19 02:10:50] INFO:  Book image is a string Success !! Actual and Expected Values are:: string
[2026-07-19 02:10:50] INFO:  Book entry is an object Success !! Actual and Expected Values are:: object
[2026-07-19 02:10:50] INFO:  Book entry is not null Success !! Actual and Expected Values are:: true
[2026-07-19 02:10:50] INFO:  Book id is a string Success !! Actual and Expected Values are:: string
[2026-07-19 02:10:50] INFO:  Book title is a string Success !! Actual and Expected Values are:: string
[2026-07-19 02:10:50] INFO:  Book author is a string Success !! Actual and Expected Values are:: string
[2026-07-19 02:10:50] INFO:  Book price is a number Success !! Actual and Expected Values are:: number
[2026-07-19 02:10:50] INFO:  Book genre is a string Success !! Actual and Expected Values are:: string
[2026-07-19 02:10:50] INFO:  Book description is a string Success !! Actual and Expected Values are:: string
[2026-07-19 02:10:50] INFO:  Book image is a string Success !! Actual and Expected Values are:: string
[2026-07-19 02:10:50] INFO:  Book id 10 has expected contract Success !! Actual and Expected Values are:: true
[2026-07-19 02:10:50] INFO:  Book entry is an object Success !! Actual and Expected Values are:: object
[2026-07-19 02:10:50] INFO:  Book entry is not null Success !! Actual and Expected Values are:: true
[2026-07-19 02:10:50] INFO:  Book id is a string Success !! Actual and Expected Values are:: string
[2026-07-19 02:10:50] INFO:  Book title is a string Success !! Actual and Expected Values are:: string
[2026-07-19 02:10:50] INFO:  Book author is a string Success !! Actual and Expected Values are:: string
[2026-07-19 02:10:50] INFO:  Book price is a number Success !! Actual and Expected Values are:: number
[2026-07-19 02:10:50] INFO:  Book genre is a string Success !! Actual and Expected Values are:: string
[2026-07-19 02:10:50] INFO:  Book description is a string Success !! Actual and Expected Values are:: string
[2026-07-19 02:10:50] INFO:  Book image is a string Success !! Actual and Expected Values are:: string
[2026-07-19 02:10:50] INFO:  Book entry is an object Success !! Actual and Expected Values are:: object
[2026-07-19 02:10:50] INFO:  Book entry is not null Success !! Actual and Expected Values are:: true
[2026-07-19 02:10:50] INFO:  Book id is a string Success !! Actual and Expected Values are:: string
[2026-07-19 02:10:50] INFO:  Book title is a string Success !! Actual and Expected Values are:: string
[2026-07-19 02:10:50] INFO:  Book author is a string Success !! Actual and Expected Values are:: string
[2026-07-19 02:10:50] INFO:  Book price is a number Success !! Actual and Expected Values are:: number
[2026-07-19 02:10:50] INFO:  Book genre is a string Success !! Actual and Expected Values are:: string
[2026-07-19 02:10:50] INFO:  Book description is a string Success !! Actual and Expected Values are:: string
[2026-07-19 02:10:50] INFO:  Book image is a string Success !! Actual and Expected Values are:: string
[2026-07-19 02:10:50] INFO:  Book id 11 has expected contract Success !! Actual and Expected Values are:: true
[2026-07-19 02:10:50] INFO:  Book entry is an object Success !! Actual and Expected Values are:: object
[2026-07-19 02:10:50] INFO:  Book entry is not null Success !! Actual and Expected Values are:: true
[2026-07-19 02:10:50] INFO:  Book id is a string Success !! Actual and Expected Values are:: string
[2026-07-19 02:10:50] INFO:  Book title is a string Success !! Actual and Expected Values are:: string
[2026-07-19 02:10:50] INFO:  Book author is a string Success !! Actual and Expected Values are:: string
[2026-07-19 02:10:50] INFO:  Book price is a number Success !! Actual and Expected Values are:: number
[2026-07-19 02:10:50] INFO:  Book genre is a string Success !! Actual and Expected Values are:: string
[2026-07-19 02:10:50] INFO:  Book description is a string Success !! Actual and Expected Values are:: string
[2026-07-19 02:10:50] INFO:  Book image is a string Success !! Actual and Expected Values are:: string
[2026-07-19 02:10:50] INFO:  Book entry is an object Success !! Actual and Expected Values are:: object
[2026-07-19 02:10:50] INFO:  Book entry is not null Success !! Actual and Expected Values are:: true
[2026-07-19 02:10:50] INFO:  Book id is a string Success !! Actual and Expected Values are:: string
[2026-07-19 02:10:50] INFO:  Book title is a string Success !! Actual and Expected Values are:: string
[2026-07-19 02:10:50] INFO:  Book author is a string Success !! Actual and Expected Values are:: string
[2026-07-19 02:10:50] INFO:  Book price is a number Success !! Actual and Expected Values are:: number
[2026-07-19 02:10:50] INFO:  Book genre is a string Success !! Actual and Expected Values are:: string
[2026-07-19 02:10:50] INFO:  Book description is a string Success !! Actual and Expected Values are:: string
[2026-07-19 02:10:50] INFO:  Book image is a string Success !! Actual and Expected Values are:: string
[2026-07-19 02:10:50] INFO:  Book id 12 has expected contract Success !! Actual and Expected Values are:: true
[2026-07-19 02:10:50] INFO:  Book entry is an object Success !! Actual and Expected Values are:: object
[2026-07-19 02:10:50] INFO:  Book entry is not null Success !! Actual and Expected Values are:: true
[2026-07-19 02:10:50] INFO:  Book id is a string Success !! Actual and Expected Values are:: string
[2026-07-19 02:10:50] INFO:  Book title is a string Success !! Actual and Expected Values are:: string
[2026-07-19 02:10:50] INFO:  Book author is a string Success !! Actual and Expected Values are:: string
[2026-07-19 02:10:50] INFO:  Book price is a number Success !! Actual and Expected Values are:: number
[2026-07-19 02:10:50] INFO:  Book genre is a string Success !! Actual and Expected Values are:: string
[2026-07-19 02:10:50] INFO:  Book description is a string Success !! Actual and Expected Values are:: string
[2026-07-19 02:10:50] INFO:  Book image is a string Success !! Actual and Expected Values are:: string
[2026-07-19 02:10:50] INFO:  Book entry is an object Success !! Actual and Expected Values are:: object
[2026-07-19 02:10:50] INFO:  Book entry is not null Success !! Actual and Expected Values are:: true
[2026-07-19 02:10:50] INFO:  Book id is a string Success !! Actual and Expected Values are:: string
[2026-07-19 02:10:50] INFO:  Book title is a string Success !! Actual and Expected Values are:: string
[2026-07-19 02:10:50] INFO:  Book author is a string Success !! Actual and Expected Values are:: string
[2026-07-19 02:10:50] INFO:  Book price is a number Success !! Actual and Expected Values are:: number
[2026-07-19 02:10:50] INFO:  Book genre is a string Success !! Actual and Expected Values are:: string
[2026-07-19 02:10:50] INFO:  Book description is a string Success !! Actual and Expected Values are:: string
[2026-07-19 02:10:50] INFO:  Book image is a string Success !! Actual and Expected Values are:: string
[2026-07-19 02:10:50] INFO:  Book id 13 has expected contract Success !! Actual and Expected Values are:: true
[2026-07-19 02:10:50] INFO:  Book entry is an object Success !! Actual and Expected Values are:: object
[2026-07-19 02:10:50] INFO:  Book entry is not null Success !! Actual and Expected Values are:: true
[2026-07-19 02:10:50] INFO:  Book id is a string Success !! Actual and Expected Values are:: string
[2026-07-19 02:10:50] INFO:  Book title is a string Success !! Actual and Expected Values are:: string
[2026-07-19 02:10:50] INFO:  Book author is a string Success !! Actual and Expected Values are:: string
[2026-07-19 02:10:50] INFO:  Book price is a number Success !! Actual and Expected Values are:: number
[2026-07-19 02:10:50] INFO:  Book genre is a string Success !! Actual and Expected Values are:: string
[2026-07-19 02:10:50] INFO:  Book description is a string Success !! Actual and Expected Values are:: string
[2026-07-19 02:10:50] INFO:  Book image is a string Success !! Actual and Expected Values are:: string
[2026-07-19 02:10:50] INFO:  Book entry is an object Success !! Actual and Expected Values are:: object
[2026-07-19 02:10:50] INFO:  Book entry is not null Success !! Actual and Expected Values are:: true
[2026-07-19 02:10:50] INFO:  Book id is a string Success !! Actual and Expected Values are:: string
[2026-07-19 02:10:50] INFO:  Book title is a string Success !! Actual and Expected Values are:: string
[2026-07-19 02:10:50] INFO:  Book author is a string Success !! Actual and Expected Values are:: string
[2026-07-19 02:10:50] INFO:  Book price is a number Success !! Actual and Expected Values are:: number
[2026-07-19 02:10:50] INFO:  Book genre is a string Success !! Actual and Expected Values are:: string
[2026-07-19 02:10:50] INFO:  Book description is a string Success !! Actual and Expected Values are:: string
[2026-07-19 02:10:50] INFO:  Book image is a string Success !! Actual and Expected Values are:: string
[2026-07-19 02:10:50] INFO:  Book id 14 has expected contract Success !! Actual and Expected Values are:: true
[2026-07-19 02:10:50] INFO:  Book entry is an object Success !! Actual and Expected Values are:: object
[2026-07-19 02:10:50] INFO:  Book entry is not null Success !! Actual and Expected Values are:: true
[2026-07-19 02:10:50] INFO:  Book id is a string Success !! Actual and Expected Values are:: string
[2026-07-19 02:10:50] INFO:  Book title is a string Success !! Actual and Expected Values are:: string
[2026-07-19 02:10:50] INFO:  Book author is a string Success !! Actual and Expected Values are:: string
[2026-07-19 02:10:50] INFO:  Book price is a number Success !! Actual and Expected Values are:: number
[2026-07-19 02:10:50] INFO:  Book genre is a string Success !! Actual and Expected Values are:: string
[2026-07-19 02:10:50] INFO:  Book description is a string Success !! Actual and Expected Values are:: string
[2026-07-19 02:10:50] INFO:  Book image is a string Success !! Actual and Expected Values are:: string
[2026-07-19 02:10:50] INFO:  Book entry is an object Success !! Actual and Expected Values are:: object
[2026-07-19 02:10:50] INFO:  Book entry is not null Success !! Actual and Expected Values are:: true
[2026-07-19 02:10:50] INFO:  Book id is a string Success !! Actual and Expected Values are:: string
[2026-07-19 02:10:50] INFO:  Book title is a string Success !! Actual and Expected Values are:: string
[2026-07-19 02:10:50] INFO:  Book author is a string Success !! Actual and Expected Values are:: string
[2026-07-19 02:10:50] INFO:  Book price is a number Success !! Actual and Expected Values are:: number
[2026-07-19 02:10:50] INFO:  Book genre is a string Success !! Actual and Expected Values are:: string
[2026-07-19 02:10:50] INFO:  Book description is a string Success !! Actual and Expected Values are:: string
[2026-07-19 02:10:50] INFO:  Book image is a string Success !! Actual and Expected Values are:: string
[2026-07-19 02:10:50] INFO:  Book id 15 has expected contract Success !! Actual and Expected Values are:: true
[2026-07-19 02:10:50] INFO:  Book entry is an object Success !! Actual and Expected Values are:: object
[2026-07-19 02:10:50] INFO:  Book entry is not null Success !! Actual and Expected Values are:: true
[2026-07-19 02:10:50] INFO:  Book id is a string Success !! Actual and Expected Values are:: string
[2026-07-19 02:10:50] INFO:  Book title is a string Success !! Actual and Expected Values are:: string
[2026-07-19 02:10:50] INFO:  Book author is a string Success !! Actual and Expected Values are:: string
[2026-07-19 02:10:50] INFO:  Book price is a number Success !! Actual and Expected Values are:: number
[2026-07-19 02:10:50] INFO:  Book genre is a string Success !! Actual and Expected Values are:: string
[2026-07-19 02:10:50] INFO:  Book description is a string Success !! Actual and Expected Values are:: string
[2026-07-19 02:10:50] INFO:  Book image is a string Success !! Actual and Expected Values are:: string
