{"uid":"738fc22c889ec92","name":"Testcase 3: Pagination: Standard page 1 (page=1, limit=5)","fullName":"api/BookCatalog/Test_001_BooksApi.spec.ts:122:9","historyId":"64bd9a95a79aaf8fb24b493bed036e19:4151609b82fd60da52fe302128be4a3c","time":{"start":1784356179806,"stop":1784356179999,"duration":193},"status":"passed","flaky":false,"newFailed":false,"newBroken":false,"newPassed":false,"retriesCount":0,"retriesStatusChange":false,"beforeStages":[],"testStage":{"status":"passed","steps":[{"name":" [2026-07-18 06:29:39] [INFO] \uD83D\uDE80 Making GET request to https://buggy-books.onrender.com/api/books?page=1&limit=5","time":{"start":1784356179809,"stop":1784356179809,"duration":0},"status":"passed","steps":[],"attachments":[],"parameters":[],"stepsCount":0,"shouldDisplayMessage":false,"attachmentsCount":0,"hasContent":false,"attachmentStep":false},{"name":"✅ [2026-07-18 06:29:39] [PASS] ✅ Get paged books list for Standard page 1 Success! Status: 200 OK","time":{"start":1784356179996,"stop":1784356179996,"duration":0},"status":"passed","steps":[],"attachments":[],"parameters":[],"stepsCount":0,"shouldDisplayMessage":false,"attachmentsCount":0,"hasContent":false,"attachmentStep":false},{"name":" [2026-07-18 06:29:39] [INFO] \uD83D\uDCE5 Response Payload: {\n  \"books\": [\n    {\n      \"id\": \"1\",\n      \"title\": \"The Great Buggy Gatsby\",\n      \"author\": \"F. Scott Fitzgerald\",\n      \"price\": 10.99,\n      \"genre\": \"Classic\",\n      \"description\": \"A story of wealth, obsession, and bugs in the Jazz Age.\",\n      \"image\": \"https://images.unsplash.com/photo-1544947950-fa07a98d237f?q=80&w=600&auto=format&fit=crop\"\n    },\n    {\n      \"id\": \"2\",\n      \"title\": \"To Kill a Mockingbird Exception\",\n      \"author\": \"Harper Lee\",\n      \"price\": 15.5,\n      \"genre\": \"Classic\",\n      \"description\": \"A coming-of-age tale with unhandled exceptions.\",\n      \"image\": \"https://images.unsplash.com/photo-1512820790803-83ca734da794?q=80&w=600&auto=format&fit=crop\"\n    },\n    {\n      \"id\": \"3\",\n      \"title\": \"1984 Bugs\",\n      \"author\": \"George Orwell\",\n      \"price\": 12,\n      \"genre\": \"Dystopian\",\n      \"description\": \"Big Bug is watching your code.\",\n      \"image\": \"https://images.unsplash.com/photo-1543002588-bfa74002ed7e?q=80&w=600&auto=format&fit=crop\"\n    },\n    {\n      \"id\": \"4\",\n      \"title\": \"Pride and Prejudice and Performance Issues\",\n      \"author\": \"Jane Austen\",\n      \"price\": 9.99,\n      \"genre\": \"Classic\",\n      \"description\": \"A tale of love, society, and slow query performance.\",\n      \"image\": \"https://images.unsplash.com/photo-1589829085413-56de8ae18c73?q=80&w=600&auto=format&fit=crop\"\n    },\n    {\n      \"id\": \"5\",\n      \"title\": \"The Null and the Furious\",\n      \"author\": \"Cormac McCarthy\",\n      \"price\": 13.99,\n      \"genre\": \"Thriller\",\n      \"description\": \"Null pointer exceptions wreak havoc on the open road.\",\n      \"image\": \"https://images.unsplash.com/photo-1476275466078-4007374efbbe?q=80&w=600&auto=format&fit=crop\"\n    }\n  ],\n  \"total\": 15,\n  \"page\": 1,\n  \"totalPages\": 3,\n  \"limit\": 5\n}","time":{"start":1784356179997,"stop":1784356179997,"duration":0},"status":"passed","steps":[],"attachments":[],"parameters":[],"stepsCount":0,"shouldDisplayMessage":false,"attachmentsCount":0,"hasContent":false,"attachmentStep":false},{"name":"✅ [2026-07-18 06:29:39] [PASS]  Status code should be 200 for Standard page 1 Success !! Actual and Expected Values are:: 200","time":{"start":1784356179997,"stop":1784356179997,"duration":0},"status":"passed","steps":[],"attachments":[],"parameters":[],"stepsCount":0,"shouldDisplayMessage":false,"attachmentsCount":0,"hasContent":false,"attachmentStep":false},{"name":"✅ [2026-07-18 06:29:39] [PASS]  Response page should be 1 for Standard page 1 Success !! Actual and Expected Values are:: 1","time":{"start":1784356179998,"stop":1784356179999,"duration":1},"status":"passed","steps":[],"attachments":[],"parameters":[],"stepsCount":0,"shouldDisplayMessage":false,"attachmentsCount":0,"hasContent":false,"attachmentStep":false},{"name":"✅ [2026-07-18 06:29:40] [PASS]  Books array length should be less than or equal to limit 5 Success !! Actual and Expected Values are:: true","time":{"start":1784356180000,"stop":1784356180001,"duration":1},"status":"passed","steps":[],"attachments":[],"parameters":[],"stepsCount":0,"shouldDisplayMessage":false,"attachmentsCount":0,"hasContent":false,"attachmentStep":false}],"attachments":[{"uid":"ef1aef3fa6b5e277","name":"stdout","source":"ef1aef3fa6b5e277.txt","type":"text/plain","size":2408}],"parameters":[],"stepsCount":6,"shouldDisplayMessage":false,"attachmentsCount":1,"hasContent":true,"attachmentStep":false},"afterStages":[],"labels":[{"name":"language","value":"javascript"},{"name":"framework","value":"playwright"},{"name":"package","value":"api.BookCatalog.Test_001_BooksApi.spec.ts"},{"name":"titlePath","value":" > Google Chrome > api/BookCatalog/Test_001_BooksApi.spec.ts > Books API - List and Security"},{"name":"host","value":"fa8b7aee77ce"},{"name":"thread","value":"pid-1518-worker-0"},{"name":"parentSuite","value":"Google Chrome"},{"name":"suite","value":"api/BookCatalog/Test_001_BooksApi.spec.ts"},{"name":"subSuite","value":"Books API - List and Security"},{"name":"resultFormat","value":"allure2"}],"parameters":[{"name":"Project","value":"Google Chrome"}],"links":[],"hidden":false,"retry":false,"extra":{"severity":"normal","retries":[],"categories":[],"tags":[]},"source":"738fc22c889ec92.json","parameterValues":["Google Chrome"]}