{"uid":"eb3e2b90c5947672","name":"Testcase 3: Pagination: Exceeding total pages (page=9999, limit=10)","fullName":"api/BookCatalog/Test_001_BooksApi.spec.ts:122:9","historyId":"8121de61c2a54dd80f07f7598863b114:4151609b82fd60da52fe302128be4a3c","time":{"start":1784356180200,"stop":1784356180312,"duration":112},"status":"passed","flaky":false,"newFailed":false,"newBroken":false,"newPassed":false,"retriesCount":0,"retriesStatusChange":false,"beforeStages":[],"testStage":{"status":"passed","steps":[{"name":" [2026-07-18 06:29:40] [INFO] \uD83D\uDE80 Making GET request to https://buggy-books.onrender.com/api/books?page=9999&limit=10","time":{"start":1784356180202,"stop":1784356180203,"duration":1},"status":"passed","steps":[],"attachments":[],"parameters":[],"stepsCount":0,"shouldDisplayMessage":false,"attachmentsCount":0,"hasContent":false,"attachmentStep":false},{"name":"✅ [2026-07-18 06:29:40] [PASS] ✅ Get paged books list for Exceeding total pages Success! Status: 200 OK","time":{"start":1784356180308,"stop":1784356180308,"duration":0},"status":"passed","steps":[],"attachments":[],"parameters":[],"stepsCount":0,"shouldDisplayMessage":false,"attachmentsCount":0,"hasContent":false,"attachmentStep":false},{"name":" [2026-07-18 06:29:40] [INFO] \uD83D\uDCE5 Response Payload: {\n  \"books\": [],\n  \"total\": 15,\n  \"page\": 9999,\n  \"totalPages\": 2,\n  \"limit\": 10\n}","time":{"start":1784356180309,"stop":1784356180309,"duration":0},"status":"passed","steps":[],"attachments":[],"parameters":[],"stepsCount":0,"shouldDisplayMessage":false,"attachmentsCount":0,"hasContent":false,"attachmentStep":false},{"name":"✅ [2026-07-18 06:29:40] [PASS]  Status code should be 200 for Exceeding total pages Success !! Actual and Expected Values are:: 200","time":{"start":1784356180309,"stop":1784356180310,"duration":1},"status":"passed","steps":[],"attachments":[],"parameters":[],"stepsCount":0,"shouldDisplayMessage":false,"attachmentsCount":0,"hasContent":false,"attachmentStep":false},{"name":"✅ [2026-07-18 06:29:40] [PASS]  Response page should be 9999 for Exceeding total pages Success !! Actual and Expected Values are:: 9999","time":{"start":1784356180311,"stop":1784356180311,"duration":0},"status":"passed","steps":[],"attachments":[],"parameters":[],"stepsCount":0,"shouldDisplayMessage":false,"attachmentsCount":0,"hasContent":false,"attachmentStep":false},{"name":"✅ [2026-07-18 06:29:40] [PASS]  Books array should be empty for out-of-bounds page 9999 Success !! Actual and Expected Values are:: 0","time":{"start":1784356180313,"stop":1784356180313,"duration":0},"status":"passed","steps":[],"attachments":[],"parameters":[],"stepsCount":0,"shouldDisplayMessage":false,"attachmentsCount":0,"hasContent":false,"attachmentStep":false}],"attachments":[{"uid":"173acfaa0044a22d","name":"stdout","source":"173acfaa0044a22d.txt","type":"text/plain","size":747}],"parameters":[],"stepsCount":6,"shouldDisplayMessage":false,"attachmentsCount":1,"hasContent":true,"attachmentStep":false},"afterStages":[],"labels":[{"name":"language","value":"javascript"},{"name":"framework","value":"playwright"},{"name":"package","value":"api.BookCatalog.Test_001_BooksApi.spec.ts"},{"name":"titlePath","value":" > Google Chrome > api/BookCatalog/Test_001_BooksApi.spec.ts > Books API - List and Security"},{"name":"host","value":"fa8b7aee77ce"},{"name":"thread","value":"pid-1518-worker-0"},{"name":"parentSuite","value":"Google Chrome"},{"name":"suite","value":"api/BookCatalog/Test_001_BooksApi.spec.ts"},{"name":"subSuite","value":"Books API - List and Security"},{"name":"resultFormat","value":"allure2"}],"parameters":[{"name":"Project","value":"Google Chrome"}],"links":[],"hidden":false,"retry":false,"extra":{"severity":"normal","retries":[],"categories":[],"tags":[]},"source":"eb3e2b90c5947672.json","parameterValues":["Google Chrome"]}