[
  {
    "id": "1784375168401-1",
    "startedAt": "2026-07-18T11:46:08.401Z",
    "url": "https://buggy-books.onrender.com/socket.io/?EIO=4&transport=polling&t=awjniwwg",
    "method": "GET",
    "resourceType": "xhr",
    "navigationRequest": false,
    "headers": {
      "sec-ch-ua-platform": "\"Linux\"",
      "referer": "https://buggy-books-fe.onrender.com/",
      "user-agent": "Mozilla/5.0 (X11; Linux x86_64) AppleWebKit/537.36 (KHTML, like Gecko) HeadlessChrome/150.0.0.0 Safari/537.36",
      "accept": "*/*",
      "sec-ch-ua": "\"Not;A=Brand\";v=\"8\", \"Chromium\";v=\"150\", \"Google Chrome\";v=\"150\"",
      "accept-language": "en-US",
      "sec-ch-ua-mobile": "?0"
    },
    "postData": null,
    "endedAt": "2026-07-18T11:46:08.695Z",
    "durationMs": 294,
    "response": {
      "status": 200,
      "statusText": "",
      "ok": true,
      "headers": {
        "access-control-allow-credentials": "true",
        "access-control-allow-origin": "https://buggy-books-fe.onrender.com",
        "alt-svc": "h3=\":443\"; ma=86400",
        "cache-control": "no-store",
        "cf-cache-status": "DYNAMIC",
        "cf-ray": "a1d13e82afd9a20d-MSP",
        "content-encoding": "br",
        "content-length": "106",
        "content-type": "text/plain; charset=UTF-8",
        "date": "Sat, 18 Jul 2026 11:46:08 GMT",
        "rndr-id": "2fce252b-922b-4500",
        "server": "cloudflare",
        "vary": "Origin, Accept-Encoding",
        "x-render-origin-server": "Render"
      },
      "body": "0{\"sid\":\"QTSMzfwYUDjxxBlDAAAW\",\"upgrades\":[\"websocket\"],\"pingInterval\":25000,\"pingTimeout\":20000,\"maxPayload\":1000000}"
    }
  },
  {
    "id": "1784375168401-2",
    "startedAt": "2026-07-18T11:46:08.401Z",
    "url": "https://buggy-books.onrender.com/api/books?page=1&limit=8",
    "method": "GET",
    "resourceType": "fetch",
    "navigationRequest": false,
    "headers": {
      "sec-ch-ua-platform": "\"Linux\"",
      "referer": "https://buggy-books-fe.onrender.com/",
      "user-agent": "Mozilla/5.0 (X11; Linux x86_64) AppleWebKit/537.36 (KHTML, like Gecko) HeadlessChrome/150.0.0.0 Safari/537.36",
      "sec-ch-ua": "\"Not;A=Brand\";v=\"8\", \"Chromium\";v=\"150\", \"Google Chrome\";v=\"150\"",
      "content-type": "application/json",
      "sec-ch-ua-mobile": "?0",
      "accept-language": "en-US"
    },
    "postData": null,
    "endedAt": "2026-07-18T11:46:08.772Z",
    "durationMs": 371,
    "response": {
      "status": 200,
      "statusText": "",
      "ok": true,
      "headers": {
        "access-control-allow-credentials": "true",
        "access-control-allow-origin": "https://buggy-books-fe.onrender.com",
        "alt-svc": "h3=\":443\"; ma=86400",
        "cf-cache-status": "DYNAMIC",
        "cf-ray": "a1d13e836f496abb-MSP",
        "content-encoding": "br",
        "content-length": "903",
        "content-security-policy": "default-src 'self';base-uri 'self';font-src 'self' https: data:;form-action 'self';frame-ancestors 'self';img-src 'self' data:;object-src 'none';script-src 'self';script-src-attr 'none';style-src 'self' https: 'unsafe-inline';upgrade-insecure-requests",
        "content-type": "application/json; charset=utf-8",
        "cross-origin-opener-policy": "same-origin",
        "cross-origin-resource-policy": "same-origin",
        "date": "Sat, 18 Jul 2026 11:46:08 GMT",
        "etag": "W/\"8dd-1eYedvc9P4YRO/rTyZQlBkE8zmI\"",
        "origin-agent-cluster": "?1",
        "priority": "u=1,i",
        "ratelimit-limit": "600",
        "ratelimit-policy": "600;w=60",
        "ratelimit-remaining": "597",
        "ratelimit-reset": "60",
        "referrer-policy": "no-referrer",
        "rndr-id": "20985504-27df-47cc",
        "server": "cloudflare",
        "server-timing": "cfExtPri",
        "strict-transport-security": "max-age=31536000; includeSubDomains",
        "vary": "Origin, Accept-Encoding",
        "x-content-type-options": "nosniff",
        "x-correlation-id": "8c4f4617-13b4-4898-ac9e-0ffb9fca7f9b",
        "x-dns-prefetch-control": "off",
        "x-download-options": "noopen",
        "x-frame-options": "SAMEORIGIN",
        "x-permitted-cross-domain-policies": "none",
        "x-render-origin-server": "Render",
        "x-xss-protection": "0"
      },
      "body": "{\"books\":[{\"id\":\"1\",\"title\":\"The Great Buggy Gatsby\",\"author\":\"F. Scott Fitzgerald\",\"price\":10.99,\"genre\":\"Classic\",\"description\":\"A story of wealth, obsession, and bugs in the Jazz Age.\",\"image\":\"https://images.unsplash.com/photo-1544947950-fa07a98d237f?q=80&w=600&auto=format&fit=crop\"},{\"id\":\"2\",\"title\":\"To Kill a Mockingbird Exception\",\"author\":\"Harper Lee\",\"price\":15.5,\"genre\":\"Classic\",\"description\":\"A coming-of-age tale with unhandled exceptions.\",\"image\":\"https://images.unsplash.com/photo-1512820790803-83ca734da794?q=80&w=600&auto=format&fit=crop\"},{\"id\":\"3\",\"title\":\"1984 Bugs\",\"author\":\"George Orwell\",\"price\":12,\"genre\":\"Dystopian\",\"description\":\"Big Bug is watching your code.\",\"image\":\"https://images.unsplash.com/photo-1543002588-bfa74002ed7e?q=80&w=600&auto=format&fit=crop\"},{\"id\":\"4\",\"title\":\"Pride and Prejudice and Performance Issues\",\"author\":\"Jane Austen\",\"price\":9.99,\"genre\":\"Classic\",\"description\":\"A tale of love, society, and slow query performance.\",\"image\":\"https://images.unsplash.com/photo-1589829085413-56de8ae18c73?q=80&w=600&auto=format&fit=crop\"},{\"id\":\"5\",\"title\":\"The Null and the Furious\",\"author\":\"Cormac McCarthy\",\"price\":13.99,\"genre\":\"Thriller\",\"description\":\"Null pointer exceptions wreak havoc on the open road.\",\"image\":\"https://images.unsplash.com/photo-1476275466078-4007374efbbe?q=80&w=600&auto=format&fit=crop\"},{\"id\":\"6\",\"title\":\"Harry Potter and the Goblet of Fire Events\",\"author\":\"J.K. Rowling\",\"price\":19.99,\"genre\":\"Fantasy\",\"description\":\"Asynchronous magic tournaments and event loop chaos.\",\"image\":\"https://images.unsplash.com/photo-1589998059171-988d887df646?q=80&w=600&auto=format&fit=crop\"},{\"id\":\"7\",\"title\":\"The Hitchhiker's Guide to the API\",\"author\":\"Douglas Adams\",\"price\":11.5,\"genre\":\"Sci-Fi\",\"description\":\"The answer to life, the universe, and REST endpoints is 42.\",\"image\":\"https://images.unsplash.com/photo-1462331940025-496dfbfc7564?q=80&w=600&auto=format&fit=crop\"},{\"id\":\"8\",\"title\":\"Moby Stack Overflow\",\"author\":\"Herman Melville\",\"price\":8.99,\"genre\":\"Classic\",\"description\":\"Captain Ahab's obsessive pursuit of the white stack trace.\",\"image\":\"https://images.unsplash.com/photo-1623018035782-b269248df916?q=80&w=600&auto=format&fit=crop\"}],\"total\":15,\"page\":1,\"totalPages\":2,\"limit\":8}"
    }
  },
  {
    "id": "1784375168401-3",
    "startedAt": "2026-07-18T11:46:08.401Z",
    "url": "https://buggy-books.onrender.com/api/cart",
    "method": "GET",
    "resourceType": "fetch",
    "navigationRequest": false,
    "headers": {
      "sec-ch-ua-platform": "\"Linux\"",
      "referer": "https://buggy-books-fe.onrender.com/",
      "user-agent": "Mozilla/5.0 (X11; Linux x86_64) AppleWebKit/537.36 (KHTML, like Gecko) HeadlessChrome/150.0.0.0 Safari/537.36",
      "sec-ch-ua": "\"Not;A=Brand\";v=\"8\", \"Chromium\";v=\"150\", \"Google Chrome\";v=\"150\"",
      "content-type": "application/json",
      "sec-ch-ua-mobile": "?0",
      "accept-language": "en-US"
    },
    "postData": null,
    "endedAt": "2026-07-18T11:46:08.685Z",
    "durationMs": 284,
    "response": {
      "status": 401,
      "statusText": "",
      "ok": false,
      "headers": {
        "access-control-allow-credentials": "true",
        "access-control-allow-origin": "https://buggy-books-fe.onrender.com",
        "alt-svc": "h3=\":443\"; ma=86400",
        "cf-cache-status": "DYNAMIC",
        "cf-ray": "a1d13e836f3d6abb-MSP",
        "content-encoding": "br",
        "content-length": "40",
        "content-security-policy": "default-src 'self';base-uri 'self';font-src 'self' https: data:;form-action 'self';frame-ancestors 'self';img-src 'self' data:;object-src 'none';script-src 'self';script-src-attr 'none';style-src 'self' https: 'unsafe-inline';upgrade-insecure-requests",
        "content-type": "application/json; charset=utf-8",
        "cross-origin-opener-policy": "same-origin",
        "cross-origin-resource-policy": "same-origin",
        "date": "Sat, 18 Jul 2026 11:46:08 GMT",
        "etag": "W/\"28-Phvj6PbuhzEhcHCCX61oKX421nA\"",
        "origin-agent-cluster": "?1",
        "priority": "u=1,i",
        "ratelimit-limit": "600",
        "ratelimit-policy": "600;w=60",
        "ratelimit-remaining": "598",
        "ratelimit-reset": "60",
        "referrer-policy": "no-referrer",
        "rndr-id": "09a6c51d-8584-4d3e",
        "server": "cloudflare",
        "server-timing": "cfExtPri",
        "strict-transport-security": "max-age=31536000; includeSubDomains",
        "vary": "Origin, Accept-Encoding",
        "x-content-type-options": "nosniff",
        "x-correlation-id": "e368f856-d4e5-48af-a458-dfbbe5bac1eb",
        "x-dns-prefetch-control": "off",
        "x-download-options": "noopen",
        "x-frame-options": "SAMEORIGIN",
        "x-permitted-cross-domain-policies": "none",
        "x-render-origin-server": "Render",
        "x-xss-protection": "0"
      },
      "body": "{\"error\":\"Unauthorized: Token required\"}"
    }
  },
  {
    "id": "1784375168401-4",
    "startedAt": "2026-07-18T11:46:08.401Z",
    "url": "https://buggy-books.onrender.com/api/test/config",
    "method": "GET",
    "resourceType": "fetch",
    "navigationRequest": false,
    "headers": {
      "sec-ch-ua-platform": "\"Linux\"",
      "referer": "https://buggy-books-fe.onrender.com/",
      "user-agent": "Mozilla/5.0 (X11; Linux x86_64) AppleWebKit/537.36 (KHTML, like Gecko) HeadlessChrome/150.0.0.0 Safari/537.36",
      "sec-ch-ua": "\"Not;A=Brand\";v=\"8\", \"Chromium\";v=\"150\", \"Google Chrome\";v=\"150\"",
      "accept-language": "en-US",
      "sec-ch-ua-mobile": "?0"
    },
    "postData": null,
    "endedAt": "2026-07-18T11:46:08.544Z",
    "durationMs": 143,
    "response": {
      "status": 200,
      "statusText": "",
      "ok": true,
      "headers": {
        "access-control-allow-credentials": "true",
        "access-control-allow-origin": "https://buggy-books-fe.onrender.com",
        "alt-svc": "h3=\":443\"; ma=86400",
        "cf-cache-status": "DYNAMIC",
        "cf-ray": "a1d13e82bdf3a1e5-MSP",
        "content-encoding": "br",
        "content-length": "138",
        "content-security-policy": "default-src 'self';base-uri 'self';font-src 'self' https: data:;form-action 'self';frame-ancestors 'self';img-src 'self' data:;object-src 'none';script-src 'self';script-src-attr 'none';style-src 'self' https: 'unsafe-inline';upgrade-insecure-requests",
        "content-type": "application/json; charset=utf-8",
        "cross-origin-opener-policy": "same-origin",
        "cross-origin-resource-policy": "same-origin",
        "date": "Sat, 18 Jul 2026 11:46:08 GMT",
        "etag": "W/\"a8-7gPNKfrsLBb14LKrwkGpEOOXtkg\"",
        "origin-agent-cluster": "?1",
        "ratelimit-limit": "600",
        "ratelimit-policy": "600;w=60",
        "ratelimit-remaining": "599",
        "ratelimit-reset": "60",
        "referrer-policy": "no-referrer",
        "rndr-id": "31ec246f-0e84-4bd6",
        "server": "cloudflare",
        "strict-transport-security": "max-age=31536000; includeSubDomains",
        "vary": "Origin, Accept-Encoding",
        "x-content-type-options": "nosniff",
        "x-correlation-id": "90f2c9ae-4a57-4603-8265-37ae27f56547",
        "x-dns-prefetch-control": "off",
        "x-download-options": "noopen",
        "x-frame-options": "SAMEORIGIN",
        "x-permitted-cross-domain-policies": "none",
        "x-render-origin-server": "Render",
        "x-xss-protection": "0"
      },
      "body": "{\"checkoutFailureRate\":0.15,\"inventoryDelayMs\":3000,\"jwtExpirySeconds\":900,\"websocketDropRate\":0,\"uploadFailureRate\":0,\"injectA11yViolations\":false,\"visualChaos\":false}"
    }
  },
  {
    "id": "1784375168639-5",
    "startedAt": "2026-07-18T11:46:08.639Z",
    "url": "https://buggy-books.onrender.com/api/auth/refresh",
    "method": "POST",
    "resourceType": "fetch",
    "navigationRequest": false,
    "headers": {
      "sec-ch-ua-platform": "\"Linux\"",
      "referer": "https://buggy-books-fe.onrender.com/",
      "user-agent": "Mozilla/5.0 (X11; Linux x86_64) AppleWebKit/537.36 (KHTML, like Gecko) HeadlessChrome/150.0.0.0 Safari/537.36",
      "sec-ch-ua": "\"Not;A=Brand\";v=\"8\", \"Chromium\";v=\"150\", \"Google Chrome\";v=\"150\"",
      "content-type": "application/json",
      "sec-ch-ua-mobile": "?0",
      "accept-language": "en-US"
    },
    "postData": null,
    "endedAt": "2026-07-18T11:46:09.031Z",
    "durationMs": 392,
    "response": {
      "status": 401,
      "statusText": "",
      "ok": false,
      "headers": {
        "access-control-allow-credentials": "true",
        "access-control-allow-origin": "https://buggy-books-fe.onrender.com",
        "alt-svc": "h3=\":443\"; ma=86400",
        "cf-cache-status": "DYNAMIC",
        "cf-ray": "a1d13e849c906abb-MSP",
        "content-encoding": "br",
        "content-length": "106",
        "content-security-policy": "default-src 'self';base-uri 'self';font-src 'self' https: data:;form-action 'self';frame-ancestors 'self';img-src 'self' data:;object-src 'none';script-src 'self';script-src-attr 'none';style-src 'self' https: 'unsafe-inline';upgrade-insecure-requests",
        "content-type": "application/json; charset=utf-8",
        "cross-origin-opener-policy": "same-origin",
        "cross-origin-resource-policy": "same-origin",
        "date": "Sat, 18 Jul 2026 11:46:08 GMT",
        "etag": "W/\"87-YvHvrIVYD8GaVOl/B4POjBoH6ko\"",
        "origin-agent-cluster": "?1",
        "priority": "u=1,i",
        "ratelimit-limit": "600",
        "ratelimit-policy": "600;w=60",
        "ratelimit-remaining": "596",
        "ratelimit-reset": "60",
        "referrer-policy": "no-referrer",
        "rndr-id": "ee3fea2d-c7ef-4b4d",
        "server": "cloudflare",
        "server-timing": "cfExtPri",
        "strict-transport-security": "max-age=31536000; includeSubDomains",
        "vary": "Origin, Accept-Encoding",
        "x-content-type-options": "nosniff",
        "x-correlation-id": "1cceb350-a7ca-44b7-b885-37a3493f0fd1",
        "x-dns-prefetch-control": "off",
        "x-download-options": "noopen",
        "x-frame-options": "SAMEORIGIN",
        "x-permitted-cross-domain-policies": "none",
        "x-render-origin-server": "Render",
        "x-xss-protection": "0"
      },
      "body": "[Response body capture unavailable or timed out]"
    }
  },
  {
    "id": "1784375168695-6",
    "startedAt": "2026-07-18T11:46:08.695Z",
    "url": "https://buggy-books.onrender.com/socket.io/?EIO=4&transport=polling&t=awjw2zi6&sid=QTSMzfwYUDjxxBlDAAAW",
    "method": "POST",
    "resourceType": "xhr",
    "navigationRequest": false,
    "headers": {
      "sec-ch-ua-platform": "\"Linux\"",
      "referer": "https://buggy-books-fe.onrender.com/",
      "accept-language": "en-US",
      "sec-ch-ua": "\"Not;A=Brand\";v=\"8\", \"Chromium\";v=\"150\", \"Google Chrome\";v=\"150\"",
      "sec-ch-ua-mobile": "?0",
      "user-agent": "Mozilla/5.0 (X11; Linux x86_64) AppleWebKit/537.36 (KHTML, like Gecko) HeadlessChrome/150.0.0.0 Safari/537.36",
      "accept": "*/*",
      "content-type": "text/plain;charset=UTF-8"
    },
    "postData": "40",
    "endedAt": "2026-07-18T11:46:08.811Z",
    "durationMs": 116,
    "response": {
      "status": 200,
      "statusText": "",
      "ok": true,
      "headers": {
        "access-control-allow-credentials": "true",
        "access-control-allow-origin": "https://buggy-books-fe.onrender.com",
        "alt-svc": "h3=\":443\"; ma=86400",
        "cache-control": "no-store",
        "cf-cache-status": "DYNAMIC",
        "cf-ray": "a1d13e845b756abb-MSP",
        "content-encoding": "br",
        "content-length": "6",
        "content-type": "text/html",
        "date": "Sat, 18 Jul 2026 11:46:08 GMT",
        "priority": "u=1,i",
        "rndr-id": "18a07bd6-c5ec-4c82",
        "server": "cloudflare",
        "server-timing": "cfExtPri",
        "vary": "Origin, Accept-Encoding",
        "x-render-origin-server": "Render"
      },
      "body": "ok"
    }
  },
  {
    "id": "1784375168695-7",
    "startedAt": "2026-07-18T11:46:08.695Z",
    "url": "https://buggy-books.onrender.com/socket.io/?EIO=4&transport=polling&t=awjw4mtc&sid=QTSMzfwYUDjxxBlDAAAW",
    "method": "GET",
    "resourceType": "xhr",
    "navigationRequest": false,
    "headers": {
      "sec-ch-ua-platform": "\"Linux\"",
      "referer": "https://buggy-books-fe.onrender.com/",
      "user-agent": "Mozilla/5.0 (X11; Linux x86_64) AppleWebKit/537.36 (KHTML, like Gecko) HeadlessChrome/150.0.0.0 Safari/537.36",
      "accept": "*/*",
      "sec-ch-ua": "\"Not;A=Brand\";v=\"8\", \"Chromium\";v=\"150\", \"Google Chrome\";v=\"150\"",
      "accept-language": "en-US",
      "sec-ch-ua-mobile": "?0"
    },
    "postData": null,
    "endedAt": "2026-07-18T11:46:08.802Z",
    "durationMs": 107,
    "response": {
      "status": 200,
      "statusText": "",
      "ok": true,
      "headers": {
        "access-control-allow-credentials": "true",
        "access-control-allow-origin": "https://buggy-books-fe.onrender.com",
        "alt-svc": "h3=\":443\"; ma=86400",
        "cache-control": "no-store",
        "cf-cache-status": "DYNAMIC",
        "cf-ray": "a1d13e845b8d6abb-MSP",
        "content-encoding": "br",
        "content-length": "36",
        "content-type": "text/plain; charset=UTF-8",
        "date": "Sat, 18 Jul 2026 11:46:08 GMT",
        "priority": "u=1,i",
        "rndr-id": "29adc576-7baf-4ced",
        "server": "cloudflare",
        "server-timing": "cfExtPri",
        "vary": "Origin, Accept-Encoding",
        "x-render-origin-server": "Render"
      },
      "body": "40{\"sid\":\"mEXOQcFyGf0n426kAAAX\"}"
    }
  },
  {
    "id": "1784375168802-8",
    "startedAt": "2026-07-18T11:46:08.802Z",
    "url": "https://buggy-books.onrender.com/socket.io/?EIO=4&transport=polling&t=awjz2qft&sid=QTSMzfwYUDjxxBlDAAAW",
    "method": "GET",
    "resourceType": "xhr",
    "navigationRequest": false,
    "headers": {
      "sec-ch-ua-platform": "\"Linux\"",
      "referer": "https://buggy-books-fe.onrender.com/",
      "user-agent": "Mozilla/5.0 (X11; Linux x86_64) AppleWebKit/537.36 (KHTML, like Gecko) HeadlessChrome/150.0.0.0 Safari/537.36",
      "accept": "*/*",
      "sec-ch-ua": "\"Not;A=Brand\";v=\"8\", \"Chromium\";v=\"150\", \"Google Chrome\";v=\"150\"",
      "accept-language": "en-US",
      "sec-ch-ua-mobile": "?0"
    },
    "postData": null,
    "endedAt": "2026-07-18T11:46:09.006Z",
    "durationMs": 204,
    "failure": {
      "errorText": "net::ERR_ABORTED"
    }
  }
]