[
  {
    "id": "1784374871138-1",
    "startedAt": "2026-07-18T11:41:11.138Z",
    "url": "https://buggy-books.onrender.com/socket.io/?EIO=4&transport=polling&t=aq6aflvi",
    "method": "GET",
    "resourceType": "xhr",
    "navigationRequest": false,
    "headers": {
      "sec-ch-ua-platform": "\"Linux\"",
      "referer": "https://buggy-books-fe.onrender.com/",
      "user-agent": "Mozilla/5.0 (X11; Linux x86_64) AppleWebKit/537.36 (KHTML, like Gecko) HeadlessChrome/150.0.0.0 Safari/537.36",
      "accept": "*/*",
      "sec-ch-ua": "\"Not;A=Brand\";v=\"8\", \"Chromium\";v=\"150\", \"Google Chrome\";v=\"150\"",
      "accept-language": "en-US",
      "sec-ch-ua-mobile": "?0"
    },
    "postData": null,
    "endedAt": "2026-07-18T11:41:11.226Z",
    "durationMs": 88,
    "response": {
      "status": 200,
      "statusText": "",
      "ok": true,
      "headers": {
        "access-control-allow-credentials": "true",
        "access-control-allow-origin": "https://buggy-books-fe.onrender.com",
        "alt-svc": "h3=\":443\"; ma=86400",
        "cache-control": "no-store",
        "cf-cache-status": "DYNAMIC",
        "cf-ray": "a1d13740aa63eae4-ORD",
        "content-encoding": "br",
        "content-length": "106",
        "content-type": "text/plain; charset=UTF-8",
        "date": "Sat, 18 Jul 2026 11:41:11 GMT",
        "rndr-id": "d80efd7e-8f0a-44a2",
        "server": "cloudflare",
        "vary": "Origin, Accept-Encoding",
        "x-render-origin-server": "Render"
      },
      "body": "0{\"sid\":\"tNfB1swMmKSOZWnFAAAU\",\"upgrades\":[\"websocket\"],\"pingInterval\":25000,\"pingTimeout\":20000,\"maxPayload\":1000000}"
    }
  },
  {
    "id": "1784374871138-2",
    "startedAt": "2026-07-18T11:41:11.138Z",
    "url": "https://buggy-books.onrender.com/api/books?page=1&limit=8",
    "method": "GET",
    "resourceType": "fetch",
    "navigationRequest": false,
    "headers": {
      "sec-ch-ua-platform": "\"Linux\"",
      "referer": "https://buggy-books-fe.onrender.com/",
      "user-agent": "Mozilla/5.0 (X11; Linux x86_64) AppleWebKit/537.36 (KHTML, like Gecko) HeadlessChrome/150.0.0.0 Safari/537.36",
      "sec-ch-ua": "\"Not;A=Brand\";v=\"8\", \"Chromium\";v=\"150\", \"Google Chrome\";v=\"150\"",
      "content-type": "application/json",
      "sec-ch-ua-mobile": "?0",
      "accept-language": "en-US"
    },
    "postData": null,
    "endedAt": "2026-07-18T11:41:11.395Z",
    "durationMs": 257,
    "response": {
      "status": 200,
      "statusText": "",
      "ok": true,
      "headers": {
        "access-control-allow-credentials": "true",
        "access-control-allow-origin": "https://buggy-books-fe.onrender.com",
        "alt-svc": "h3=\":443\"; ma=86400",
        "cf-cache-status": "DYNAMIC",
        "cf-ray": "a1d13741cdc1a68b-ORD",
        "content-encoding": "br",
        "content-length": "903",
        "content-security-policy": "default-src 'self';base-uri 'self';font-src 'self' https: data:;form-action 'self';frame-ancestors 'self';img-src 'self' data:;object-src 'none';script-src 'self';script-src-attr 'none';style-src 'self' https: 'unsafe-inline';upgrade-insecure-requests",
        "content-type": "application/json; charset=utf-8",
        "cross-origin-opener-policy": "same-origin",
        "cross-origin-resource-policy": "same-origin",
        "date": "Sat, 18 Jul 2026 11:41:11 GMT",
        "etag": "W/\"8dd-1eYedvc9P4YRO/rTyZQlBkE8zmI\"",
        "origin-agent-cluster": "?1",
        "priority": "u=1,i",
        "ratelimit-limit": "600",
        "ratelimit-policy": "600;w=60",
        "ratelimit-remaining": "581",
        "ratelimit-reset": "44",
        "referrer-policy": "no-referrer",
        "rndr-id": "844b9855-1556-414c",
        "server": "cloudflare",
        "server-timing": "cfExtPri",
        "strict-transport-security": "max-age=31536000; includeSubDomains",
        "vary": "Origin, Accept-Encoding",
        "x-content-type-options": "nosniff",
        "x-correlation-id": "2fe4dc51-6716-4839-bb23-ca2c2586fbcf",
        "x-dns-prefetch-control": "off",
        "x-download-options": "noopen",
        "x-frame-options": "SAMEORIGIN",
        "x-permitted-cross-domain-policies": "none",
        "x-render-origin-server": "Render",
        "x-xss-protection": "0"
      },
      "body": "{\"books\":[{\"id\":\"1\",\"title\":\"The Great Buggy Gatsby\",\"author\":\"F. Scott Fitzgerald\",\"price\":10.99,\"genre\":\"Classic\",\"description\":\"A story of wealth, obsession, and bugs in the Jazz Age.\",\"image\":\"https://images.unsplash.com/photo-1544947950-fa07a98d237f?q=80&w=600&auto=format&fit=crop\"},{\"id\":\"2\",\"title\":\"To Kill a Mockingbird Exception\",\"author\":\"Harper Lee\",\"price\":15.5,\"genre\":\"Classic\",\"description\":\"A coming-of-age tale with unhandled exceptions.\",\"image\":\"https://images.unsplash.com/photo-1512820790803-83ca734da794?q=80&w=600&auto=format&fit=crop\"},{\"id\":\"3\",\"title\":\"1984 Bugs\",\"author\":\"George Orwell\",\"price\":12,\"genre\":\"Dystopian\",\"description\":\"Big Bug is watching your code.\",\"image\":\"https://images.unsplash.com/photo-1543002588-bfa74002ed7e?q=80&w=600&auto=format&fit=crop\"},{\"id\":\"4\",\"title\":\"Pride and Prejudice and Performance Issues\",\"author\":\"Jane Austen\",\"price\":9.99,\"genre\":\"Classic\",\"description\":\"A tale of love, society, and slow query performance.\",\"image\":\"https://images.unsplash.com/photo-1589829085413-56de8ae18c73?q=80&w=600&auto=format&fit=crop\"},{\"id\":\"5\",\"title\":\"The Null and the Furious\",\"author\":\"Cormac McCarthy\",\"price\":13.99,\"genre\":\"Thriller\",\"description\":\"Null pointer exceptions wreak havoc on the open road.\",\"image\":\"https://images.unsplash.com/photo-1476275466078-4007374efbbe?q=80&w=600&auto=format&fit=crop\"},{\"id\":\"6\",\"title\":\"Harry Potter and the Goblet of Fire Events\",\"author\":\"J.K. Rowling\",\"price\":19.99,\"genre\":\"Fantasy\",\"description\":\"Asynchronous magic tournaments and event loop chaos.\",\"image\":\"https://images.unsplash.com/photo-1589998059171-988d887df646?q=80&w=600&auto=format&fit=crop\"},{\"id\":\"7\",\"title\":\"The Hitchhiker's Guide to the API\",\"author\":\"Douglas Adams\",\"price\":11.5,\"genre\":\"Sci-Fi\",\"description\":\"The answer to life, the universe, and REST endpoints is 42.\",\"image\":\"https://images.unsplash.com/photo-1462331940025-496dfbfc7564?q=80&w=600&auto=format&fit=crop\"},{\"id\":\"8\",\"title\":\"Moby Stack Overflow\",\"author\":\"Herman Melville\",\"price\":8.99,\"genre\":\"Classic\",\"description\":\"Captain Ahab's obsessive pursuit of the white stack trace.\",\"image\":\"https://images.unsplash.com/photo-1623018035782-b269248df916?q=80&w=600&auto=format&fit=crop\"}],\"total\":15,\"page\":1,\"totalPages\":2,\"limit\":8}"
    }
  },
  {
    "id": "1784374871138-3",
    "startedAt": "2026-07-18T11:41:11.138Z",
    "url": "https://buggy-books.onrender.com/api/cart",
    "method": "GET",
    "resourceType": "fetch",
    "navigationRequest": false,
    "headers": {
      "sec-ch-ua-platform": "\"Linux\"",
      "referer": "https://buggy-books-fe.onrender.com/",
      "user-agent": "Mozilla/5.0 (X11; Linux x86_64) AppleWebKit/537.36 (KHTML, like Gecko) HeadlessChrome/150.0.0.0 Safari/537.36",
      "sec-ch-ua": "\"Not;A=Brand\";v=\"8\", \"Chromium\";v=\"150\", \"Google Chrome\";v=\"150\"",
      "content-type": "application/json",
      "sec-ch-ua-mobile": "?0",
      "accept-language": "en-US"
    },
    "postData": null,
    "endedAt": "2026-07-18T11:41:11.375Z",
    "durationMs": 237,
    "response": {
      "status": 401,
      "statusText": "",
      "ok": false,
      "headers": {
        "access-control-allow-credentials": "true",
        "access-control-allow-origin": "https://buggy-books-fe.onrender.com",
        "alt-svc": "h3=\":443\"; ma=86400",
        "cf-cache-status": "DYNAMIC",
        "cf-ray": "a1d137414c9fa68b-ORD",
        "content-encoding": "br",
        "content-length": "40",
        "content-security-policy": "default-src 'self';base-uri 'self';font-src 'self' https: data:;form-action 'self';frame-ancestors 'self';img-src 'self' data:;object-src 'none';script-src 'self';script-src-attr 'none';style-src 'self' https: 'unsafe-inline';upgrade-insecure-requests",
        "content-type": "application/json; charset=utf-8",
        "cross-origin-opener-policy": "same-origin",
        "cross-origin-resource-policy": "same-origin",
        "date": "Sat, 18 Jul 2026 11:41:11 GMT",
        "etag": "W/\"28-Phvj6PbuhzEhcHCCX61oKX421nA\"",
        "origin-agent-cluster": "?1",
        "priority": "u=1,i",
        "ratelimit-limit": "600",
        "ratelimit-policy": "600;w=60",
        "ratelimit-remaining": "582",
        "ratelimit-reset": "45",
        "referrer-policy": "no-referrer",
        "rndr-id": "c1c83046-45d1-4d1c",
        "server": "cloudflare",
        "server-timing": "cfExtPri",
        "strict-transport-security": "max-age=31536000; includeSubDomains",
        "vary": "Origin, Accept-Encoding",
        "x-content-type-options": "nosniff",
        "x-correlation-id": "66d6c5f9-8a5f-4734-b40c-42aa41855603",
        "x-dns-prefetch-control": "off",
        "x-download-options": "noopen",
        "x-frame-options": "SAMEORIGIN",
        "x-permitted-cross-domain-policies": "none",
        "x-render-origin-server": "Render",
        "x-xss-protection": "0"
      },
      "body": "{\"error\":\"Unauthorized: Token required\"}"
    }
  },
  {
    "id": "1784374871139-4",
    "startedAt": "2026-07-18T11:41:11.139Z",
    "url": "https://buggy-books.onrender.com/api/test/config",
    "method": "GET",
    "resourceType": "fetch",
    "navigationRequest": false,
    "headers": {
      "sec-ch-ua-platform": "\"Linux\"",
      "referer": "https://buggy-books-fe.onrender.com/",
      "user-agent": "Mozilla/5.0 (X11; Linux x86_64) AppleWebKit/537.36 (KHTML, like Gecko) HeadlessChrome/150.0.0.0 Safari/537.36",
      "sec-ch-ua": "\"Not;A=Brand\";v=\"8\", \"Chromium\";v=\"150\", \"Google Chrome\";v=\"150\"",
      "accept-language": "en-US",
      "sec-ch-ua-mobile": "?0"
    },
    "postData": null,
    "endedAt": "2026-07-18T11:41:11.257Z",
    "durationMs": 118,
    "response": {
      "status": 200,
      "statusText": "",
      "ok": true,
      "headers": {
        "access-control-allow-credentials": "true",
        "access-control-allow-origin": "https://buggy-books-fe.onrender.com",
        "alt-svc": "h3=\":443\"; ma=86400",
        "cf-cache-status": "DYNAMIC",
        "cf-ray": "a1d13740bd833ef3-ORD",
        "content-encoding": "br",
        "content-length": "138",
        "content-security-policy": "default-src 'self';base-uri 'self';font-src 'self' https: data:;form-action 'self';frame-ancestors 'self';img-src 'self' data:;object-src 'none';script-src 'self';script-src-attr 'none';style-src 'self' https: 'unsafe-inline';upgrade-insecure-requests",
        "content-type": "application/json; charset=utf-8",
        "cross-origin-opener-policy": "same-origin",
        "cross-origin-resource-policy": "same-origin",
        "date": "Sat, 18 Jul 2026 11:41:11 GMT",
        "etag": "W/\"a8-7gPNKfrsLBb14LKrwkGpEOOXtkg\"",
        "origin-agent-cluster": "?1",
        "ratelimit-limit": "600",
        "ratelimit-policy": "600;w=60",
        "ratelimit-remaining": "583",
        "ratelimit-reset": "45",
        "referrer-policy": "no-referrer",
        "rndr-id": "559c270d-c7ff-48ba",
        "server": "cloudflare",
        "strict-transport-security": "max-age=31536000; includeSubDomains",
        "vary": "Origin, Accept-Encoding",
        "x-content-type-options": "nosniff",
        "x-correlation-id": "b1c5e106-fad3-4917-bc02-d8b0a408d7f6",
        "x-dns-prefetch-control": "off",
        "x-download-options": "noopen",
        "x-frame-options": "SAMEORIGIN",
        "x-permitted-cross-domain-policies": "none",
        "x-render-origin-server": "Render",
        "x-xss-protection": "0"
      },
      "body": "{\"checkoutFailureRate\":0.15,\"inventoryDelayMs\":3000,\"jwtExpirySeconds\":900,\"websocketDropRate\":0,\"uploadFailureRate\":0,\"injectA11yViolations\":false,\"visualChaos\":false}"
    }
  },
  {
    "id": "1784374871222-5",
    "startedAt": "2026-07-18T11:41:11.222Z",
    "url": "https://buggy-books.onrender.com/socket.io/?EIO=4&transport=polling&t=aq6cwxwh&sid=tNfB1swMmKSOZWnFAAAU",
    "method": "POST",
    "resourceType": "xhr",
    "navigationRequest": false,
    "headers": {
      "sec-ch-ua-platform": "\"Linux\"",
      "referer": "https://buggy-books-fe.onrender.com/",
      "accept-language": "en-US",
      "sec-ch-ua": "\"Not;A=Brand\";v=\"8\", \"Chromium\";v=\"150\", \"Google Chrome\";v=\"150\"",
      "sec-ch-ua-mobile": "?0",
      "user-agent": "Mozilla/5.0 (X11; Linux x86_64) AppleWebKit/537.36 (KHTML, like Gecko) HeadlessChrome/150.0.0.0 Safari/537.36",
      "accept": "*/*",
      "content-type": "text/plain;charset=UTF-8"
    },
    "postData": "40",
    "endedAt": "2026-07-18T11:41:11.415Z",
    "durationMs": 193,
    "response": {
      "status": 200,
      "statusText": "",
      "ok": true,
      "headers": {
        "access-control-allow-credentials": "true",
        "access-control-allow-origin": "https://buggy-books-fe.onrender.com",
        "alt-svc": "h3=\":443\"; ma=86400",
        "cache-control": "no-store",
        "cf-cache-status": "DYNAMIC",
        "cf-ray": "a1d137411c4ea68b-ORD",
        "content-encoding": "br",
        "content-length": "6",
        "content-type": "text/html",
        "date": "Sat, 18 Jul 2026 11:41:11 GMT",
        "priority": "u=1,i",
        "rndr-id": "d33ddf6c-f6ef-4029",
        "server": "cloudflare",
        "server-timing": "cfExtPri",
        "vary": "Origin, Accept-Encoding",
        "x-render-origin-server": "Render"
      },
      "body": "ok"
    }
  },
  {
    "id": "1784374871223-6",
    "startedAt": "2026-07-18T11:41:11.223Z",
    "url": "https://buggy-books.onrender.com/socket.io/?EIO=4&transport=polling&t=aq6cycxm&sid=tNfB1swMmKSOZWnFAAAU",
    "method": "GET",
    "resourceType": "xhr",
    "navigationRequest": false,
    "headers": {
      "sec-ch-ua-platform": "\"Linux\"",
      "referer": "https://buggy-books-fe.onrender.com/",
      "user-agent": "Mozilla/5.0 (X11; Linux x86_64) AppleWebKit/537.36 (KHTML, like Gecko) HeadlessChrome/150.0.0.0 Safari/537.36",
      "accept": "*/*",
      "sec-ch-ua": "\"Not;A=Brand\";v=\"8\", \"Chromium\";v=\"150\", \"Google Chrome\";v=\"150\"",
      "accept-language": "en-US",
      "sec-ch-ua-mobile": "?0"
    },
    "postData": null,
    "endedAt": "2026-07-18T11:41:11.413Z",
    "durationMs": 190,
    "response": {
      "status": 200,
      "statusText": "",
      "ok": true,
      "headers": {
        "access-control-allow-credentials": "true",
        "access-control-allow-origin": "https://buggy-books-fe.onrender.com",
        "alt-svc": "h3=\":443\"; ma=86400",
        "cache-control": "no-store",
        "cf-cache-status": "DYNAMIC",
        "cf-ray": "a1d137412c52a68b-ORD",
        "content-encoding": "br",
        "content-length": "36",
        "content-type": "text/plain; charset=UTF-8",
        "date": "Sat, 18 Jul 2026 11:41:11 GMT",
        "priority": "u=1,i",
        "rndr-id": "46b5fb36-8133-4cd6",
        "server": "cloudflare",
        "server-timing": "cfExtPri",
        "vary": "Origin, Accept-Encoding",
        "x-render-origin-server": "Render"
      },
      "body": "40{\"sid\":\"e_TB4o39RXqtqNYCAAAV\"}"
    }
  },
  {
    "id": "1784374871327-7",
    "startedAt": "2026-07-18T11:41:11.327Z",
    "url": "https://buggy-books.onrender.com/api/auth/refresh",
    "method": "POST",
    "resourceType": "fetch",
    "navigationRequest": false,
    "headers": {
      "sec-ch-ua-platform": "\"Linux\"",
      "referer": "https://buggy-books-fe.onrender.com/",
      "user-agent": "Mozilla/5.0 (X11; Linux x86_64) AppleWebKit/537.36 (KHTML, like Gecko) HeadlessChrome/150.0.0.0 Safari/537.36",
      "sec-ch-ua": "\"Not;A=Brand\";v=\"8\", \"Chromium\";v=\"150\", \"Google Chrome\";v=\"150\"",
      "content-type": "application/json",
      "sec-ch-ua-mobile": "?0",
      "accept-language": "en-US"
    },
    "postData": null,
    "endedAt": "2026-07-18T11:41:11.604Z",
    "durationMs": 277,
    "response": {
      "status": 401,
      "statusText": "",
      "ok": false,
      "headers": {
        "access-control-allow-credentials": "true",
        "access-control-allow-origin": "https://buggy-books-fe.onrender.com",
        "alt-svc": "h3=\":443\"; ma=86400",
        "cf-cache-status": "DYNAMIC",
        "cf-ray": "a1d137422e74a68b-ORD",
        "content-encoding": "br",
        "content-length": "106",
        "content-security-policy": "default-src 'self';base-uri 'self';font-src 'self' https: data:;form-action 'self';frame-ancestors 'self';img-src 'self' data:;object-src 'none';script-src 'self';script-src-attr 'none';style-src 'self' https: 'unsafe-inline';upgrade-insecure-requests",
        "content-type": "application/json; charset=utf-8",
        "cross-origin-opener-policy": "same-origin",
        "cross-origin-resource-policy": "same-origin",
        "date": "Sat, 18 Jul 2026 11:41:11 GMT",
        "etag": "W/\"87-WLeKGCYgxFXL6/5iXfdzXpqgj0k\"",
        "origin-agent-cluster": "?1",
        "priority": "u=1,i",
        "ratelimit-limit": "600",
        "ratelimit-policy": "600;w=60",
        "ratelimit-remaining": "580",
        "ratelimit-reset": "44",
        "referrer-policy": "no-referrer",
        "rndr-id": "c880cedd-002c-4e24",
        "server": "cloudflare",
        "server-timing": "cfExtPri",
        "strict-transport-security": "max-age=31536000; includeSubDomains",
        "vary": "Origin, Accept-Encoding",
        "x-content-type-options": "nosniff",
        "x-correlation-id": "d0b6f803-70d1-45b7-9229-2d1073c9b280",
        "x-dns-prefetch-control": "off",
        "x-download-options": "noopen",
        "x-frame-options": "SAMEORIGIN",
        "x-permitted-cross-domain-policies": "none",
        "x-render-origin-server": "Render",
        "x-xss-protection": "0"
      },
      "body": "[Response body capture unavailable or timed out]"
    }
  },
  {
    "id": "1784374871410-8",
    "startedAt": "2026-07-18T11:41:11.410Z",
    "url": "https://buggy-books.onrender.com/socket.io/?EIO=4&transport=polling&t=aq6i78ux&sid=tNfB1swMmKSOZWnFAAAU",
    "method": "GET",
    "resourceType": "xhr",
    "navigationRequest": false,
    "headers": {
      "sec-ch-ua-platform": "\"Linux\"",
      "referer": "https://buggy-books-fe.onrender.com/",
      "user-agent": "Mozilla/5.0 (X11; Linux x86_64) AppleWebKit/537.36 (KHTML, like Gecko) HeadlessChrome/150.0.0.0 Safari/537.36",
      "accept": "*/*",
      "sec-ch-ua": "\"Not;A=Brand\";v=\"8\", \"Chromium\";v=\"150\", \"Google Chrome\";v=\"150\"",
      "accept-language": "en-US",
      "sec-ch-ua-mobile": "?0"
    },
    "postData": null,
    "endedAt": "2026-07-18T11:41:11.605Z",
    "durationMs": 195,
    "response": {
      "status": 200,
      "statusText": "",
      "ok": true,
      "headers": {
        "access-control-allow-credentials": "true",
        "access-control-allow-origin": "https://buggy-books-fe.onrender.com",
        "alt-svc": "h3=\":443\"; ma=86400",
        "cache-control": "no-store",
        "cf-cache-status": "DYNAMIC",
        "cf-ray": "a1d137425ebea68b-ORD",
        "content-encoding": "br",
        "content-length": "5",
        "content-type": "text/plain; charset=UTF-8",
        "date": "Sat, 18 Jul 2026 11:41:11 GMT",
        "priority": "u=1,i",
        "rndr-id": "53cce36e-b11e-4f66",
        "server": "cloudflare",
        "server-timing": "cfExtPri",
        "vary": "Origin, Accept-Encoding",
        "x-render-origin-server": "Render"
      },
      "body": "[Response body capture unavailable or timed out]"
    }
  }
]