{"uid":"11f9a8a26b0ef4f0","name":"Testcase 5: Negative: String instead of number","fullName":"api/BookCatalog/Test_001_BooksApi.spec.ts:162:9","historyId":"20b52e224ed7a3d32a8dbe43d15952c5:4151609b82fd60da52fe302128be4a3c","time":{"start":1784393621268,"stop":1784393621361,"duration":93},"status":"passed","flaky":false,"newFailed":false,"newBroken":false,"newPassed":false,"retriesCount":0,"retriesStatusChange":false,"beforeStages":[],"testStage":{"status":"passed","steps":[{"name":" [2026-07-18 16:53:41] [INFO] \uD83D\uDE80 Making GET request to https://buggy-books.onrender.com/api/books?page=abc&limit=10","time":{"start":1784393621271,"stop":1784393621271,"duration":0},"status":"passed","steps":[],"attachments":[],"parameters":[],"stepsCount":0,"shouldDisplayMessage":false,"attachmentsCount":0,"hasContent":false,"attachmentStep":false},{"name":"✅ [2026-07-18 16:53:41] [PASS] ✅ Get books with invalid parameters: String instead of number Success! Status: 200 OK","time":{"start":1784393621360,"stop":1784393621360,"duration":0},"status":"passed","steps":[],"attachments":[],"parameters":[],"stepsCount":0,"shouldDisplayMessage":false,"attachmentsCount":0,"hasContent":false,"attachmentStep":false},{"name":" [2026-07-18 16:53:41] [INFO] \uD83D\uDCE5 Response Payload: {\n  \"books\": [\n    {\n      \"id\": \"1\",\n      \"title\": \"The Great Buggy Gatsby\",\n      \"author\": \"F. Scott Fitzgerald\",\n      \"price\": 10.99,\n      \"genre\": \"Classic\",\n      \"description\": \"A story of wealth, obsession, and bugs in the Jazz Age.\",\n      \"image\": \"https://images.unsplash.com/photo-1544947950-fa07a98d237f?q=80&w=600&auto=format&fit=crop\"\n    },\n    {\n      \"id\": \"2\",\n      \"title\": \"To Kill a Mockingbird Exception\",\n      \"author\": \"Harper Lee\",\n      \"price\": 15.5,\n      \"genre\": \"Classic\",\n      \"description\": \"A coming-of-age tale with unhandled exceptions.\",\n      \"image\": \"https://images.unsplash.com/photo-1512820790803-83ca734da794?q=80&w=600&auto=format&fit=crop\"\n    },\n    {\n      \"id\": \"3\",\n      \"title\": \"1984 Bugs\",\n      \"author\": \"George Orwell\",\n      \"price\": 12,\n      \"genre\": \"Dystopian\",\n      \"description\": \"Big Bug is watching your code.\",\n      \"image\": \"https://images.unsplash.com/photo-1543002588-bfa74002ed7e?q=80&w=600&auto=format&fit=crop\"\n    },\n    {\n      \"id\": \"4\",\n      \"title\": \"Pride and Prejudice and Performance Issues\",\n      \"author\": \"Jane Austen\",\n      \"price\": 9.99,\n      \"genre\": \"Classic\",\n      \"description\": \"A tale of love, society, and slow query performance.\",\n      \"image\": \"https://images.unsplash.com/photo-1589829085413-56de8ae18c73?q=80&w=600&auto=format&fit=crop\"\n    },\n    {\n      \"id\": \"5\",\n      \"title\": \"The Null and the Furious\",\n      \"author\": \"Cormac McCarthy\",\n      \"price\": 13.99,\n      \"genre\": \"Thriller\",\n      \"description\": \"Null pointer exceptions wreak havoc on the open road.\",\n      \"image\": \"https://images.unsplash.com/photo-1476275466078-4007374efbbe?q=80&w=600&auto=format&fit=crop\"\n    },\n    {\n      \"id\": \"6\",\n      \"title\": \"Harry Potter and the Goblet of Fire Events\",\n      \"author\": \"J.K. Rowling\",\n      \"price\": 19.99,\n      \"genre\": \"Fantasy\",\n      \"description\": \"Asynchronous magic tournaments and event loop chaos.\",\n      \"image\": \"https://images.unsplash.com/photo-1589998059171-988d887df646?q=80&w=600&auto=format&fit=crop\"\n    },\n    {\n      \"id\": \"7\",\n      \"title\": \"The Hitchhiker's Guide to the API\",\n      \"author\": \"Douglas Adams\",\n      \"price\": 11.5,\n      \"genre\": \"Sci-Fi\",\n      \"description\": \"The answer to life, the universe, and REST endpoints is 42.\",\n      \"image\": \"https://images.unsplash.com/photo-1462331940025-496dfbfc7564?q=80&w=600&auto=format&fit=crop\"\n    },\n    {\n      \"id\": \"8\",\n      \"title\": \"Moby Stack Overflow\",\n      \"author\": \"Herman Melville\",\n      \"price\": 8.99,\n      \"genre\": \"Classic\",\n      \"description\": \"Captain Ahab's obsessive pursuit of the white stack trace.\",\n      \"image\": \"https://images.unsplash.com/photo-1623018035782-b269248df916?q=80&w=600&auto=format&fit=crop\"\n    },\n    {\n      \"id\": \"9\",\n      \"title\": \"War and Parse\",\n      \"author\": \"Leo Tolstoy\",\n      \"price\": 17.99,\n      \"genre\": \"Classic\",\n      \"description\": \"An epic battle between JSON and XML parsers.\",\n      \"image\": \"https://images.unsplash.com/photo-1495446815901-a7297e633e8d?q=80&w=600&auto=format&fit=crop\"\n    },\n    {\n      \"id\": \"10\",\n      \"title\": \"Crime and Refactoring\",\n      \"author\": \"Fyodor Dostoevsky\",\n      \"price\": 14.5,\n      \"genre\": \"Thriller\",\n      \"description\": \"A developer's guilt-ridden journey of merging to production.\",\n      \"image\": \"https://images.unsplash.com/photo-1506880018603-83d5b814b5a6?q=80&w=600&auto=format&fit=crop\"\n    }\n  ],\n  \"total\": 15,\n  \"page\": 1,\n  \"totalPages\": 2,\n  \"limit\": 10\n}","time":{"start":1784393621361,"stop":1784393621361,"duration":0},"status":"passed","steps":[],"attachments":[],"parameters":[],"stepsCount":0,"shouldDisplayMessage":false,"attachmentsCount":0,"hasContent":false,"attachmentStep":false},{"name":"✅ [2026-07-18 16:53:41] [PASS]  Status code should be 200 or 400 for invalid parameters: String instead of number Success !! Actual and Expected Values are:: true","time":{"start":1784393621362,"stop":1784393621362,"duration":0},"status":"passed","steps":[],"attachments":[],"parameters":[],"stepsCount":0,"shouldDisplayMessage":false,"attachmentsCount":0,"hasContent":false,"attachmentStep":false}],"attachments":[{"uid":"80eeb2326be07744","name":"stdout","source":"80eeb2326be07744.txt","type":"text/plain","size":3937}],"parameters":[],"stepsCount":4,"shouldDisplayMessage":false,"attachmentsCount":1,"hasContent":true,"attachmentStep":false},"afterStages":[],"labels":[{"name":"language","value":"javascript"},{"name":"framework","value":"playwright"},{"name":"package","value":"api.BookCatalog.Test_001_BooksApi.spec.ts"},{"name":"titlePath","value":" > Google Chrome > api/BookCatalog/Test_001_BooksApi.spec.ts > Books API - List and Security"},{"name":"host","value":"f44ce8b082d3"},{"name":"thread","value":"pid-1516-worker-0"},{"name":"parentSuite","value":"Google Chrome"},{"name":"suite","value":"api/BookCatalog/Test_001_BooksApi.spec.ts"},{"name":"subSuite","value":"Books API - List and Security"},{"name":"resultFormat","value":"allure2"}],"parameters":[{"name":"Project","value":"Google Chrome"}],"links":[],"hidden":false,"retry":false,"extra":{"severity":"normal","retries":[],"categories":[],"history":{"statistic":{"failed":0,"broken":0,"skipped":0,"passed":15,"unknown":0,"total":15},"items":[{"uid":"b657491c4f483b1","reportUrl":"https://munna7862.github.io/buggy-books/AutomationReports/Docker/14/#testresult/b657491c4f483b1","status":"passed","time":{"start":1784392851005,"stop":1784392851117,"duration":112}},{"uid":"c9c084c25bbc771b","reportUrl":"https://munna7862.github.io/buggy-books/AutomationReports/Docker/13/#testresult/c9c084c25bbc771b","status":"passed","time":{"start":1784391984764,"stop":1784391984827,"duration":63}},{"uid":"57f2411700e0163c","reportUrl":"https://munna7862.github.io/buggy-books/AutomationReports/Docker/12/#testresult/57f2411700e0163c","status":"passed","time":{"start":1784390556835,"stop":1784390556877,"duration":42}},{"uid":"fdf9dd7325a5598d","reportUrl":"https://munna7862.github.io/buggy-books/AutomationReports/Docker/11/#testresult/fdf9dd7325a5598d","status":"passed","time":{"start":1784389047695,"stop":1784389047783,"duration":88}},{"uid":"889423c53069c194","reportUrl":"https://munna7862.github.io/buggy-books/AutomationReports/Docker/11/#testresult/889423c53069c194","status":"passed","time":{"start":1784387378150,"stop":1784387378213,"duration":63}},{"uid":"267d046cfd8d40f","reportUrl":"https://munna7862.github.io/buggy-books/AutomationReports/Docker/10/#testresult/267d046cfd8d40f","status":"passed","time":{"start":1784387174846,"stop":1784387174941,"duration":95}},{"uid":"f127a77e556ebcaf","reportUrl":"https://munna7862.github.io/buggy-books/AutomationReports/Docker/9/#testresult/f127a77e556ebcaf","status":"passed","time":{"start":1784385817732,"stop":1784385817807,"duration":75}},{"uid":"f24aeb9d874c3a7a","reportUrl":"https://munna7862.github.io/buggy-books/AutomationReports/Docker/8/#testresult/f24aeb9d874c3a7a","status":"passed","time":{"start":1784384938809,"stop":1784384938852,"duration":43}},{"uid":"bf913cc42fc6616","reportUrl":"https://munna7862.github.io/buggy-books/AutomationReports/Docker/7/#testresult/bf913cc42fc6616","status":"passed","time":{"start":1784382001969,"stop":1784382002081,"duration":112}},{"uid":"5d99b49f3d1c8741","reportUrl":"https://munna7862.github.io/buggy-books/AutomationReports/Docker/6/#testresult/5d99b49f3d1c8741","status":"passed","time":{"start":1784374226305,"stop":1784374226396,"duration":91}},{"uid":"d8cc5ff42e0a7f39","reportUrl":"https://munna7862.github.io/buggy-books/AutomationReports/Docker/5/#testresult/d8cc5ff42e0a7f39","status":"passed","time":{"start":1784373679972,"stop":1784373680062,"duration":90}},{"uid":"cbb46656ec833e65","reportUrl":"https://munna7862.github.io/buggy-books/AutomationReports/Docker/4/#testresult/cbb46656ec833e65","status":"passed","time":{"start":1784372412211,"stop":1784372412319,"duration":108}},{"uid":"ce2e287f3e2b4269","reportUrl":"https://munna7862.github.io/buggy-books/AutomationReports/Docker/3/#testresult/ce2e287f3e2b4269","status":"passed","time":{"start":1784359374894,"stop":1784359374984,"duration":90}},{"uid":"5ddbaa82ff4012c7","reportUrl":"https://munna7862.github.io/buggy-books/AutomationReports/Docker/2/#testresult/5ddbaa82ff4012c7","status":"passed","time":{"start":1784356180547,"stop":1784356180652,"duration":105}}]},"tags":[]},"source":"11f9a8a26b0ef4f0.json","parameterValues":["Google Chrome"]}