{"uid":"3e947968b0c62981","name":"Testcase 4: Data Integrity: Page 1 last item should not be Page 2 first item","fullName":"api/BookCatalog/Test_001_BooksApi.spec.ts:146:7","historyId":"93f4ccf296f52779abe5eb5f45d3c1cb:4151609b82fd60da52fe302128be4a3c","time":{"start":1784393620910,"stop":1784393621259,"duration":349},"status":"passed","flaky":false,"newFailed":false,"newBroken":false,"newPassed":false,"retriesCount":0,"retriesStatusChange":false,"beforeStages":[],"testStage":{"status":"passed","steps":[{"name":" [2026-07-18 16:53:40] [INFO] \uD83D\uDE80 Making GET request to https://buggy-books.onrender.com/api/books?page=1&limit=5","time":{"start":1784393620914,"stop":1784393620915,"duration":1},"status":"passed","steps":[],"attachments":[],"parameters":[],"stepsCount":0,"shouldDisplayMessage":false,"attachmentsCount":0,"hasContent":false,"attachmentStep":false},{"name":"✅ [2026-07-18 16:53:41] [PASS] ✅ Get books for page 1 Success! Status: 200 OK","time":{"start":1784393621019,"stop":1784393621019,"duration":0},"status":"passed","steps":[],"attachments":[],"parameters":[],"stepsCount":0,"shouldDisplayMessage":false,"attachmentsCount":0,"hasContent":false,"attachmentStep":false},{"name":" [2026-07-18 16:53:41] [INFO] \uD83D\uDCE5 Response Payload: {\n  \"books\": [\n    {\n      \"id\": \"1\",\n      \"title\": \"The Great Buggy Gatsby\",\n      \"author\": \"F. Scott Fitzgerald\",\n      \"price\": 10.99,\n      \"genre\": \"Classic\",\n      \"description\": \"A story of wealth, obsession, and bugs in the Jazz Age.\",\n      \"image\": \"https://images.unsplash.com/photo-1544947950-fa07a98d237f?q=80&w=600&auto=format&fit=crop\"\n    },\n    {\n      \"id\": \"2\",\n      \"title\": \"To Kill a Mockingbird Exception\",\n      \"author\": \"Harper Lee\",\n      \"price\": 15.5,\n      \"genre\": \"Classic\",\n      \"description\": \"A coming-of-age tale with unhandled exceptions.\",\n      \"image\": \"https://images.unsplash.com/photo-1512820790803-83ca734da794?q=80&w=600&auto=format&fit=crop\"\n    },\n    {\n      \"id\": \"3\",\n      \"title\": \"1984 Bugs\",\n      \"author\": \"George Orwell\",\n      \"price\": 12,\n      \"genre\": \"Dystopian\",\n      \"description\": \"Big Bug is watching your code.\",\n      \"image\": \"https://images.unsplash.com/photo-1543002588-bfa74002ed7e?q=80&w=600&auto=format&fit=crop\"\n    },\n    {\n      \"id\": \"4\",\n      \"title\": \"Pride and Prejudice and Performance Issues\",\n      \"author\": \"Jane Austen\",\n      \"price\": 9.99,\n      \"genre\": \"Classic\",\n      \"description\": \"A tale of love, society, and slow query performance.\",\n      \"image\": \"https://images.unsplash.com/photo-1589829085413-56de8ae18c73?q=80&w=600&auto=format&fit=crop\"\n    },\n    {\n      \"id\": \"5\",\n      \"title\": \"The Null and the Furious\",\n      \"author\": \"Cormac McCarthy\",\n      \"price\": 13.99,\n      \"genre\": \"Thriller\",\n      \"description\": \"Null pointer exceptions wreak havoc on the open road.\",\n      \"image\": \"https://images.unsplash.com/photo-1476275466078-4007374efbbe?q=80&w=600&auto=format&fit=crop\"\n    }\n  ],\n  \"total\": 15,\n  \"page\": 1,\n  \"totalPages\": 3,\n  \"limit\": 5\n}","time":{"start":1784393621020,"stop":1784393621020,"duration":0},"status":"passed","steps":[],"attachments":[],"parameters":[],"stepsCount":0,"shouldDisplayMessage":false,"attachmentsCount":0,"hasContent":false,"attachmentStep":false},{"name":" [2026-07-18 16:53:41] [INFO] \uD83D\uDE80 Making GET request to https://buggy-books.onrender.com/api/books?page=2&limit=5","time":{"start":1784393621020,"stop":1784393621020,"duration":0},"status":"passed","steps":[],"attachments":[],"parameters":[],"stepsCount":0,"shouldDisplayMessage":false,"attachmentsCount":0,"hasContent":false,"attachmentStep":false},{"name":"✅ [2026-07-18 16:53:41] [PASS] ✅ Get books for page 2 Success! Status: 200 OK","time":{"start":1784393621260,"stop":1784393621260,"duration":0},"status":"passed","steps":[],"attachments":[],"parameters":[],"stepsCount":0,"shouldDisplayMessage":false,"attachmentsCount":0,"hasContent":false,"attachmentStep":false},{"name":" [2026-07-18 16:53:41] [INFO] \uD83D\uDCE5 Response Payload: {\n  \"books\": [\n    {\n      \"id\": \"6\",\n      \"title\": \"Harry Potter and the Goblet of Fire Events\",\n      \"author\": \"J.K. Rowling\",\n      \"price\": 19.99,\n      \"genre\": \"Fantasy\",\n      \"description\": \"Asynchronous magic tournaments and event loop chaos.\",\n      \"image\": \"https://images.unsplash.com/photo-1589998059171-988d887df646?q=80&w=600&auto=format&fit=crop\"\n    },\n    {\n      \"id\": \"7\",\n      \"title\": \"The Hitchhiker's Guide to the API\",\n      \"author\": \"Douglas Adams\",\n      \"price\": 11.5,\n      \"genre\": \"Sci-Fi\",\n      \"description\": \"The answer to life, the universe, and REST endpoints is 42.\",\n      \"image\": \"https://images.unsplash.com/photo-1462331940025-496dfbfc7564?q=80&w=600&auto=format&fit=crop\"\n    },\n    {\n      \"id\": \"8\",\n      \"title\": \"Moby Stack Overflow\",\n      \"author\": \"Herman Melville\",\n      \"price\": 8.99,\n      \"genre\": \"Classic\",\n      \"description\": \"Captain Ahab's obsessive pursuit of the white stack trace.\",\n      \"image\": \"https://images.unsplash.com/photo-1623018035782-b269248df916?q=80&w=600&auto=format&fit=crop\"\n    },\n    {\n      \"id\": \"9\",\n      \"title\": \"War and Parse\",\n      \"author\": \"Leo Tolstoy\",\n      \"price\": 17.99,\n      \"genre\": \"Classic\",\n      \"description\": \"An epic battle between JSON and XML parsers.\",\n      \"image\": \"https://images.unsplash.com/photo-1495446815901-a7297e633e8d?q=80&w=600&auto=format&fit=crop\"\n    },\n    {\n      \"id\": \"10\",\n      \"title\": \"Crime and Refactoring\",\n      \"author\": \"Fyodor Dostoevsky\",\n      \"price\": 14.5,\n      \"genre\": \"Thriller\",\n      \"description\": \"A developer's guilt-ridden journey of merging to production.\",\n      \"image\": \"https://images.unsplash.com/photo-1506880018603-83d5b814b5a6?q=80&w=600&auto=format&fit=crop\"\n    }\n  ],\n  \"total\": 15,\n  \"page\": 2,\n  \"totalPages\": 3,\n  \"limit\": 5\n}","time":{"start":1784393621261,"stop":1784393621261,"duration":0},"status":"passed","steps":[],"attachments":[],"parameters":[],"stepsCount":0,"shouldDisplayMessage":false,"attachmentsCount":0,"hasContent":false,"attachmentStep":false},{"name":" [2026-07-18 16:53:41] [INFO] Last item on page 1 ID: 5","time":{"start":1784393621262,"stop":1784393621262,"duration":0},"status":"passed","steps":[],"attachments":[],"parameters":[],"stepsCount":0,"shouldDisplayMessage":false,"attachmentsCount":0,"hasContent":false,"attachmentStep":false},{"name":" [2026-07-18 16:53:41] [INFO] First item on page 2 ID: 6","time":{"start":1784393621262,"stop":1784393621262,"duration":0},"status":"passed","steps":[],"attachments":[],"parameters":[],"stepsCount":0,"shouldDisplayMessage":false,"attachmentsCount":0,"hasContent":false,"attachmentStep":false}],"attachments":[{"uid":"6dc74b4b05e4858c","name":"stdout","source":"6dc74b4b05e4858c.txt","type":"text/plain","size":4165}],"parameters":[],"stepsCount":8,"shouldDisplayMessage":false,"attachmentsCount":1,"hasContent":true,"attachmentStep":false},"afterStages":[],"labels":[{"name":"language","value":"javascript"},{"name":"framework","value":"playwright"},{"name":"package","value":"api.BookCatalog.Test_001_BooksApi.spec.ts"},{"name":"titlePath","value":" > Google Chrome > api/BookCatalog/Test_001_BooksApi.spec.ts > Books API - List and Security"},{"name":"host","value":"f44ce8b082d3"},{"name":"thread","value":"pid-1516-worker-0"},{"name":"parentSuite","value":"Google Chrome"},{"name":"suite","value":"api/BookCatalog/Test_001_BooksApi.spec.ts"},{"name":"subSuite","value":"Books API - List and Security"},{"name":"resultFormat","value":"allure2"}],"parameters":[{"name":"Project","value":"Google Chrome"}],"links":[],"hidden":false,"retry":false,"extra":{"severity":"normal","retries":[],"categories":[],"history":{"statistic":{"failed":0,"broken":0,"skipped":0,"passed":15,"unknown":0,"total":15},"items":[{"uid":"f2a5f461ef98e472","reportUrl":"https://munna7862.github.io/buggy-books/AutomationReports/Docker/14/#testresult/f2a5f461ef98e472","status":"passed","time":{"start":1784392850780,"stop":1784392850995,"duration":215}},{"uid":"96a02df2d08ebee8","reportUrl":"https://munna7862.github.io/buggy-books/AutomationReports/Docker/13/#testresult/96a02df2d08ebee8","status":"passed","time":{"start":1784391984630,"stop":1784391984756,"duration":126}},{"uid":"e45f2fd3850af703","reportUrl":"https://munna7862.github.io/buggy-books/AutomationReports/Docker/12/#testresult/e45f2fd3850af703","status":"passed","time":{"start":1784390556749,"stop":1784390556827,"duration":78}},{"uid":"b547209811ffec6c","reportUrl":"https://munna7862.github.io/buggy-books/AutomationReports/Docker/11/#testresult/b547209811ffec6c","status":"passed","time":{"start":1784389047417,"stop":1784389047687,"duration":270}},{"uid":"3e6fbc5d2b73bdf5","reportUrl":"https://munna7862.github.io/buggy-books/AutomationReports/Docker/11/#testresult/3e6fbc5d2b73bdf5","status":"passed","time":{"start":1784387378024,"stop":1784387378143,"duration":119}},{"uid":"7d6910980cc4f29e","reportUrl":"https://munna7862.github.io/buggy-books/AutomationReports/Docker/10/#testresult/7d6910980cc4f29e","status":"passed","time":{"start":1784387174676,"stop":1784387174833,"duration":157}},{"uid":"b1d74a638aeae4f","reportUrl":"https://munna7862.github.io/buggy-books/AutomationReports/Docker/9/#testresult/b1d74a638aeae4f","status":"passed","time":{"start":1784385817529,"stop":1784385817720,"duration":191}},{"uid":"8099333c9d77ec6f","reportUrl":"https://munna7862.github.io/buggy-books/AutomationReports/Docker/8/#testresult/8099333c9d77ec6f","status":"passed","time":{"start":1784384938702,"stop":1784384938799,"duration":97}},{"uid":"29493a5e855c68fd","reportUrl":"https://munna7862.github.io/buggy-books/AutomationReports/Docker/7/#testresult/29493a5e855c68fd","status":"passed","time":{"start":1784382001758,"stop":1784382001959,"duration":201}},{"uid":"bcaafbff6578ee91","reportUrl":"https://munna7862.github.io/buggy-books/AutomationReports/Docker/6/#testresult/bcaafbff6578ee91","status":"passed","time":{"start":1784374226140,"stop":1784374226297,"duration":157}},{"uid":"5ec42539b3f75a1","reportUrl":"https://munna7862.github.io/buggy-books/AutomationReports/Docker/5/#testresult/5ec42539b3f75a1","status":"passed","time":{"start":1784373679773,"stop":1784373679965,"duration":192}},{"uid":"67f63cee463d4ddb","reportUrl":"https://munna7862.github.io/buggy-books/AutomationReports/Docker/4/#testresult/67f63cee463d4ddb","status":"passed","time":{"start":1784372412014,"stop":1784372412203,"duration":189}},{"uid":"dd920bade9e6abcc","reportUrl":"https://munna7862.github.io/buggy-books/AutomationReports/Docker/3/#testresult/dd920bade9e6abcc","status":"passed","time":{"start":1784359374693,"stop":1784359374885,"duration":192}},{"uid":"ec456e8f955417c8","reportUrl":"https://munna7862.github.io/buggy-books/AutomationReports/Docker/2/#testresult/ec456e8f955417c8","status":"passed","time":{"start":1784356180318,"stop":1784356180536,"duration":218}}]},"tags":[]},"source":"3e947968b0c62981.json","parameterValues":["Google Chrome"]}