{"uid":"8a9c8f045a9f535c","name":"Testcase 3: Pagination: Standard page 2 (page=2, limit=5)","fullName":"api/BookCatalog/Test_001_BooksApi.spec.ts:122:9","historyId":"0f25afdd073a8a46a94d46b8575bb59d:4151609b82fd60da52fe302128be4a3c","time":{"start":1784393620553,"stop":1784393620663,"duration":110},"status":"passed","flaky":false,"newFailed":false,"newBroken":false,"newPassed":false,"retriesCount":0,"retriesStatusChange":false,"beforeStages":[],"testStage":{"status":"passed","steps":[{"name":" [2026-07-18 16:53:40] [INFO] \uD83D\uDE80 Making GET request to https://buggy-books.onrender.com/api/books?page=2&limit=5","time":{"start":1784393620556,"stop":1784393620556,"duration":0},"status":"passed","steps":[],"attachments":[],"parameters":[],"stepsCount":0,"shouldDisplayMessage":false,"attachmentsCount":0,"hasContent":false,"attachmentStep":false},{"name":"✅ [2026-07-18 16:53:40] [PASS] ✅ Get paged books list for Standard page 2 Success! Status: 200 OK","time":{"start":1784393620660,"stop":1784393620660,"duration":0},"status":"passed","steps":[],"attachments":[],"parameters":[],"stepsCount":0,"shouldDisplayMessage":false,"attachmentsCount":0,"hasContent":false,"attachmentStep":false},{"name":" [2026-07-18 16:53:40] [INFO] \uD83D\uDCE5 Response Payload: {\n  \"books\": [\n    {\n      \"id\": \"6\",\n      \"title\": \"Harry Potter and the Goblet of Fire Events\",\n      \"author\": \"J.K. Rowling\",\n      \"price\": 19.99,\n      \"genre\": \"Fantasy\",\n      \"description\": \"Asynchronous magic tournaments and event loop chaos.\",\n      \"image\": \"https://images.unsplash.com/photo-1589998059171-988d887df646?q=80&w=600&auto=format&fit=crop\"\n    },\n    {\n      \"id\": \"7\",\n      \"title\": \"The Hitchhiker's Guide to the API\",\n      \"author\": \"Douglas Adams\",\n      \"price\": 11.5,\n      \"genre\": \"Sci-Fi\",\n      \"description\": \"The answer to life, the universe, and REST endpoints is 42.\",\n      \"image\": \"https://images.unsplash.com/photo-1462331940025-496dfbfc7564?q=80&w=600&auto=format&fit=crop\"\n    },\n    {\n      \"id\": \"8\",\n      \"title\": \"Moby Stack Overflow\",\n      \"author\": \"Herman Melville\",\n      \"price\": 8.99,\n      \"genre\": \"Classic\",\n      \"description\": \"Captain Ahab's obsessive pursuit of the white stack trace.\",\n      \"image\": \"https://images.unsplash.com/photo-1623018035782-b269248df916?q=80&w=600&auto=format&fit=crop\"\n    },\n    {\n      \"id\": \"9\",\n      \"title\": \"War and Parse\",\n      \"author\": \"Leo Tolstoy\",\n      \"price\": 17.99,\n      \"genre\": \"Classic\",\n      \"description\": \"An epic battle between JSON and XML parsers.\",\n      \"image\": \"https://images.unsplash.com/photo-1495446815901-a7297e633e8d?q=80&w=600&auto=format&fit=crop\"\n    },\n    {\n      \"id\": \"10\",\n      \"title\": \"Crime and Refactoring\",\n      \"author\": \"Fyodor Dostoevsky\",\n      \"price\": 14.5,\n      \"genre\": \"Thriller\",\n      \"description\": \"A developer's guilt-ridden journey of merging to production.\",\n      \"image\": \"https://images.unsplash.com/photo-1506880018603-83d5b814b5a6?q=80&w=600&auto=format&fit=crop\"\n    }\n  ],\n  \"total\": 15,\n  \"page\": 2,\n  \"totalPages\": 3,\n  \"limit\": 5\n}","time":{"start":1784393620660,"stop":1784393620660,"duration":0},"status":"passed","steps":[],"attachments":[],"parameters":[],"stepsCount":0,"shouldDisplayMessage":false,"attachmentsCount":0,"hasContent":false,"attachmentStep":false},{"name":"✅ [2026-07-18 16:53:40] [PASS]  Status code should be 200 for Standard page 2 Success !! Actual and Expected Values are:: 200","time":{"start":1784393620661,"stop":1784393620661,"duration":0},"status":"passed","steps":[],"attachments":[],"parameters":[],"stepsCount":0,"shouldDisplayMessage":false,"attachmentsCount":0,"hasContent":false,"attachmentStep":false},{"name":"✅ [2026-07-18 16:53:40] [PASS]  Response page should be 2 for Standard page 2 Success !! Actual and Expected Values are:: 2","time":{"start":1784393620662,"stop":1784393620662,"duration":0},"status":"passed","steps":[],"attachments":[],"parameters":[],"stepsCount":0,"shouldDisplayMessage":false,"attachmentsCount":0,"hasContent":false,"attachmentStep":false},{"name":"✅ [2026-07-18 16:53:40] [PASS]  Books array length should be less than or equal to limit 5 Success !! Actual and Expected Values are:: true","time":{"start":1784393620664,"stop":1784393620665,"duration":1},"status":"passed","steps":[],"attachments":[],"parameters":[],"stepsCount":0,"shouldDisplayMessage":false,"attachmentsCount":0,"hasContent":false,"attachmentStep":false}],"attachments":[{"uid":"78b1cb59410269ff","name":"stdout","source":"78b1cb59410269ff.txt","type":"text/plain","size":2450}],"parameters":[],"stepsCount":6,"shouldDisplayMessage":false,"attachmentsCount":1,"hasContent":true,"attachmentStep":false},"afterStages":[],"labels":[{"name":"language","value":"javascript"},{"name":"framework","value":"playwright"},{"name":"package","value":"api.BookCatalog.Test_001_BooksApi.spec.ts"},{"name":"titlePath","value":" > Google Chrome > api/BookCatalog/Test_001_BooksApi.spec.ts > Books API - List and Security"},{"name":"host","value":"f44ce8b082d3"},{"name":"thread","value":"pid-1516-worker-0"},{"name":"parentSuite","value":"Google Chrome"},{"name":"suite","value":"api/BookCatalog/Test_001_BooksApi.spec.ts"},{"name":"subSuite","value":"Books API - List and Security"},{"name":"resultFormat","value":"allure2"}],"parameters":[{"name":"Project","value":"Google Chrome"}],"links":[],"hidden":false,"retry":false,"extra":{"severity":"normal","retries":[],"categories":[],"history":{"statistic":{"failed":0,"broken":0,"skipped":0,"passed":15,"unknown":0,"total":15},"items":[{"uid":"b1a139c3f4d75d96","reportUrl":"https://munna7862.github.io/buggy-books/AutomationReports/Docker/14/#testresult/b1a139c3f4d75d96","status":"passed","time":{"start":1784392850420,"stop":1784392850541,"duration":121}},{"uid":"592d7c6463d62bf6","reportUrl":"https://munna7862.github.io/buggy-books/AutomationReports/Docker/13/#testresult/592d7c6463d62bf6","status":"passed","time":{"start":1784391984403,"stop":1784391984468,"duration":65}},{"uid":"98fec425c05029c5","reportUrl":"https://munna7862.github.io/buggy-books/AutomationReports/Docker/12/#testresult/98fec425c05029c5","status":"passed","time":{"start":1784390556578,"stop":1784390556622,"duration":44}},{"uid":"1d8698836a0f100c","reportUrl":"https://munna7862.github.io/buggy-books/AutomationReports/Docker/11/#testresult/1d8698836a0f100c","status":"passed","time":{"start":1784389047119,"stop":1784389047210,"duration":91}},{"uid":"a54021f1385455e9","reportUrl":"https://munna7862.github.io/buggy-books/AutomationReports/Docker/11/#testresult/a54021f1385455e9","status":"passed","time":{"start":1784387377807,"stop":1784387377885,"duration":78}},{"uid":"1fde4a6194437fe3","reportUrl":"https://munna7862.github.io/buggy-books/AutomationReports/Docker/10/#testresult/1fde4a6194437fe3","status":"passed","time":{"start":1784387174254,"stop":1784387174358,"duration":104}},{"uid":"d1ac52047cebbf03","reportUrl":"https://munna7862.github.io/buggy-books/AutomationReports/Docker/9/#testresult/d1ac52047cebbf03","status":"passed","time":{"start":1784385817181,"stop":1784385817273,"duration":92}},{"uid":"91a2b317bd29ff7b","reportUrl":"https://munna7862.github.io/buggy-books/AutomationReports/Docker/8/#testresult/91a2b317bd29ff7b","status":"passed","time":{"start":1784384938545,"stop":1784384938590,"duration":45}},{"uid":"5735f1d301f6d9c8","reportUrl":"https://munna7862.github.io/buggy-books/AutomationReports/Docker/7/#testresult/5735f1d301f6d9c8","status":"passed","time":{"start":1784382001434,"stop":1784382001523,"duration":89}},{"uid":"ae8b5042d974f93e","reportUrl":"https://munna7862.github.io/buggy-books/AutomationReports/Docker/6/#testresult/ae8b5042d974f93e","status":"passed","time":{"start":1784374225853,"stop":1784374225925,"duration":72}},{"uid":"bfa9000a28d4cc98","reportUrl":"https://munna7862.github.io/buggy-books/AutomationReports/Docker/5/#testresult/bfa9000a28d4cc98","status":"passed","time":{"start":1784373679470,"stop":1784373679566,"duration":96}},{"uid":"4466af31a57bbd24","reportUrl":"https://munna7862.github.io/buggy-books/AutomationReports/Docker/4/#testresult/4466af31a57bbd24","status":"passed","time":{"start":1784372411620,"stop":1784372411735,"duration":115}},{"uid":"7983ebcb2530b390","reportUrl":"https://munna7862.github.io/buggy-books/AutomationReports/Docker/3/#testresult/7983ebcb2530b390","status":"passed","time":{"start":1784359374378,"stop":1784359374471,"duration":93}},{"uid":"6edbcc47e3ee906f","reportUrl":"https://munna7862.github.io/buggy-books/AutomationReports/Docker/2/#testresult/6edbcc47e3ee906f","status":"passed","time":{"start":1784356180006,"stop":1784356180094,"duration":88}}]},"tags":[]},"source":"8a9c8f045a9f535c.json","parameterValues":["Google Chrome"]}