[2026-07-18 20:51:19] INFO: 🚀 Making GET request to https://buggy-books.onrender.com/api/books?page=9999&limit=10
[2026-07-18 20:51:19] INFO: ✅ Get paged books list for Exceeding total pages Success! Status: 200 OK
[2026-07-18 20:51:19] INFO: 📥 Response Payload: {
  "books": [],
  "total": 15,
  "page": 9999,
  "totalPages": 2,
  "limit": 10
}
[2026-07-18 20:51:19] INFO:  Status code should be 200 for Exceeding total pages Success !! Actual and Expected Values are:: 200
[2026-07-18 20:51:19] INFO:  Response page should be 9999 for Exceeding total pages Success !! Actual and Expected Values are:: 9999
[2026-07-18 20:51:19] INFO:  Books array should be empty for out-of-bounds page 9999 Success !! Actual and Expected Values are:: 0
