{"uid":"6525c8daf2f13f2c","name":"Testcase 3: Pagination: Exceeding total pages (page=9999, limit=10)","fullName":"api/BookCatalog/Test_001_BooksApi.spec.ts:122:9","historyId":"8121de61c2a54dd80f07f7598863b114:4151609b82fd60da52fe302128be4a3c","time":{"start":1784385817444,"stop":1784385817518,"duration":74},"status":"passed","flaky":false,"newFailed":false,"newBroken":false,"newPassed":false,"retriesCount":0,"retriesStatusChange":false,"beforeStages":[],"testStage":{"status":"passed","steps":[{"name":" [2026-07-18 14:43:37] [INFO] \uD83D\uDE80 Making GET request to https://buggy-books.onrender.com/api/books?page=9999&limit=10","time":{"start":1784385817449,"stop":1784385817450,"duration":1},"status":"passed","steps":[],"attachments":[],"parameters":[],"stepsCount":0,"shouldDisplayMessage":false,"attachmentsCount":0,"hasContent":false,"attachmentStep":false},{"name":"✅ [2026-07-18 14:43:37] [PASS] ✅ Get paged books list for Exceeding total pages Success! Status: 200 OK","time":{"start":1784385817515,"stop":1784385817515,"duration":0},"status":"passed","steps":[],"attachments":[],"parameters":[],"stepsCount":0,"shouldDisplayMessage":false,"attachmentsCount":0,"hasContent":false,"attachmentStep":false},{"name":" [2026-07-18 14:43:37] [INFO] \uD83D\uDCE5 Response Payload: {\n  \"books\": [],\n  \"total\": 15,\n  \"page\": 9999,\n  \"totalPages\": 2,\n  \"limit\": 10\n}","time":{"start":1784385817516,"stop":1784385817516,"duration":0},"status":"passed","steps":[],"attachments":[],"parameters":[],"stepsCount":0,"shouldDisplayMessage":false,"attachmentsCount":0,"hasContent":false,"attachmentStep":false},{"name":"✅ [2026-07-18 14:43:37] [PASS]  Status code should be 200 for Exceeding total pages Success !! Actual and Expected Values are:: 200","time":{"start":1784385817517,"stop":1784385817517,"duration":0},"status":"passed","steps":[],"attachments":[],"parameters":[],"stepsCount":0,"shouldDisplayMessage":false,"attachmentsCount":0,"hasContent":false,"attachmentStep":false},{"name":"✅ [2026-07-18 14:43:37] [PASS]  Response page should be 9999 for Exceeding total pages Success !! Actual and Expected Values are:: 9999","time":{"start":1784385817518,"stop":1784385817519,"duration":1},"status":"passed","steps":[],"attachments":[],"parameters":[],"stepsCount":0,"shouldDisplayMessage":false,"attachmentsCount":0,"hasContent":false,"attachmentStep":false},{"name":"✅ [2026-07-18 14:43:37] [PASS]  Books array should be empty for out-of-bounds page 9999 Success !! Actual and Expected Values are:: 0","time":{"start":1784385817520,"stop":1784385817520,"duration":0},"status":"passed","steps":[],"attachments":[],"parameters":[],"stepsCount":0,"shouldDisplayMessage":false,"attachmentsCount":0,"hasContent":false,"attachmentStep":false}],"attachments":[{"uid":"b152d051b06c6f4d","name":"stdout","source":"b152d051b06c6f4d.txt","type":"text/plain","size":747}],"parameters":[],"stepsCount":6,"shouldDisplayMessage":false,"attachmentsCount":1,"hasContent":true,"attachmentStep":false},"afterStages":[],"labels":[{"name":"language","value":"javascript"},{"name":"framework","value":"playwright"},{"name":"package","value":"api.BookCatalog.Test_001_BooksApi.spec.ts"},{"name":"titlePath","value":" > Google Chrome > api/BookCatalog/Test_001_BooksApi.spec.ts > Books API - List and Security"},{"name":"host","value":"093d34b40e6c"},{"name":"thread","value":"pid-1517-worker-0"},{"name":"parentSuite","value":"Google Chrome"},{"name":"suite","value":"api/BookCatalog/Test_001_BooksApi.spec.ts"},{"name":"subSuite","value":"Books API - List and Security"},{"name":"resultFormat","value":"allure2"}],"parameters":[{"name":"Project","value":"Google Chrome"}],"links":[],"hidden":false,"retry":false,"extra":{"severity":"normal","retries":[],"categories":[],"history":{"statistic":{"failed":0,"broken":0,"skipped":0,"passed":8,"unknown":0,"total":8},"items":[{"uid":"66f03c7e571538d8","reportUrl":"https://munna7862.github.io/buggy-books/AutomationReports/Docker/8/#testresult/66f03c7e571538d8","status":"passed","time":{"start":1784384938650,"stop":1784384938694,"duration":44}},{"uid":"727fadf9959c35d0","reportUrl":"https://munna7862.github.io/buggy-books/AutomationReports/Docker/7/#testresult/727fadf9959c35d0","status":"passed","time":{"start":1784382001645,"stop":1784382001751,"duration":106}},{"uid":"b8bf145617b05d27","reportUrl":"https://munna7862.github.io/buggy-books/AutomationReports/Docker/6/#testresult/b8bf145617b05d27","status":"passed","time":{"start":1784374226035,"stop":1784374226131,"duration":96}},{"uid":"3b79d33c0f7a5b56","reportUrl":"https://munna7862.github.io/buggy-books/AutomationReports/Docker/5/#testresult/3b79d33c0f7a5b56","status":"passed","time":{"start":1784373679679,"stop":1784373679766,"duration":87}},{"uid":"421e32f3d16e2c23","reportUrl":"https://munna7862.github.io/buggy-books/AutomationReports/Docker/4/#testresult/421e32f3d16e2c23","status":"passed","time":{"start":1784372411867,"stop":1784372412004,"duration":137}},{"uid":"d7fc92665813ce8","reportUrl":"https://munna7862.github.io/buggy-books/AutomationReports/Docker/3/#testresult/d7fc92665813ce8","status":"passed","time":{"start":1784359374597,"stop":1784359374685,"duration":88}},{"uid":"eb3e2b90c5947672","reportUrl":"https://munna7862.github.io/buggy-books/AutomationReports/Docker/2/#testresult/eb3e2b90c5947672","status":"passed","time":{"start":1784356180200,"stop":1784356180312,"duration":112}}]},"tags":[]},"source":"6525c8daf2f13f2c.json","parameterValues":["Google Chrome"]}