[
  {
    "id": "1784391995189-1",
    "startedAt": "2026-07-18T16:26:35.189Z",
    "url": "https://buggy-books.onrender.com/socket.io/?EIO=4&transport=polling&t=kx7aluqy",
    "method": "GET",
    "resourceType": "xhr",
    "navigationRequest": false,
    "headers": {
      "sec-ch-ua-platform": "\"Linux\"",
      "referer": "https://buggy-books-fe.onrender.com/",
      "user-agent": "Mozilla/5.0 (X11; Linux x86_64) AppleWebKit/537.36 (KHTML, like Gecko) HeadlessChrome/150.0.0.0 Safari/537.36",
      "accept": "*/*",
      "sec-ch-ua": "\"Not;A=Brand\";v=\"8\", \"Chromium\";v=\"150\", \"Google Chrome\";v=\"150\"",
      "accept-language": "en-US",
      "sec-ch-ua-mobile": "?0"
    },
    "postData": null,
    "endedAt": "2026-07-18T16:26:35.312Z",
    "durationMs": 123,
    "response": {
      "status": 200,
      "statusText": "",
      "ok": true,
      "headers": {
        "access-control-allow-credentials": "true",
        "access-control-allow-origin": "https://buggy-books-fe.onrender.com",
        "alt-svc": "h3=\":443\"; ma=86400",
        "cache-control": "no-store",
        "cf-cache-status": "DYNAMIC",
        "cf-ray": "a1d2d951f82dd6f1-IAD",
        "content-encoding": "br",
        "content-length": "104",
        "content-type": "text/plain; charset=UTF-8",
        "date": "Sat, 18 Jul 2026 16:26:35 GMT",
        "rndr-id": "3c856eb6-1fbd-4e9f",
        "server": "cloudflare",
        "vary": "Origin, Accept-Encoding",
        "x-render-origin-server": "Render"
      },
      "body": "0{\"sid\":\"ziwZo-AyjKxLkpNNAAAm\",\"upgrades\":[\"websocket\"],\"pingInterval\":25000,\"pingTimeout\":20000,\"maxPayload\":1000000}"
    }
  },
  {
    "id": "1784391995193-2",
    "startedAt": "2026-07-18T16:26:35.193Z",
    "url": "https://buggy-books.onrender.com/api/books?page=1&limit=8",
    "method": "GET",
    "resourceType": "fetch",
    "navigationRequest": false,
    "headers": {
      "sec-ch-ua-platform": "\"Linux\"",
      "referer": "https://buggy-books-fe.onrender.com/",
      "user-agent": "Mozilla/5.0 (X11; Linux x86_64) AppleWebKit/537.36 (KHTML, like Gecko) HeadlessChrome/150.0.0.0 Safari/537.36",
      "sec-ch-ua": "\"Not;A=Brand\";v=\"8\", \"Chromium\";v=\"150\", \"Google Chrome\";v=\"150\"",
      "content-type": "application/json",
      "sec-ch-ua-mobile": "?0",
      "accept-language": "en-US"
    },
    "postData": null,
    "endedAt": "2026-07-18T16:26:35.402Z",
    "durationMs": 209,
    "response": {
      "status": 200,
      "statusText": "",
      "ok": true,
      "headers": {
        "access-control-allow-credentials": "true",
        "access-control-allow-origin": "https://buggy-books-fe.onrender.com",
        "alt-svc": "h3=\":443\"; ma=86400",
        "cf-cache-status": "DYNAMIC",
        "cf-ray": "a1d2d9529ca0c99b-IAD",
        "content-encoding": "br",
        "content-length": "903",
        "content-security-policy": "default-src 'self';base-uri 'self';font-src 'self' https: data:;form-action 'self';frame-ancestors 'self';img-src 'self' data:;object-src 'none';script-src 'self';script-src-attr 'none';style-src 'self' https: 'unsafe-inline';upgrade-insecure-requests",
        "content-type": "application/json; charset=utf-8",
        "cross-origin-opener-policy": "same-origin",
        "cross-origin-resource-policy": "same-origin",
        "date": "Sat, 18 Jul 2026 16:26:35 GMT",
        "etag": "W/\"8dd-1eYedvc9P4YRO/rTyZQlBkE8zmI\"",
        "origin-agent-cluster": "?1",
        "priority": "u=1,i",
        "ratelimit-limit": "600",
        "ratelimit-policy": "600;w=60",
        "ratelimit-remaining": "583",
        "ratelimit-reset": "53",
        "referrer-policy": "no-referrer",
        "rndr-id": "cd235aba-3eda-4d0a",
        "server": "cloudflare",
        "server-timing": "cfExtPri",
        "strict-transport-security": "max-age=31536000; includeSubDomains",
        "vary": "Origin, Accept-Encoding",
        "x-content-type-options": "nosniff",
        "x-correlation-id": "7efbf317-aea2-4ea7-9a8f-d0d6f3ce1222",
        "x-dns-prefetch-control": "off",
        "x-download-options": "noopen",
        "x-frame-options": "SAMEORIGIN",
        "x-permitted-cross-domain-policies": "none",
        "x-render-origin-server": "Render",
        "x-xss-protection": "0"
      },
      "body": "{\"books\":[{\"id\":\"1\",\"title\":\"The Great Buggy Gatsby\",\"author\":\"F. Scott Fitzgerald\",\"price\":10.99,\"genre\":\"Classic\",\"description\":\"A story of wealth, obsession, and bugs in the Jazz Age.\",\"image\":\"https://images.unsplash.com/photo-1544947950-fa07a98d237f?q=80&w=600&auto=format&fit=crop\"},{\"id\":\"2\",\"title\":\"To Kill a Mockingbird Exception\",\"author\":\"Harper Lee\",\"price\":15.5,\"genre\":\"Classic\",\"description\":\"A coming-of-age tale with unhandled exceptions.\",\"image\":\"https://images.unsplash.com/photo-1512820790803-83ca734da794?q=80&w=600&auto=format&fit=crop\"},{\"id\":\"3\",\"title\":\"1984 Bugs\",\"author\":\"George Orwell\",\"price\":12,\"genre\":\"Dystopian\",\"description\":\"Big Bug is watching your code.\",\"image\":\"https://images.unsplash.com/photo-1543002588-bfa74002ed7e?q=80&w=600&auto=format&fit=crop\"},{\"id\":\"4\",\"title\":\"Pride and Prejudice and Performance Issues\",\"author\":\"Jane Austen\",\"price\":9.99,\"genre\":\"Classic\",\"description\":\"A tale of love, society, and slow query performance.\",\"image\":\"https://images.unsplash.com/photo-1589829085413-56de8ae18c73?q=80&w=600&auto=format&fit=crop\"},{\"id\":\"5\",\"title\":\"The Null and the Furious\",\"author\":\"Cormac McCarthy\",\"price\":13.99,\"genre\":\"Thriller\",\"description\":\"Null pointer exceptions wreak havoc on the open road.\",\"image\":\"https://images.unsplash.com/photo-1476275466078-4007374efbbe?q=80&w=600&auto=format&fit=crop\"},{\"id\":\"6\",\"title\":\"Harry Potter and the Goblet of Fire Events\",\"author\":\"J.K. Rowling\",\"price\":19.99,\"genre\":\"Fantasy\",\"description\":\"Asynchronous magic tournaments and event loop chaos.\",\"image\":\"https://images.unsplash.com/photo-1589998059171-988d887df646?q=80&w=600&auto=format&fit=crop\"},{\"id\":\"7\",\"title\":\"The Hitchhiker's Guide to the API\",\"author\":\"Douglas Adams\",\"price\":11.5,\"genre\":\"Sci-Fi\",\"description\":\"The answer to life, the universe, and REST endpoints is 42.\",\"image\":\"https://images.unsplash.com/photo-1462331940025-496dfbfc7564?q=80&w=600&auto=format&fit=crop\"},{\"id\":\"8\",\"title\":\"Moby Stack Overflow\",\"author\":\"Herman Melville\",\"price\":8.99,\"genre\":\"Classic\",\"description\":\"Captain Ahab's obsessive pursuit of the white stack trace.\",\"image\":\"https://images.unsplash.com/photo-1623018035782-b269248df916?q=80&w=600&auto=format&fit=crop\"}],\"total\":15,\"page\":1,\"totalPages\":2,\"limit\":8}"
    }
  },
  {
    "id": "1784391995193-3",
    "startedAt": "2026-07-18T16:26:35.193Z",
    "url": "https://buggy-books.onrender.com/api/test/config",
    "method": "GET",
    "resourceType": "fetch",
    "navigationRequest": false,
    "headers": {
      "sec-ch-ua-platform": "\"Linux\"",
      "referer": "https://buggy-books-fe.onrender.com/",
      "user-agent": "Mozilla/5.0 (X11; Linux x86_64) AppleWebKit/537.36 (KHTML, like Gecko) HeadlessChrome/150.0.0.0 Safari/537.36",
      "sec-ch-ua": "\"Not;A=Brand\";v=\"8\", \"Chromium\";v=\"150\", \"Google Chrome\";v=\"150\"",
      "accept-language": "en-US",
      "sec-ch-ua-mobile": "?0"
    },
    "postData": null,
    "endedAt": "2026-07-18T16:26:35.448Z",
    "durationMs": 255,
    "response": {
      "status": 200,
      "statusText": "",
      "ok": true,
      "headers": {
        "access-control-allow-credentials": "true",
        "access-control-allow-origin": "https://buggy-books-fe.onrender.com",
        "alt-svc": "h3=\":443\"; ma=86400",
        "cf-cache-status": "DYNAMIC",
        "cf-ray": "a1d2d9521952d6e9-IAD",
        "content-encoding": "br",
        "content-length": "138",
        "content-security-policy": "default-src 'self';base-uri 'self';font-src 'self' https: data:;form-action 'self';frame-ancestors 'self';img-src 'self' data:;object-src 'none';script-src 'self';script-src-attr 'none';style-src 'self' https: 'unsafe-inline';upgrade-insecure-requests",
        "content-type": "application/json; charset=utf-8",
        "cross-origin-opener-policy": "same-origin",
        "cross-origin-resource-policy": "same-origin",
        "date": "Sat, 18 Jul 2026 16:26:35 GMT",
        "etag": "W/\"a8-7gPNKfrsLBb14LKrwkGpEOOXtkg\"",
        "origin-agent-cluster": "?1",
        "ratelimit-limit": "600",
        "ratelimit-policy": "600;w=60",
        "ratelimit-remaining": "582",
        "ratelimit-reset": "53",
        "referrer-policy": "no-referrer",
        "rndr-id": "da652d43-5509-4a3f",
        "server": "cloudflare",
        "strict-transport-security": "max-age=31536000; includeSubDomains",
        "vary": "Origin, Accept-Encoding",
        "x-content-type-options": "nosniff",
        "x-correlation-id": "d7ecac5a-ad80-412d-9ad8-d583de278414",
        "x-dns-prefetch-control": "off",
        "x-download-options": "noopen",
        "x-frame-options": "SAMEORIGIN",
        "x-permitted-cross-domain-policies": "none",
        "x-render-origin-server": "Render",
        "x-xss-protection": "0"
      },
      "body": "{\"checkoutFailureRate\":0.15,\"inventoryDelayMs\":3000,\"jwtExpirySeconds\":900,\"websocketDropRate\":0,\"uploadFailureRate\":0,\"injectA11yViolations\":false,\"visualChaos\":false}"
    }
  },
  {
    "id": "1784391995311-4",
    "startedAt": "2026-07-18T16:26:35.311Z",
    "url": "https://buggy-books.onrender.com/socket.io/?EIO=4&transport=polling&t=kx7dxzub&sid=ziwZo-AyjKxLkpNNAAAm",
    "method": "POST",
    "resourceType": "xhr",
    "navigationRequest": false,
    "headers": {
      "sec-ch-ua-platform": "\"Linux\"",
      "referer": "https://buggy-books-fe.onrender.com/",
      "accept-language": "en-US",
      "sec-ch-ua": "\"Not;A=Brand\";v=\"8\", \"Chromium\";v=\"150\", \"Google Chrome\";v=\"150\"",
      "sec-ch-ua-mobile": "?0",
      "user-agent": "Mozilla/5.0 (X11; Linux x86_64) AppleWebKit/537.36 (KHTML, like Gecko) HeadlessChrome/150.0.0.0 Safari/537.36",
      "accept": "*/*",
      "content-type": "text/plain;charset=UTF-8"
    },
    "postData": "40",
    "endedAt": "2026-07-18T16:26:35.392Z",
    "durationMs": 81,
    "response": {
      "status": 200,
      "statusText": "",
      "ok": true,
      "headers": {
        "access-control-allow-credentials": "true",
        "access-control-allow-origin": "https://buggy-books-fe.onrender.com",
        "alt-svc": "h3=\":443\"; ma=86400",
        "cache-control": "no-store",
        "cf-cache-status": "DYNAMIC",
        "cf-ray": "a1d2d952acc4c99b-IAD",
        "content-encoding": "br",
        "content-length": "6",
        "content-type": "text/html",
        "date": "Sat, 18 Jul 2026 16:26:35 GMT",
        "priority": "u=1,i",
        "rndr-id": "f1360eaf-a53d-4dbc",
        "server": "cloudflare",
        "server-timing": "cfExtPri",
        "vary": "Origin, Accept-Encoding",
        "x-render-origin-server": "Render"
      },
      "body": "ok"
    }
  },
  {
    "id": "1784391995311-5",
    "startedAt": "2026-07-18T16:26:35.311Z",
    "url": "https://buggy-books.onrender.com/socket.io/?EIO=4&transport=polling&t=kx7e0fhv&sid=ziwZo-AyjKxLkpNNAAAm",
    "method": "GET",
    "resourceType": "xhr",
    "navigationRequest": false,
    "headers": {
      "sec-ch-ua-platform": "\"Linux\"",
      "referer": "https://buggy-books-fe.onrender.com/",
      "user-agent": "Mozilla/5.0 (X11; Linux x86_64) AppleWebKit/537.36 (KHTML, like Gecko) HeadlessChrome/150.0.0.0 Safari/537.36",
      "accept": "*/*",
      "sec-ch-ua": "\"Not;A=Brand\";v=\"8\", \"Chromium\";v=\"150\", \"Google Chrome\";v=\"150\"",
      "accept-language": "en-US",
      "sec-ch-ua-mobile": "?0"
    },
    "postData": null,
    "endedAt": "2026-07-18T16:26:35.412Z",
    "durationMs": 101,
    "response": {
      "status": 200,
      "statusText": "",
      "ok": true,
      "headers": {
        "access-control-allow-credentials": "true",
        "access-control-allow-origin": "https://buggy-books-fe.onrender.com",
        "alt-svc": "h3=\":443\"; ma=86400",
        "cache-control": "no-store",
        "cf-cache-status": "DYNAMIC",
        "cf-ray": "a1d2d952accac99b-IAD",
        "content-encoding": "br",
        "content-length": "36",
        "content-type": "text/plain; charset=UTF-8",
        "date": "Sat, 18 Jul 2026 16:26:35 GMT",
        "priority": "u=1,i",
        "rndr-id": "c55c21c9-b86b-452e",
        "server": "cloudflare",
        "server-timing": "cfExtPri",
        "vary": "Origin, Accept-Encoding",
        "x-render-origin-server": "Render"
      },
      "body": "40{\"sid\":\"aDi6FqGRfJfznaWMAAAn\"}"
    }
  },
  {
    "id": "1784391995412-6",
    "startedAt": "2026-07-18T16:26:35.412Z",
    "url": "https://buggy-books.onrender.com/socket.io/?EIO=4&transport=polling&t=kx7gumjx&sid=ziwZo-AyjKxLkpNNAAAm",
    "method": "GET",
    "resourceType": "xhr",
    "navigationRequest": false,
    "headers": {
      "sec-ch-ua-platform": "\"Linux\"",
      "referer": "https://buggy-books-fe.onrender.com/",
      "user-agent": "Mozilla/5.0 (X11; Linux x86_64) AppleWebKit/537.36 (KHTML, like Gecko) HeadlessChrome/150.0.0.0 Safari/537.36",
      "accept": "*/*",
      "sec-ch-ua": "\"Not;A=Brand\";v=\"8\", \"Chromium\";v=\"150\", \"Google Chrome\";v=\"150\"",
      "accept-language": "en-US",
      "sec-ch-ua-mobile": "?0"
    },
    "postData": null,
    "endedAt": "2026-07-18T16:26:35.796Z",
    "durationMs": 384,
    "response": {
      "status": 200,
      "statusText": "",
      "ok": true,
      "headers": {
        "access-control-allow-credentials": "true",
        "access-control-allow-origin": "https://buggy-books-fe.onrender.com",
        "alt-svc": "h3=\":443\"; ma=86400",
        "cache-control": "no-store",
        "cf-cache-status": "DYNAMIC",
        "cf-ray": "a1d2d9535e4fc99b-IAD",
        "content-encoding": "br",
        "content-length": "5",
        "content-type": "text/plain; charset=UTF-8",
        "date": "Sat, 18 Jul 2026 16:26:35 GMT",
        "priority": "u=1,i",
        "rndr-id": "801146a1-f906-4ca2",
        "server": "cloudflare",
        "server-timing": "cfExtPri",
        "vary": "Origin, Accept-Encoding",
        "x-render-origin-server": "Render"
      },
      "body": "6"
    }
  },
  {
    "id": "1784391996297-7",
    "startedAt": "2026-07-18T16:26:36.297Z",
    "url": "https://buggy-books.onrender.com/api/login",
    "method": "POST",
    "resourceType": "fetch",
    "navigationRequest": false,
    "headers": {
      "sec-ch-ua-platform": "\"Linux\"",
      "referer": "https://buggy-books-fe.onrender.com/",
      "user-agent": "Mozilla/5.0 (X11; Linux x86_64) AppleWebKit/537.36 (KHTML, like Gecko) HeadlessChrome/150.0.0.0 Safari/537.36",
      "sec-ch-ua": "\"Not;A=Brand\";v=\"8\", \"Chromium\";v=\"150\", \"Google Chrome\";v=\"150\"",
      "content-type": "application/json",
      "sec-ch-ua-mobile": "?0",
      "accept-language": "en-US"
    },
    "postData": "{\"username\":\"admin\",\"password\":\"wrongPassword123@\"}",
    "endedAt": "2026-07-18T16:26:37.293Z",
    "durationMs": 996,
    "response": {
      "status": 401,
      "statusText": "",
      "ok": false,
      "headers": {
        "access-control-allow-credentials": "true",
        "access-control-allow-origin": "https://buggy-books-fe.onrender.com",
        "alt-svc": "h3=\":443\"; ma=86400",
        "cf-cache-status": "DYNAMIC",
        "cf-ray": "a1d2d95a5f2dc99b-IAD",
        "content-encoding": "br",
        "content-length": "111",
        "content-security-policy": "default-src 'self';base-uri 'self';font-src 'self' https: data:;form-action 'self';frame-ancestors 'self';img-src 'self' data:;object-src 'none';script-src 'self';script-src-attr 'none';style-src 'self' https: 'unsafe-inline';upgrade-insecure-requests",
        "content-type": "application/json; charset=utf-8",
        "cross-origin-opener-policy": "same-origin",
        "cross-origin-resource-policy": "same-origin",
        "date": "Sat, 18 Jul 2026 16:26:37 GMT",
        "etag": "W/\"84-KvuBGEMEtzt8QBMhVuVqSl3tff0\"",
        "origin-agent-cluster": "?1",
        "priority": "u=1,i",
        "ratelimit-limit": "600",
        "ratelimit-policy": "600;w=60",
        "ratelimit-remaining": "581",
        "ratelimit-reset": "52",
        "referrer-policy": "no-referrer",
        "rndr-id": "24d08534-3769-45ac",
        "server": "cloudflare",
        "server-timing": "cfExtPri",
        "strict-transport-security": "max-age=31536000; includeSubDomains",
        "vary": "Origin, Accept-Encoding",
        "x-content-type-options": "nosniff",
        "x-correlation-id": "16b8e2db-d384-44b7-9ef9-7aa87f9f27bb",
        "x-dns-prefetch-control": "off",
        "x-download-options": "noopen",
        "x-frame-options": "SAMEORIGIN",
        "x-permitted-cross-domain-policies": "none",
        "x-render-origin-server": "Render",
        "x-xss-protection": "0"
      },
      "body": "{\"error\":\"Unauthorized: Invalid credentials\",\"errorName\":\"UnauthorizedError\",\"correlationId\":\"16b8e2db-d384-44b7-9ef9-7aa87f9f27bb\"}"
    }
  },
  {
    "id": "1784391998187-8",
    "startedAt": "2026-07-18T16:26:38.187Z",
    "url": "https://buggy-books.onrender.com/api/test/config",
    "method": "GET",
    "resourceType": "fetch",
    "navigationRequest": false,
    "headers": {
      "sec-ch-ua-platform": "\"Linux\"",
      "referer": "https://buggy-books-fe.onrender.com/",
      "user-agent": "Mozilla/5.0 (X11; Linux x86_64) AppleWebKit/537.36 (KHTML, like Gecko) HeadlessChrome/150.0.0.0 Safari/537.36",
      "sec-ch-ua": "\"Not;A=Brand\";v=\"8\", \"Chromium\";v=\"150\", \"Google Chrome\";v=\"150\"",
      "accept-language": "en-US",
      "sec-ch-ua-mobile": "?0"
    },
    "postData": null,
    "endedAt": "2026-07-18T16:26:38.290Z",
    "durationMs": 103,
    "response": {
      "status": 200,
      "statusText": "",
      "ok": true,
      "headers": {
        "access-control-allow-credentials": "true",
        "access-control-allow-origin": "https://buggy-books-fe.onrender.com",
        "alt-svc": "h3=\":443\"; ma=86400",
        "cf-cache-status": "DYNAMIC",
        "cf-ray": "a1d2d964a803241b-IAD",
        "content-security-policy": "default-src 'self';base-uri 'self';font-src 'self' https: data:;form-action 'self';frame-ancestors 'self';img-src 'self' data:;object-src 'none';script-src 'self';script-src-attr 'none';style-src 'self' https: 'unsafe-inline';upgrade-insecure-requests",
        "cross-origin-opener-policy": "same-origin",
        "cross-origin-resource-policy": "same-origin",
        "date": "Sat, 18 Jul 2026 16:26:38 GMT",
        "etag": "W/\"a8-7gPNKfrsLBb14LKrwkGpEOOXtkg\"",
        "origin-agent-cluster": "?1",
        "priority": "u=1,i",
        "ratelimit-limit": "600",
        "ratelimit-policy": "600;w=60",
        "ratelimit-remaining": "576",
        "ratelimit-reset": "50",
        "referrer-policy": "no-referrer",
        "rndr-id": "abe2c298-4a97-49af",
        "server": "cloudflare",
        "server-timing": "cfExtPri",
        "strict-transport-security": "max-age=31536000; includeSubDomains",
        "vary": "Origin",
        "x-content-type-options": "nosniff",
        "x-correlation-id": "109e7db5-1532-40d2-9707-537571ec9269",
        "x-dns-prefetch-control": "off",
        "x-download-options": "noopen",
        "x-frame-options": "SAMEORIGIN",
        "x-permitted-cross-domain-policies": "none",
        "x-render-origin-server": "Render",
        "x-xss-protection": "0"
      },
      "body": "{\"checkoutFailureRate\":0.15,\"inventoryDelayMs\":3000,\"jwtExpirySeconds\":900,\"websocketDropRate\":0,\"uploadFailureRate\":0,\"injectA11yViolations\":false,\"visualChaos\":false}"
    }
  }
]