[
  {
    "id": "1784393697354-1",
    "startedAt": "2026-07-18T16:54:57.354Z",
    "url": "https://buggy-books.onrender.com/socket.io/?EIO=4&transport=polling&t=lxop1yk0",
    "method": "GET",
    "resourceType": "xhr",
    "navigationRequest": false,
    "headers": {
      "sec-ch-ua-platform": "\"Linux\"",
      "referer": "https://buggy-books-fe.onrender.com/",
      "user-agent": "Mozilla/5.0 (X11; Linux x86_64) AppleWebKit/537.36 (KHTML, like Gecko) HeadlessChrome/150.0.0.0 Safari/537.36",
      "accept": "*/*",
      "sec-ch-ua": "\"Not;A=Brand\";v=\"8\", \"Chromium\";v=\"150\", \"Google Chrome\";v=\"150\"",
      "accept-language": "en-US",
      "sec-ch-ua-mobile": "?0"
    },
    "postData": null,
    "endedAt": "2026-07-18T16:54:57.435Z",
    "durationMs": 81,
    "response": {
      "status": 200,
      "statusText": "",
      "ok": true,
      "headers": {
        "access-control-allow-credentials": "true",
        "access-control-allow-origin": "https://buggy-books-fe.onrender.com",
        "alt-svc": "h3=\":443\"; ma=86400",
        "cache-control": "no-store",
        "cf-cache-status": "DYNAMIC",
        "cf-ray": "a1d302e079e750bb-ORD",
        "content-encoding": "br",
        "content-length": "103",
        "content-type": "text/plain; charset=UTF-8",
        "date": "Sat, 18 Jul 2026 16:54:57 GMT",
        "rndr-id": "3a2aa679-1a45-4020",
        "server": "cloudflare",
        "vary": "Origin, Accept-Encoding",
        "x-render-origin-server": "Render"
      },
      "body": "0{\"sid\":\"PIgZ1cdZ9RxbpiKkAAAs\",\"upgrades\":[\"websocket\"],\"pingInterval\":25000,\"pingTimeout\":20000,\"maxPayload\":1000000}"
    }
  },
  {
    "id": "1784393697354-2",
    "startedAt": "2026-07-18T16:54:57.354Z",
    "url": "https://buggy-books.onrender.com/api/books?page=1&limit=8",
    "method": "GET",
    "resourceType": "fetch",
    "navigationRequest": false,
    "headers": {
      "sec-ch-ua-platform": "\"Linux\"",
      "referer": "https://buggy-books-fe.onrender.com/",
      "user-agent": "Mozilla/5.0 (X11; Linux x86_64) AppleWebKit/537.36 (KHTML, like Gecko) HeadlessChrome/150.0.0.0 Safari/537.36",
      "sec-ch-ua": "\"Not;A=Brand\";v=\"8\", \"Chromium\";v=\"150\", \"Google Chrome\";v=\"150\"",
      "content-type": "application/json",
      "sec-ch-ua-mobile": "?0",
      "accept-language": "en-US"
    },
    "postData": null,
    "endedAt": "2026-07-18T16:54:57.533Z",
    "durationMs": 179,
    "response": {
      "status": 200,
      "statusText": "",
      "ok": true,
      "headers": {
        "access-control-allow-credentials": "true",
        "access-control-allow-origin": "https://buggy-books-fe.onrender.com",
        "alt-svc": "h3=\":443\"; ma=86400",
        "cf-cache-status": "DYNAMIC",
        "cf-ray": "a1d302e129317e6b-ORD",
        "content-encoding": "br",
        "content-length": "903",
        "content-security-policy": "default-src 'self';base-uri 'self';font-src 'self' https: data:;form-action 'self';frame-ancestors 'self';img-src 'self' data:;object-src 'none';script-src 'self';script-src-attr 'none';style-src 'self' https: 'unsafe-inline';upgrade-insecure-requests",
        "content-type": "application/json; charset=utf-8",
        "cross-origin-opener-policy": "same-origin",
        "cross-origin-resource-policy": "same-origin",
        "date": "Sat, 18 Jul 2026 16:54:57 GMT",
        "etag": "W/\"8dd-1eYedvc9P4YRO/rTyZQlBkE8zmI\"",
        "origin-agent-cluster": "?1",
        "priority": "u=1,i",
        "ratelimit-limit": "600",
        "ratelimit-policy": "600;w=60",
        "ratelimit-remaining": "574",
        "ratelimit-reset": "47",
        "referrer-policy": "no-referrer",
        "rndr-id": "e21cde66-8c14-4d50",
        "server": "cloudflare",
        "server-timing": "cfExtPri",
        "strict-transport-security": "max-age=31536000; includeSubDomains",
        "vary": "Origin, Accept-Encoding",
        "x-content-type-options": "nosniff",
        "x-correlation-id": "97bc68d2-db18-48ec-a282-7fa8b2061127",
        "x-dns-prefetch-control": "off",
        "x-download-options": "noopen",
        "x-frame-options": "SAMEORIGIN",
        "x-permitted-cross-domain-policies": "none",
        "x-render-origin-server": "Render",
        "x-xss-protection": "0"
      },
      "body": "{\"books\":[{\"id\":\"1\",\"title\":\"The Great Buggy Gatsby\",\"author\":\"F. Scott Fitzgerald\",\"price\":10.99,\"genre\":\"Classic\",\"description\":\"A story of wealth, obsession, and bugs in the Jazz Age.\",\"image\":\"https://images.unsplash.com/photo-1544947950-fa07a98d237f?q=80&w=600&auto=format&fit=crop\"},{\"id\":\"2\",\"title\":\"To Kill a Mockingbird Exception\",\"author\":\"Harper Lee\",\"price\":15.5,\"genre\":\"Classic\",\"description\":\"A coming-of-age tale with unhandled exceptions.\",\"image\":\"https://images.unsplash.com/photo-1512820790803-83ca734da794?q=80&w=600&auto=format&fit=crop\"},{\"id\":\"3\",\"title\":\"1984 Bugs\",\"author\":\"George Orwell\",\"price\":12,\"genre\":\"Dystopian\",\"description\":\"Big Bug is watching your code.\",\"image\":\"https://images.unsplash.com/photo-1543002588-bfa74002ed7e?q=80&w=600&auto=format&fit=crop\"},{\"id\":\"4\",\"title\":\"Pride and Prejudice and Performance Issues\",\"author\":\"Jane Austen\",\"price\":9.99,\"genre\":\"Classic\",\"description\":\"A tale of love, society, and slow query performance.\",\"image\":\"https://images.unsplash.com/photo-1589829085413-56de8ae18c73?q=80&w=600&auto=format&fit=crop\"},{\"id\":\"5\",\"title\":\"The Null and the Furious\",\"author\":\"Cormac McCarthy\",\"price\":13.99,\"genre\":\"Thriller\",\"description\":\"Null pointer exceptions wreak havoc on the open road.\",\"image\":\"https://images.unsplash.com/photo-1476275466078-4007374efbbe?q=80&w=600&auto=format&fit=crop\"},{\"id\":\"6\",\"title\":\"Harry Potter and the Goblet of Fire Events\",\"author\":\"J.K. Rowling\",\"price\":19.99,\"genre\":\"Fantasy\",\"description\":\"Asynchronous magic tournaments and event loop chaos.\",\"image\":\"https://images.unsplash.com/photo-1589998059171-988d887df646?q=80&w=600&auto=format&fit=crop\"},{\"id\":\"7\",\"title\":\"The Hitchhiker's Guide to the API\",\"author\":\"Douglas Adams\",\"price\":11.5,\"genre\":\"Sci-Fi\",\"description\":\"The answer to life, the universe, and REST endpoints is 42.\",\"image\":\"https://images.unsplash.com/photo-1462331940025-496dfbfc7564?q=80&w=600&auto=format&fit=crop\"},{\"id\":\"8\",\"title\":\"Moby Stack Overflow\",\"author\":\"Herman Melville\",\"price\":8.99,\"genre\":\"Classic\",\"description\":\"Captain Ahab's obsessive pursuit of the white stack trace.\",\"image\":\"https://images.unsplash.com/photo-1623018035782-b269248df916?q=80&w=600&auto=format&fit=crop\"}],\"total\":15,\"page\":1,\"totalPages\":2,\"limit\":8}"
    }
  },
  {
    "id": "1784393697354-3",
    "startedAt": "2026-07-18T16:54:57.354Z",
    "url": "https://buggy-books.onrender.com/api/test/config",
    "method": "GET",
    "resourceType": "fetch",
    "navigationRequest": false,
    "headers": {
      "sec-ch-ua-platform": "\"Linux\"",
      "referer": "https://buggy-books-fe.onrender.com/",
      "user-agent": "Mozilla/5.0 (X11; Linux x86_64) AppleWebKit/537.36 (KHTML, like Gecko) HeadlessChrome/150.0.0.0 Safari/537.36",
      "sec-ch-ua": "\"Not;A=Brand\";v=\"8\", \"Chromium\";v=\"150\", \"Google Chrome\";v=\"150\"",
      "accept-language": "en-US",
      "sec-ch-ua-mobile": "?0"
    },
    "postData": null,
    "endedAt": "2026-07-18T16:54:57.446Z",
    "durationMs": 92,
    "response": {
      "status": 200,
      "statusText": "",
      "ok": true,
      "headers": {
        "access-control-allow-credentials": "true",
        "access-control-allow-origin": "https://buggy-books-fe.onrender.com",
        "alt-svc": "h3=\":443\"; ma=86400",
        "cf-cache-status": "DYNAMIC",
        "cf-ray": "a1d302e09ecff50d-ORD",
        "content-encoding": "br",
        "content-length": "138",
        "content-security-policy": "default-src 'self';base-uri 'self';font-src 'self' https: data:;form-action 'self';frame-ancestors 'self';img-src 'self' data:;object-src 'none';script-src 'self';script-src-attr 'none';style-src 'self' https: 'unsafe-inline';upgrade-insecure-requests",
        "content-type": "application/json; charset=utf-8",
        "cross-origin-opener-policy": "same-origin",
        "cross-origin-resource-policy": "same-origin",
        "date": "Sat, 18 Jul 2026 16:54:57 GMT",
        "etag": "W/\"a8-7gPNKfrsLBb14LKrwkGpEOOXtkg\"",
        "origin-agent-cluster": "?1",
        "ratelimit-limit": "600",
        "ratelimit-policy": "600;w=60",
        "ratelimit-remaining": "575",
        "ratelimit-reset": "47",
        "referrer-policy": "no-referrer",
        "rndr-id": "2d27b5d2-4935-45fb",
        "server": "cloudflare",
        "strict-transport-security": "max-age=31536000; includeSubDomains",
        "vary": "Origin, Accept-Encoding",
        "x-content-type-options": "nosniff",
        "x-correlation-id": "4d338c2a-ea84-403c-a723-7f3156d61558",
        "x-dns-prefetch-control": "off",
        "x-download-options": "noopen",
        "x-frame-options": "SAMEORIGIN",
        "x-permitted-cross-domain-policies": "none",
        "x-render-origin-server": "Render",
        "x-xss-protection": "0"
      },
      "body": "{\"checkoutFailureRate\":0.15,\"inventoryDelayMs\":3000,\"jwtExpirySeconds\":900,\"websocketDropRate\":0,\"uploadFailureRate\":0,\"injectA11yViolations\":false,\"visualChaos\":false}"
    }
  },
  {
    "id": "1784393697435-4",
    "startedAt": "2026-07-18T16:54:57.435Z",
    "url": "https://buggy-books.onrender.com/socket.io/?EIO=4&transport=polling&t=lxor9md4&sid=PIgZ1cdZ9RxbpiKkAAAs",
    "method": "POST",
    "resourceType": "xhr",
    "navigationRequest": false,
    "headers": {
      "sec-ch-ua-platform": "\"Linux\"",
      "referer": "https://buggy-books-fe.onrender.com/",
      "accept-language": "en-US",
      "sec-ch-ua": "\"Not;A=Brand\";v=\"8\", \"Chromium\";v=\"150\", \"Google Chrome\";v=\"150\"",
      "sec-ch-ua-mobile": "?0",
      "user-agent": "Mozilla/5.0 (X11; Linux x86_64) AppleWebKit/537.36 (KHTML, like Gecko) HeadlessChrome/150.0.0.0 Safari/537.36",
      "accept": "*/*",
      "content-type": "text/plain;charset=UTF-8"
    },
    "postData": "40",
    "endedAt": "2026-07-18T16:54:57.513Z",
    "durationMs": 78,
    "response": {
      "status": 200,
      "statusText": "",
      "ok": true,
      "headers": {
        "access-control-allow-credentials": "true",
        "access-control-allow-origin": "https://buggy-books-fe.onrender.com",
        "alt-svc": "h3=\":443\"; ma=86400",
        "cache-control": "no-store",
        "cf-cache-status": "DYNAMIC",
        "cf-ray": "a1d302e0f89e7e6b-ORD",
        "content-encoding": "br",
        "content-length": "6",
        "content-type": "text/html",
        "date": "Sat, 18 Jul 2026 16:54:57 GMT",
        "priority": "u=1,i",
        "rndr-id": "099a1857-9a22-4227",
        "server": "cloudflare",
        "server-timing": "cfExtPri",
        "vary": "Origin, Accept-Encoding",
        "x-render-origin-server": "Render"
      },
      "body": "ok"
    }
  },
  {
    "id": "1784393697435-5",
    "startedAt": "2026-07-18T16:54:57.435Z",
    "url": "https://buggy-books.onrender.com/socket.io/?EIO=4&transport=polling&t=lxorbljm&sid=PIgZ1cdZ9RxbpiKkAAAs",
    "method": "GET",
    "resourceType": "xhr",
    "navigationRequest": false,
    "headers": {
      "sec-ch-ua-platform": "\"Linux\"",
      "referer": "https://buggy-books-fe.onrender.com/",
      "user-agent": "Mozilla/5.0 (X11; Linux x86_64) AppleWebKit/537.36 (KHTML, like Gecko) HeadlessChrome/150.0.0.0 Safari/537.36",
      "accept": "*/*",
      "sec-ch-ua": "\"Not;A=Brand\";v=\"8\", \"Chromium\";v=\"150\", \"Google Chrome\";v=\"150\"",
      "accept-language": "en-US",
      "sec-ch-ua-mobile": "?0"
    },
    "postData": null,
    "endedAt": "2026-07-18T16:54:57.514Z",
    "durationMs": 79,
    "response": {
      "status": 200,
      "statusText": "",
      "ok": true,
      "headers": {
        "access-control-allow-credentials": "true",
        "access-control-allow-origin": "https://buggy-books-fe.onrender.com",
        "alt-svc": "h3=\":443\"; ma=86400",
        "cache-control": "no-store",
        "cf-cache-status": "DYNAMIC",
        "cf-ray": "a1d302e0f8a37e6b-ORD",
        "content-encoding": "br",
        "content-length": "36",
        "content-type": "text/plain; charset=UTF-8",
        "date": "Sat, 18 Jul 2026 16:54:57 GMT",
        "priority": "u=1,i",
        "rndr-id": "872e4cba-1e9f-4d1e",
        "server": "cloudflare",
        "server-timing": "cfExtPri",
        "vary": "Origin, Accept-Encoding",
        "x-render-origin-server": "Render"
      },
      "body": "40{\"sid\":\"xIiYBTMM9Chl9qF0AAAt\"}"
    }
  },
  {
    "id": "1784393697506-6",
    "startedAt": "2026-07-18T16:54:57.506Z",
    "url": "https://buggy-books.onrender.com/socket.io/?EIO=4&transport=polling&t=lxotbhmo&sid=PIgZ1cdZ9RxbpiKkAAAs",
    "method": "GET",
    "resourceType": "xhr",
    "navigationRequest": false,
    "headers": {
      "sec-ch-ua-platform": "\"Linux\"",
      "referer": "https://buggy-books-fe.onrender.com/",
      "user-agent": "Mozilla/5.0 (X11; Linux x86_64) AppleWebKit/537.36 (KHTML, like Gecko) HeadlessChrome/150.0.0.0 Safari/537.36",
      "accept": "*/*",
      "sec-ch-ua": "\"Not;A=Brand\";v=\"8\", \"Chromium\";v=\"150\", \"Google Chrome\";v=\"150\"",
      "accept-language": "en-US",
      "sec-ch-ua-mobile": "?0"
    },
    "postData": null,
    "endedAt": "2026-07-18T16:54:57.799Z",
    "durationMs": 293,
    "response": {
      "status": 200,
      "statusText": "",
      "ok": true,
      "headers": {
        "access-control-allow-credentials": "true",
        "access-control-allow-origin": "https://buggy-books-fe.onrender.com",
        "alt-svc": "h3=\":443\"; ma=86400",
        "cache-control": "no-store",
        "cf-cache-status": "DYNAMIC",
        "cf-ray": "a1d302e169ff7e6b-ORD",
        "content-encoding": "br",
        "content-length": "5",
        "content-type": "text/plain; charset=UTF-8",
        "date": "Sat, 18 Jul 2026 16:54:57 GMT",
        "priority": "u=1,i",
        "rndr-id": "430767d6-fb7d-4b83",
        "server": "cloudflare",
        "server-timing": "cfExtPri",
        "vary": "Origin, Accept-Encoding",
        "x-render-origin-server": "Render"
      },
      "body": "6"
    }
  }
]