{"uid":"cf796f42a54c4698","name":"Testcase 5: Negative: Negative page number","fullName":"api/BookCatalog/Test_001_BooksApi.spec.ts:162:9","historyId":"3945adf67468aecdf28ae0ce8895a5d3:4151609b82fd60da52fe302128be4a3c","time":{"start":1784390556887,"stop":1784390556928,"duration":41},"status":"passed","flaky":false,"newFailed":false,"newBroken":false,"newPassed":false,"retriesCount":0,"retriesStatusChange":false,"beforeStages":[],"testStage":{"status":"passed","steps":[{"name":" [2026-07-18 16:02:36] [INFO] \uD83D\uDE80 Making GET request to https://buggy-books.onrender.com/api/books?page=-1&limit=10","time":{"start":1784390556891,"stop":1784390556891,"duration":0},"status":"passed","steps":[],"attachments":[],"parameters":[],"stepsCount":0,"shouldDisplayMessage":false,"attachmentsCount":0,"hasContent":false,"attachmentStep":false},{"name":"✅ [2026-07-18 16:02:36] [PASS] ✅ Get books with invalid parameters: Negative page number Success! Status: 200 OK","time":{"start":1784390556928,"stop":1784390556928,"duration":0},"status":"passed","steps":[],"attachments":[],"parameters":[],"stepsCount":0,"shouldDisplayMessage":false,"attachmentsCount":0,"hasContent":false,"attachmentStep":false},{"name":" [2026-07-18 16:02:36] [INFO] \uD83D\uDCE5 Response Payload: {\n  \"books\": [\n    {\n      \"id\": \"1\",\n      \"title\": \"The Great Buggy Gatsby\",\n      \"author\": \"F. Scott Fitzgerald\",\n      \"price\": 10.99,\n      \"genre\": \"Classic\",\n      \"description\": \"A story of wealth, obsession, and bugs in the Jazz Age.\",\n      \"image\": \"https://images.unsplash.com/photo-1544947950-fa07a98d237f?q=80&w=600&auto=format&fit=crop\"\n    },\n    {\n      \"id\": \"2\",\n      \"title\": \"To Kill a Mockingbird Exception\",\n      \"author\": \"Harper Lee\",\n      \"price\": 15.5,\n      \"genre\": \"Classic\",\n      \"description\": \"A coming-of-age tale with unhandled exceptions.\",\n      \"image\": \"https://images.unsplash.com/photo-1512820790803-83ca734da794?q=80&w=600&auto=format&fit=crop\"\n    },\n    {\n      \"id\": \"3\",\n      \"title\": \"1984 Bugs\",\n      \"author\": \"George Orwell\",\n      \"price\": 12,\n      \"genre\": \"Dystopian\",\n      \"description\": \"Big Bug is watching your code.\",\n      \"image\": \"https://images.unsplash.com/photo-1543002588-bfa74002ed7e?q=80&w=600&auto=format&fit=crop\"\n    },\n    {\n      \"id\": \"4\",\n      \"title\": \"Pride and Prejudice and Performance Issues\",\n      \"author\": \"Jane Austen\",\n      \"price\": 9.99,\n      \"genre\": \"Classic\",\n      \"description\": \"A tale of love, society, and slow query performance.\",\n      \"image\": \"https://images.unsplash.com/photo-1589829085413-56de8ae18c73?q=80&w=600&auto=format&fit=crop\"\n    },\n    {\n      \"id\": \"5\",\n      \"title\": \"The Null and the Furious\",\n      \"author\": \"Cormac McCarthy\",\n      \"price\": 13.99,\n      \"genre\": \"Thriller\",\n      \"description\": \"Null pointer exceptions wreak havoc on the open road.\",\n      \"image\": \"https://images.unsplash.com/photo-1476275466078-4007374efbbe?q=80&w=600&auto=format&fit=crop\"\n    },\n    {\n      \"id\": \"6\",\n      \"title\": \"Harry Potter and the Goblet of Fire Events\",\n      \"author\": \"J.K. Rowling\",\n      \"price\": 19.99,\n      \"genre\": \"Fantasy\",\n      \"description\": \"Asynchronous magic tournaments and event loop chaos.\",\n      \"image\": \"https://images.unsplash.com/photo-1589998059171-988d887df646?q=80&w=600&auto=format&fit=crop\"\n    },\n    {\n      \"id\": \"7\",\n      \"title\": \"The Hitchhiker's Guide to the API\",\n      \"author\": \"Douglas Adams\",\n      \"price\": 11.5,\n      \"genre\": \"Sci-Fi\",\n      \"description\": \"The answer to life, the universe, and REST endpoints is 42.\",\n      \"image\": \"https://images.unsplash.com/photo-1462331940025-496dfbfc7564?q=80&w=600&auto=format&fit=crop\"\n    },\n    {\n      \"id\": \"8\",\n      \"title\": \"Moby Stack Overflow\",\n      \"author\": \"Herman Melville\",\n      \"price\": 8.99,\n      \"genre\": \"Classic\",\n      \"description\": \"Captain Ahab's obsessive pursuit of the white stack trace.\",\n      \"image\": \"https://images.unsplash.com/photo-1623018035782-b269248df916?q=80&w=600&auto=format&fit=crop\"\n    },\n    {\n      \"id\": \"9\",\n      \"title\": \"War and Parse\",\n      \"author\": \"Leo Tolstoy\",\n      \"price\": 17.99,\n      \"genre\": \"Classic\",\n      \"description\": \"An epic battle between JSON and XML parsers.\",\n      \"image\": \"https://images.unsplash.com/photo-1495446815901-a7297e633e8d?q=80&w=600&auto=format&fit=crop\"\n    },\n    {\n      \"id\": \"10\",\n      \"title\": \"Crime and Refactoring\",\n      \"author\": \"Fyodor Dostoevsky\",\n      \"price\": 14.5,\n      \"genre\": \"Thriller\",\n      \"description\": \"A developer's guilt-ridden journey of merging to production.\",\n      \"image\": \"https://images.unsplash.com/photo-1506880018603-83d5b814b5a6?q=80&w=600&auto=format&fit=crop\"\n    }\n  ],\n  \"total\": 15,\n  \"page\": 1,\n  \"totalPages\": 2,\n  \"limit\": 10\n}","time":{"start":1784390556929,"stop":1784390556929,"duration":0},"status":"passed","steps":[],"attachments":[],"parameters":[],"stepsCount":0,"shouldDisplayMessage":false,"attachmentsCount":0,"hasContent":false,"attachmentStep":false},{"name":"✅ [2026-07-18 16:02:36] [PASS]  Status code should be 200 or 400 for invalid parameters: Negative page number Success !! Actual and Expected Values are:: true","time":{"start":1784390556930,"stop":1784390556930,"duration":0},"status":"passed","steps":[],"attachments":[],"parameters":[],"stepsCount":0,"shouldDisplayMessage":false,"attachmentsCount":0,"hasContent":false,"attachmentStep":false}],"attachments":[{"uid":"dfd1b5488eca59c2","name":"stdout","source":"dfd1b5488eca59c2.txt","type":"text/plain","size":3928}],"parameters":[],"stepsCount":4,"shouldDisplayMessage":false,"attachmentsCount":1,"hasContent":true,"attachmentStep":false},"afterStages":[],"labels":[{"name":"language","value":"javascript"},{"name":"framework","value":"playwright"},{"name":"package","value":"api.BookCatalog.Test_001_BooksApi.spec.ts"},{"name":"titlePath","value":" > Google Chrome > api/BookCatalog/Test_001_BooksApi.spec.ts > Books API - List and Security"},{"name":"host","value":"e562abedc74e"},{"name":"thread","value":"pid-1517-worker-0"},{"name":"parentSuite","value":"Google Chrome"},{"name":"suite","value":"api/BookCatalog/Test_001_BooksApi.spec.ts"},{"name":"subSuite","value":"Books API - List and Security"},{"name":"resultFormat","value":"allure2"}],"parameters":[{"name":"Project","value":"Google Chrome"}],"links":[],"hidden":false,"retry":false,"extra":{"severity":"normal","retries":[],"categories":[],"history":{"statistic":{"failed":0,"broken":0,"skipped":0,"passed":12,"unknown":0,"total":12},"items":[{"uid":"f41434dea8beffda","reportUrl":"https://munna7862.github.io/buggy-books/AutomationReports/Docker/11/#testresult/f41434dea8beffda","status":"passed","time":{"start":1784389047793,"stop":1784389047882,"duration":89}},{"uid":"cb052d662805458c","reportUrl":"https://munna7862.github.io/buggy-books/AutomationReports/Docker/11/#testresult/cb052d662805458c","status":"passed","time":{"start":1784387378219,"stop":1784387378277,"duration":58}},{"uid":"5d6204af9bd55fbc","reportUrl":"https://munna7862.github.io/buggy-books/AutomationReports/Docker/10/#testresult/5d6204af9bd55fbc","status":"passed","time":{"start":1784387174953,"stop":1784387175041,"duration":88}},{"uid":"f54f05380294d929","reportUrl":"https://munna7862.github.io/buggy-books/AutomationReports/Docker/9/#testresult/f54f05380294d929","status":"passed","time":{"start":1784385817818,"stop":1784385817890,"duration":72}},{"uid":"8de93b58a2fe6d14","reportUrl":"https://munna7862.github.io/buggy-books/AutomationReports/Docker/8/#testresult/8de93b58a2fe6d14","status":"passed","time":{"start":1784384938862,"stop":1784384938902,"duration":40}},{"uid":"9c8b99c5e6927f0e","reportUrl":"https://munna7862.github.io/buggy-books/AutomationReports/Docker/7/#testresult/9c8b99c5e6927f0e","status":"passed","time":{"start":1784382002091,"stop":1784382002220,"duration":129}},{"uid":"3d06dbc25121944e","reportUrl":"https://munna7862.github.io/buggy-books/AutomationReports/Docker/6/#testresult/3d06dbc25121944e","status":"passed","time":{"start":1784374226406,"stop":1784374226490,"duration":84}},{"uid":"6b8217839d4c5706","reportUrl":"https://munna7862.github.io/buggy-books/AutomationReports/Docker/5/#testresult/6b8217839d4c5706","status":"passed","time":{"start":1784373680072,"stop":1784373680256,"duration":184}},{"uid":"584f6ae8426c911f","reportUrl":"https://munna7862.github.io/buggy-books/AutomationReports/Docker/4/#testresult/584f6ae8426c911f","status":"passed","time":{"start":1784372412331,"stop":1784372412421,"duration":90}},{"uid":"a10b196265febd63","reportUrl":"https://munna7862.github.io/buggy-books/AutomationReports/Docker/3/#testresult/a10b196265febd63","status":"passed","time":{"start":1784359374993,"stop":1784359375084,"duration":91}},{"uid":"9787bba1c7fb13e5","reportUrl":"https://munna7862.github.io/buggy-books/AutomationReports/Docker/2/#testresult/9787bba1c7fb13e5","status":"passed","time":{"start":1784356180661,"stop":1784356180748,"duration":87}}]},"tags":[]},"source":"cf796f42a54c4698.json","parameterValues":["Google Chrome"]}