{"uid":"3b79d33c0f7a5b56","name":"Testcase 3: Pagination: Exceeding total pages (page=9999, limit=10)","fullName":"api/BookCatalog/Test_001_BooksApi.spec.ts:122:9","historyId":"8121de61c2a54dd80f07f7598863b114:4151609b82fd60da52fe302128be4a3c","time":{"start":1784373679679,"stop":1784373679766,"duration":87},"status":"passed","flaky":false,"newFailed":false,"newBroken":false,"newPassed":false,"retriesCount":0,"retriesStatusChange":false,"beforeStages":[],"testStage":{"status":"passed","steps":[{"name":" [2026-07-18 11:21:19] [INFO] \uD83D\uDE80 Making GET request to https://buggy-books.onrender.com/api/books?page=9999&limit=10","time":{"start":1784373679682,"stop":1784373679682,"duration":0},"status":"passed","steps":[],"attachments":[],"parameters":[],"stepsCount":0,"shouldDisplayMessage":false,"attachmentsCount":0,"hasContent":false,"attachmentStep":false},{"name":"✅ [2026-07-18 11:21:19] [PASS] ✅ Get paged books list for Exceeding total pages Success! Status: 200 OK","time":{"start":1784373679763,"stop":1784373679764,"duration":1},"status":"passed","steps":[],"attachments":[],"parameters":[],"stepsCount":0,"shouldDisplayMessage":false,"attachmentsCount":0,"hasContent":false,"attachmentStep":false},{"name":" [2026-07-18 11:21:19] [INFO] \uD83D\uDCE5 Response Payload: {\n  \"books\": [],\n  \"total\": 15,\n  \"page\": 9999,\n  \"totalPages\": 2,\n  \"limit\": 10\n}","time":{"start":1784373679764,"stop":1784373679764,"duration":0},"status":"passed","steps":[],"attachments":[],"parameters":[],"stepsCount":0,"shouldDisplayMessage":false,"attachmentsCount":0,"hasContent":false,"attachmentStep":false},{"name":"✅ [2026-07-18 11:21:19] [PASS]  Status code should be 200 for Exceeding total pages Success !! Actual and Expected Values are:: 200","time":{"start":1784373679765,"stop":1784373679765,"duration":0},"status":"passed","steps":[],"attachments":[],"parameters":[],"stepsCount":0,"shouldDisplayMessage":false,"attachmentsCount":0,"hasContent":false,"attachmentStep":false},{"name":"✅ [2026-07-18 11:21:19] [PASS]  Response page should be 9999 for Exceeding total pages Success !! Actual and Expected Values are:: 9999","time":{"start":1784373679766,"stop":1784373679766,"duration":0},"status":"passed","steps":[],"attachments":[],"parameters":[],"stepsCount":0,"shouldDisplayMessage":false,"attachmentsCount":0,"hasContent":false,"attachmentStep":false},{"name":"✅ [2026-07-18 11:21:19] [PASS]  Books array should be empty for out-of-bounds page 9999 Success !! Actual and Expected Values are:: 0","time":{"start":1784373679767,"stop":1784373679767,"duration":0},"status":"passed","steps":[],"attachments":[],"parameters":[],"stepsCount":0,"shouldDisplayMessage":false,"attachmentsCount":0,"hasContent":false,"attachmentStep":false}],"attachments":[{"uid":"de72b86b6e4341b9","name":"stdout","source":"de72b86b6e4341b9.txt","type":"text/plain","size":747}],"parameters":[],"stepsCount":6,"shouldDisplayMessage":false,"attachmentsCount":1,"hasContent":true,"attachmentStep":false},"afterStages":[],"labels":[{"name":"language","value":"javascript"},{"name":"framework","value":"playwright"},{"name":"package","value":"api.BookCatalog.Test_001_BooksApi.spec.ts"},{"name":"titlePath","value":" > Google Chrome > api/BookCatalog/Test_001_BooksApi.spec.ts > Books API - List and Security"},{"name":"host","value":"b171186c3974"},{"name":"thread","value":"pid-1517-worker-0"},{"name":"parentSuite","value":"Google Chrome"},{"name":"suite","value":"api/BookCatalog/Test_001_BooksApi.spec.ts"},{"name":"subSuite","value":"Books API - List and Security"},{"name":"resultFormat","value":"allure2"}],"parameters":[{"name":"Project","value":"Google Chrome"}],"links":[],"hidden":false,"retry":false,"extra":{"severity":"normal","retries":[],"categories":[],"history":{"statistic":{"failed":0,"broken":0,"skipped":0,"passed":4,"unknown":0,"total":4},"items":[{"uid":"421e32f3d16e2c23","reportUrl":"https://munna7862.github.io/buggy-books/AutomationReports/Docker/4/#testresult/421e32f3d16e2c23","status":"passed","time":{"start":1784372411867,"stop":1784372412004,"duration":137}},{"uid":"d7fc92665813ce8","reportUrl":"https://munna7862.github.io/buggy-books/AutomationReports/Docker/3/#testresult/d7fc92665813ce8","status":"passed","time":{"start":1784359374597,"stop":1784359374685,"duration":88}},{"uid":"eb3e2b90c5947672","reportUrl":"https://munna7862.github.io/buggy-books/AutomationReports/Docker/2/#testresult/eb3e2b90c5947672","status":"passed","time":{"start":1784356180200,"stop":1784356180312,"duration":112}}]},"tags":[]},"source":"3b79d33c0f7a5b56.json","parameterValues":["Google Chrome"]}