{"uid":"39df1b112a564805","name":"Testcase 3: Pagination: Standard page 2 (page=2, limit=5)","fullName":"api/Test_001_BooksApi.spec.ts:122:9","historyId":"63d161af54e82b87e22fc0115aec2ab9:4151609b82fd60da52fe302128be4a3c","time":{"start":1784352097784,"stop":1784352097896,"duration":112},"status":"passed","flaky":false,"newFailed":false,"newBroken":false,"newPassed":false,"retriesCount":0,"retriesStatusChange":false,"beforeStages":[],"testStage":{"status":"passed","steps":[{"name":" [2026-07-18 05:21:37] [INFO] \uD83D\uDE80 Making GET request to https://buggy-books.onrender.com/api/books?page=2&limit=5","time":{"start":1784352097787,"stop":1784352097788,"duration":1},"status":"passed","steps":[],"attachments":[],"parameters":[],"stepsCount":0,"shouldDisplayMessage":false,"attachmentsCount":0,"hasContent":false,"attachmentStep":false},{"name":"✅ [2026-07-18 05:21:37] [PASS] ✅ Get paged books list for Standard page 2 Success! Status: 200 OK","time":{"start":1784352097893,"stop":1784352097893,"duration":0},"status":"passed","steps":[],"attachments":[],"parameters":[],"stepsCount":0,"shouldDisplayMessage":false,"attachmentsCount":0,"hasContent":false,"attachmentStep":false},{"name":" [2026-07-18 05:21:37] [INFO] \uD83D\uDCE5 Response Payload: {\n  \"books\": [\n    {\n      \"id\": \"6\",\n      \"title\": \"Harry Potter and the Goblet of Fire Events\",\n      \"author\": \"J.K. Rowling\",\n      \"price\": 19.99,\n      \"genre\": \"Fantasy\",\n      \"description\": \"Asynchronous magic tournaments and event loop chaos.\",\n      \"image\": \"https://images.unsplash.com/photo-1589998059171-988d887df646?q=80&w=600&auto=format&fit=crop\"\n    },\n    {\n      \"id\": \"7\",\n      \"title\": \"The Hitchhiker's Guide to the API\",\n      \"author\": \"Douglas Adams\",\n      \"price\": 11.5,\n      \"genre\": \"Sci-Fi\",\n      \"description\": \"The answer to life, the universe, and REST endpoints is 42.\",\n      \"image\": \"https://images.unsplash.com/photo-1462331940025-496dfbfc7564?q=80&w=600&auto=format&fit=crop\"\n    },\n    {\n      \"id\": \"8\",\n      \"title\": \"Moby Stack Overflow\",\n      \"author\": \"Herman Melville\",\n      \"price\": 8.99,\n      \"genre\": \"Classic\",\n      \"description\": \"Captain Ahab's obsessive pursuit of the white stack trace.\",\n      \"image\": \"https://images.unsplash.com/photo-1623018035782-b269248df916?q=80&w=600&auto=format&fit=crop\"\n    },\n    {\n      \"id\": \"9\",\n      \"title\": \"War and Parse\",\n      \"author\": \"Leo Tolstoy\",\n      \"price\": 17.99,\n      \"genre\": \"Classic\",\n      \"description\": \"An epic battle between JSON and XML parsers.\",\n      \"image\": \"https://images.unsplash.com/photo-1495446815901-a7297e633e8d?q=80&w=600&auto=format&fit=crop\"\n    },\n    {\n      \"id\": \"10\",\n      \"title\": \"Crime and Refactoring\",\n      \"author\": \"Fyodor Dostoevsky\",\n      \"price\": 14.5,\n      \"genre\": \"Thriller\",\n      \"description\": \"A developer's guilt-ridden journey of merging to production.\",\n      \"image\": \"https://images.unsplash.com/photo-1506880018603-83d5b814b5a6?q=80&w=600&auto=format&fit=crop\"\n    }\n  ],\n  \"total\": 15,\n  \"page\": 2,\n  \"totalPages\": 3,\n  \"limit\": 5\n}","time":{"start":1784352097894,"stop":1784352097894,"duration":0},"status":"passed","steps":[],"attachments":[],"parameters":[],"stepsCount":0,"shouldDisplayMessage":false,"attachmentsCount":0,"hasContent":false,"attachmentStep":false},{"name":"✅ [2026-07-18 05:21:37] [PASS]  Status code should be 200 for Standard page 2 Success !! Actual and Expected Values are:: 200","time":{"start":1784352097894,"stop":1784352097894,"duration":0},"status":"passed","steps":[],"attachments":[],"parameters":[],"stepsCount":0,"shouldDisplayMessage":false,"attachmentsCount":0,"hasContent":false,"attachmentStep":false},{"name":"✅ [2026-07-18 05:21:37] [PASS]  Response page should be 2 for Standard page 2 Success !! Actual and Expected Values are:: 2","time":{"start":1784352097895,"stop":1784352097896,"duration":1},"status":"passed","steps":[],"attachments":[],"parameters":[],"stepsCount":0,"shouldDisplayMessage":false,"attachmentsCount":0,"hasContent":false,"attachmentStep":false},{"name":"✅ [2026-07-18 05:21:37] [PASS]  Books array length should be less than or equal to limit 5 Success !! Actual and Expected Values are:: true","time":{"start":1784352097898,"stop":1784352097898,"duration":0},"status":"passed","steps":[],"attachments":[],"parameters":[],"stepsCount":0,"shouldDisplayMessage":false,"attachmentsCount":0,"hasContent":false,"attachmentStep":false}],"attachments":[{"uid":"d861046ffa215204","name":"stdout","source":"d861046ffa215204.txt","type":"text/plain","size":2450}],"parameters":[],"stepsCount":6,"shouldDisplayMessage":false,"attachmentsCount":1,"hasContent":true,"attachmentStep":false},"afterStages":[],"labels":[{"name":"language","value":"javascript"},{"name":"framework","value":"playwright"},{"name":"package","value":"api.Test_001_BooksApi.spec.ts"},{"name":"titlePath","value":" > Google Chrome > api/Test_001_BooksApi.spec.ts > Books API - List and Security"},{"name":"host","value":"f9f69823f3c2"},{"name":"thread","value":"pid-1517-worker-0"},{"name":"parentSuite","value":"Google Chrome"},{"name":"suite","value":"api/Test_001_BooksApi.spec.ts"},{"name":"subSuite","value":"Books API - List and Security"},{"name":"resultFormat","value":"allure2"}],"parameters":[{"name":"Project","value":"Google Chrome"}],"links":[],"hidden":false,"retry":false,"extra":{"severity":"normal","retries":[],"categories":[],"tags":[]},"source":"39df1b112a564805.json","parameterValues":["Google Chrome"]}