{"uid":"849857812be0c5b4","name":"Testcase 3: Pagination: Exceeding total pages (page=9999, limit=10)","fullName":"api/Test_001_BooksApi.spec.ts:122:9","historyId":"6d723e390d928ab4f0711c8c401dadce:4151609b82fd60da52fe302128be4a3c","time":{"start":1784352098022,"stop":1784352098271,"duration":249},"status":"passed","flaky":false,"newFailed":false,"newBroken":false,"newPassed":false,"retriesCount":0,"retriesStatusChange":false,"beforeStages":[],"testStage":{"status":"passed","steps":[{"name":" [2026-07-18 05:21:38] [INFO] \uD83D\uDE80 Making GET request to https://buggy-books.onrender.com/api/books?page=9999&limit=10","time":{"start":1784352098025,"stop":1784352098025,"duration":0},"status":"passed","steps":[],"attachments":[],"parameters":[],"stepsCount":0,"shouldDisplayMessage":false,"attachmentsCount":0,"hasContent":false,"attachmentStep":false},{"name":"✅ [2026-07-18 05:21:38] [PASS] ✅ Get paged books list for Exceeding total pages Success! Status: 200 OK","time":{"start":1784352098267,"stop":1784352098268,"duration":1},"status":"passed","steps":[],"attachments":[],"parameters":[],"stepsCount":0,"shouldDisplayMessage":false,"attachmentsCount":0,"hasContent":false,"attachmentStep":false},{"name":" [2026-07-18 05:21:38] [INFO] \uD83D\uDCE5 Response Payload: {\n  \"books\": [],\n  \"total\": 15,\n  \"page\": 9999,\n  \"totalPages\": 2,\n  \"limit\": 10\n}","time":{"start":1784352098268,"stop":1784352098268,"duration":0},"status":"passed","steps":[],"attachments":[],"parameters":[],"stepsCount":0,"shouldDisplayMessage":false,"attachmentsCount":0,"hasContent":false,"attachmentStep":false},{"name":"✅ [2026-07-18 05:21:38] [PASS]  Status code should be 200 for Exceeding total pages Success !! Actual and Expected Values are:: 200","time":{"start":1784352098269,"stop":1784352098269,"duration":0},"status":"passed","steps":[],"attachments":[],"parameters":[],"stepsCount":0,"shouldDisplayMessage":false,"attachmentsCount":0,"hasContent":false,"attachmentStep":false},{"name":"✅ [2026-07-18 05:21:38] [PASS]  Response page should be 9999 for Exceeding total pages Success !! Actual and Expected Values are:: 9999","time":{"start":1784352098270,"stop":1784352098270,"duration":0},"status":"passed","steps":[],"attachments":[],"parameters":[],"stepsCount":0,"shouldDisplayMessage":false,"attachmentsCount":0,"hasContent":false,"attachmentStep":false},{"name":"✅ [2026-07-18 05:21:38] [PASS]  Books array should be empty for out-of-bounds page 9999 Success !! Actual and Expected Values are:: 0","time":{"start":1784352098272,"stop":1784352098272,"duration":0},"status":"passed","steps":[],"attachments":[],"parameters":[],"stepsCount":0,"shouldDisplayMessage":false,"attachmentsCount":0,"hasContent":false,"attachmentStep":false}],"attachments":[{"uid":"8c7a3864b9450452","name":"stdout","source":"8c7a3864b9450452.txt","type":"text/plain","size":747}],"parameters":[],"stepsCount":6,"shouldDisplayMessage":false,"attachmentsCount":1,"hasContent":true,"attachmentStep":false},"afterStages":[],"labels":[{"name":"language","value":"javascript"},{"name":"framework","value":"playwright"},{"name":"package","value":"api.Test_001_BooksApi.spec.ts"},{"name":"titlePath","value":" > Google Chrome > api/Test_001_BooksApi.spec.ts > Books API - List and Security"},{"name":"host","value":"f9f69823f3c2"},{"name":"thread","value":"pid-1517-worker-0"},{"name":"parentSuite","value":"Google Chrome"},{"name":"suite","value":"api/Test_001_BooksApi.spec.ts"},{"name":"subSuite","value":"Books API - List and Security"},{"name":"resultFormat","value":"allure2"}],"parameters":[{"name":"Project","value":"Google Chrome"}],"links":[],"hidden":false,"retry":false,"extra":{"severity":"normal","retries":[],"categories":[],"tags":[]},"source":"849857812be0c5b4.json","parameterValues":["Google Chrome"]}