{"uid":"da66c46c214a192b","name":"Testcase 3: Pagination: Minimum limit (page=1, limit=1)","fullName":"api/Test_001_BooksApi.spec.ts:122:9","historyId":"22856963b74fd50ff68a331c5aeef077:4151609b82fd60da52fe302128be4a3c","time":{"start":1784352097903,"stop":1784352098014,"duration":111},"status":"passed","flaky":false,"newFailed":false,"newBroken":false,"newPassed":false,"retriesCount":0,"retriesStatusChange":false,"beforeStages":[],"testStage":{"status":"passed","steps":[{"name":" [2026-07-18 05:21:37] [INFO] \uD83D\uDE80 Making GET request to https://buggy-books.onrender.com/api/books?page=1&limit=1","time":{"start":1784352097907,"stop":1784352097907,"duration":0},"status":"passed","steps":[],"attachments":[],"parameters":[],"stepsCount":0,"shouldDisplayMessage":false,"attachmentsCount":0,"hasContent":false,"attachmentStep":false},{"name":"✅ [2026-07-18 05:21:38] [PASS] ✅ Get paged books list for Minimum limit Success! Status: 200 OK","time":{"start":1784352098012,"stop":1784352098013,"duration":1},"status":"passed","steps":[],"attachments":[],"parameters":[],"stepsCount":0,"shouldDisplayMessage":false,"attachmentsCount":0,"hasContent":false,"attachmentStep":false},{"name":" [2026-07-18 05:21:38] [INFO] \uD83D\uDCE5 Response Payload: {\n  \"books\": [\n    {\n      \"id\": \"1\",\n      \"title\": \"The Great Buggy Gatsby\",\n      \"author\": \"F. Scott Fitzgerald\",\n      \"price\": 10.99,\n      \"genre\": \"Classic\",\n      \"description\": \"A story of wealth, obsession, and bugs in the Jazz Age.\",\n      \"image\": \"https://images.unsplash.com/photo-1544947950-fa07a98d237f?q=80&w=600&auto=format&fit=crop\"\n    }\n  ],\n  \"total\": 15,\n  \"page\": 1,\n  \"totalPages\": 15,\n  \"limit\": 1\n}","time":{"start":1784352098013,"stop":1784352098013,"duration":0},"status":"passed","steps":[],"attachments":[],"parameters":[],"stepsCount":0,"shouldDisplayMessage":false,"attachmentsCount":0,"hasContent":false,"attachmentStep":false},{"name":"✅ [2026-07-18 05:21:38] [PASS]  Status code should be 200 for Minimum limit Success !! Actual and Expected Values are:: 200","time":{"start":1784352098014,"stop":1784352098014,"duration":0},"status":"passed","steps":[],"attachments":[],"parameters":[],"stepsCount":0,"shouldDisplayMessage":false,"attachmentsCount":0,"hasContent":false,"attachmentStep":false},{"name":"✅ [2026-07-18 05:21:38] [PASS]  Response page should be 1 for Minimum limit Success !! Actual and Expected Values are:: 1","time":{"start":1784352098015,"stop":1784352098015,"duration":0},"status":"passed","steps":[],"attachments":[],"parameters":[],"stepsCount":0,"shouldDisplayMessage":false,"attachmentsCount":0,"hasContent":false,"attachmentStep":false},{"name":"✅ [2026-07-18 05:21:38] [PASS]  Books array length should be less than or equal to limit 1 Success !! Actual and Expected Values are:: true","time":{"start":1784352098017,"stop":1784352098017,"duration":0},"status":"passed","steps":[],"attachments":[],"parameters":[],"stepsCount":0,"shouldDisplayMessage":false,"attachmentsCount":0,"hasContent":false,"attachmentStep":false}],"attachments":[{"uid":"a52214155698834","name":"stdout","source":"a52214155698834.txt","type":"text/plain","size":1063}],"parameters":[],"stepsCount":6,"shouldDisplayMessage":false,"attachmentsCount":1,"hasContent":true,"attachmentStep":false},"afterStages":[],"labels":[{"name":"language","value":"javascript"},{"name":"framework","value":"playwright"},{"name":"package","value":"api.Test_001_BooksApi.spec.ts"},{"name":"titlePath","value":" > Google Chrome > api/Test_001_BooksApi.spec.ts > Books API - List and Security"},{"name":"host","value":"f9f69823f3c2"},{"name":"thread","value":"pid-1517-worker-0"},{"name":"parentSuite","value":"Google Chrome"},{"name":"suite","value":"api/Test_001_BooksApi.spec.ts"},{"name":"subSuite","value":"Books API - List and Security"},{"name":"resultFormat","value":"allure2"}],"parameters":[{"name":"Project","value":"Google Chrome"}],"links":[],"hidden":false,"retry":false,"extra":{"severity":"normal","retries":[],"categories":[],"tags":[]},"source":"da66c46c214a192b.json","parameterValues":["Google Chrome"]}