{"uid":"9512812b2a56c096","name":"Testcase 3: Pagination: Standard page 1 (page=1, limit=5)","fullName":"api/BookCatalog/Test_001_BooksApi.spec.ts:122:9","historyId":"64bd9a95a79aaf8fb24b493bed036e19:4151609b82fd60da52fe302128be4a3c","time":{"start":1784392850291,"stop":1784392850410,"duration":119},"status":"passed","flaky":false,"newFailed":false,"newBroken":false,"newPassed":false,"retriesCount":0,"retriesStatusChange":false,"beforeStages":[],"testStage":{"status":"passed","steps":[{"name":" [2026-07-18 16:40:50] [INFO] \uD83D\uDE80 Making GET request to https://buggy-books.onrender.com/api/books?page=1&limit=5","time":{"start":1784392850296,"stop":1784392850297,"duration":1},"status":"passed","steps":[],"attachments":[],"parameters":[],"stepsCount":0,"shouldDisplayMessage":false,"attachmentsCount":0,"hasContent":false,"attachmentStep":false},{"name":"✅ [2026-07-18 16:40:50] [PASS] ✅ Get paged books list for Standard page 1 Success! Status: 200 OK","time":{"start":1784392850407,"stop":1784392850407,"duration":0},"status":"passed","steps":[],"attachments":[],"parameters":[],"stepsCount":0,"shouldDisplayMessage":false,"attachmentsCount":0,"hasContent":false,"attachmentStep":false},{"name":" [2026-07-18 16:40:50] [INFO] \uD83D\uDCE5 Response Payload: {\n  \"books\": [\n    {\n      \"id\": \"1\",\n      \"title\": \"The Great Buggy Gatsby\",\n      \"author\": \"F. Scott Fitzgerald\",\n      \"price\": 10.99,\n      \"genre\": \"Classic\",\n      \"description\": \"A story of wealth, obsession, and bugs in the Jazz Age.\",\n      \"image\": \"https://images.unsplash.com/photo-1544947950-fa07a98d237f?q=80&w=600&auto=format&fit=crop\"\n    },\n    {\n      \"id\": \"2\",\n      \"title\": \"To Kill a Mockingbird Exception\",\n      \"author\": \"Harper Lee\",\n      \"price\": 15.5,\n      \"genre\": \"Classic\",\n      \"description\": \"A coming-of-age tale with unhandled exceptions.\",\n      \"image\": \"https://images.unsplash.com/photo-1512820790803-83ca734da794?q=80&w=600&auto=format&fit=crop\"\n    },\n    {\n      \"id\": \"3\",\n      \"title\": \"1984 Bugs\",\n      \"author\": \"George Orwell\",\n      \"price\": 12,\n      \"genre\": \"Dystopian\",\n      \"description\": \"Big Bug is watching your code.\",\n      \"image\": \"https://images.unsplash.com/photo-1543002588-bfa74002ed7e?q=80&w=600&auto=format&fit=crop\"\n    },\n    {\n      \"id\": \"4\",\n      \"title\": \"Pride and Prejudice and Performance Issues\",\n      \"author\": \"Jane Austen\",\n      \"price\": 9.99,\n      \"genre\": \"Classic\",\n      \"description\": \"A tale of love, society, and slow query performance.\",\n      \"image\": \"https://images.unsplash.com/photo-1589829085413-56de8ae18c73?q=80&w=600&auto=format&fit=crop\"\n    },\n    {\n      \"id\": \"5\",\n      \"title\": \"The Null and the Furious\",\n      \"author\": \"Cormac McCarthy\",\n      \"price\": 13.99,\n      \"genre\": \"Thriller\",\n      \"description\": \"Null pointer exceptions wreak havoc on the open road.\",\n      \"image\": \"https://images.unsplash.com/photo-1476275466078-4007374efbbe?q=80&w=600&auto=format&fit=crop\"\n    }\n  ],\n  \"total\": 15,\n  \"page\": 1,\n  \"totalPages\": 3,\n  \"limit\": 5\n}","time":{"start":1784392850407,"stop":1784392850408,"duration":1},"status":"passed","steps":[],"attachments":[],"parameters":[],"stepsCount":0,"shouldDisplayMessage":false,"attachmentsCount":0,"hasContent":false,"attachmentStep":false},{"name":"✅ [2026-07-18 16:40:50] [PASS]  Status code should be 200 for Standard page 1 Success !! Actual and Expected Values are:: 200","time":{"start":1784392850408,"stop":1784392850408,"duration":0},"status":"passed","steps":[],"attachments":[],"parameters":[],"stepsCount":0,"shouldDisplayMessage":false,"attachmentsCount":0,"hasContent":false,"attachmentStep":false},{"name":"✅ [2026-07-18 16:40:50] [PASS]  Response page should be 1 for Standard page 1 Success !! Actual and Expected Values are:: 1","time":{"start":1784392850410,"stop":1784392850410,"duration":0},"status":"passed","steps":[],"attachments":[],"parameters":[],"stepsCount":0,"shouldDisplayMessage":false,"attachmentsCount":0,"hasContent":false,"attachmentStep":false},{"name":"✅ [2026-07-18 16:40:50] [PASS]  Books array length should be less than or equal to limit 5 Success !! Actual and Expected Values are:: true","time":{"start":1784392850412,"stop":1784392850413,"duration":1},"status":"passed","steps":[],"attachments":[],"parameters":[],"stepsCount":0,"shouldDisplayMessage":false,"attachmentsCount":0,"hasContent":false,"attachmentStep":false}],"attachments":[{"uid":"5e6ff2ca3e9056c2","name":"stdout","source":"5e6ff2ca3e9056c2.txt","type":"text/plain","size":2408}],"parameters":[],"stepsCount":6,"shouldDisplayMessage":false,"attachmentsCount":1,"hasContent":true,"attachmentStep":false},"afterStages":[],"labels":[{"name":"language","value":"javascript"},{"name":"framework","value":"playwright"},{"name":"package","value":"api.BookCatalog.Test_001_BooksApi.spec.ts"},{"name":"titlePath","value":" > Google Chrome > api/BookCatalog/Test_001_BooksApi.spec.ts > Books API - List and Security"},{"name":"host","value":"84568659bfd8"},{"name":"thread","value":"pid-1517-worker-0"},{"name":"parentSuite","value":"Google Chrome"},{"name":"suite","value":"api/BookCatalog/Test_001_BooksApi.spec.ts"},{"name":"subSuite","value":"Books API - List and Security"},{"name":"resultFormat","value":"allure2"}],"parameters":[{"name":"Project","value":"Google Chrome"}],"links":[],"hidden":false,"retry":false,"extra":{"severity":"normal","retries":[],"categories":[],"history":{"statistic":{"failed":0,"broken":0,"skipped":0,"passed":14,"unknown":0,"total":14},"items":[{"uid":"8332b2dfdc938b96","reportUrl":"https://munna7862.github.io/buggy-books/AutomationReports/Docker/13/#testresult/8332b2dfdc938b96","status":"passed","time":{"start":1784391984263,"stop":1784391984397,"duration":134}},{"uid":"15f4bb677eec32dc","reportUrl":"https://munna7862.github.io/buggy-books/AutomationReports/Docker/12/#testresult/15f4bb677eec32dc","status":"passed","time":{"start":1784390556431,"stop":1784390556571,"duration":140}},{"uid":"e11c135600aa289c","reportUrl":"https://munna7862.github.io/buggy-books/AutomationReports/Docker/11/#testresult/e11c135600aa289c","status":"passed","time":{"start":1784389047019,"stop":1784389047110,"duration":91}},{"uid":"a06edef668084c52","reportUrl":"https://munna7862.github.io/buggy-books/AutomationReports/Docker/11/#testresult/a06edef668084c52","status":"passed","time":{"start":1784387377715,"stop":1784387377800,"duration":85}},{"uid":"6645025cbbc3946a","reportUrl":"https://munna7862.github.io/buggy-books/AutomationReports/Docker/10/#testresult/6645025cbbc3946a","status":"passed","time":{"start":1784387174169,"stop":1784387174246,"duration":77}},{"uid":"d4f1d5c92982afcf","reportUrl":"https://munna7862.github.io/buggy-books/AutomationReports/Docker/9/#testresult/d4f1d5c92982afcf","status":"passed","time":{"start":1784385816978,"stop":1784385817172,"duration":194}},{"uid":"faafcc0b2299ec32","reportUrl":"https://munna7862.github.io/buggy-books/AutomationReports/Docker/8/#testresult/faafcc0b2299ec32","status":"passed","time":{"start":1784384938474,"stop":1784384938537,"duration":63}},{"uid":"d05b05d8fd385419","reportUrl":"https://munna7862.github.io/buggy-books/AutomationReports/Docker/7/#testresult/d05b05d8fd385419","status":"passed","time":{"start":1784382001309,"stop":1784382001425,"duration":116}},{"uid":"a2e39df09a349d4a","reportUrl":"https://munna7862.github.io/buggy-books/AutomationReports/Docker/6/#testresult/a2e39df09a349d4a","status":"passed","time":{"start":1784374225663,"stop":1784374225844,"duration":181}},{"uid":"bffd8d7e4545e48d","reportUrl":"https://munna7862.github.io/buggy-books/AutomationReports/Docker/5/#testresult/bffd8d7e4545e48d","status":"passed","time":{"start":1784373679389,"stop":1784373679462,"duration":73}},{"uid":"d15d8bfc20e3a324","reportUrl":"https://munna7862.github.io/buggy-books/AutomationReports/Docker/4/#testresult/d15d8bfc20e3a324","status":"passed","time":{"start":1784372411460,"stop":1784372411610,"duration":150}},{"uid":"f99ac825b1b9ee2a","reportUrl":"https://munna7862.github.io/buggy-books/AutomationReports/Docker/3/#testresult/f99ac825b1b9ee2a","status":"passed","time":{"start":1784359374261,"stop":1784359374370,"duration":109}},{"uid":"738fc22c889ec92","reportUrl":"https://munna7862.github.io/buggy-books/AutomationReports/Docker/2/#testresult/738fc22c889ec92","status":"passed","time":{"start":1784356179806,"stop":1784356179999,"duration":193}}]},"tags":[]},"source":"9512812b2a56c096.json","parameterValues":["Google Chrome"]}