[
  {
    "id": "1784382002026-1",
    "startedAt": "2026-07-18T13:40:02.026Z",
    "url": "https://buggy-books.onrender.com/socket.io/?EIO=4&transport=polling&t=ez0igqvn",
    "method": "GET",
    "resourceType": "xhr",
    "navigationRequest": false,
    "headers": {
      "sec-ch-ua-platform": "\"Linux\"",
      "referer": "https://buggy-books-fe.onrender.com/",
      "user-agent": "Mozilla/5.0 (X11; Linux x86_64) AppleWebKit/537.36 (KHTML, like Gecko) HeadlessChrome/150.0.0.0 Safari/537.36",
      "accept": "*/*",
      "sec-ch-ua": "\"Not;A=Brand\";v=\"8\", \"Chromium\";v=\"150\", \"Google Chrome\";v=\"150\"",
      "accept-language": "en-US",
      "sec-ch-ua-mobile": "?0"
    },
    "postData": null,
    "endedAt": "2026-07-18T13:40:02.133Z",
    "durationMs": 107,
    "response": {
      "status": 200,
      "statusText": "",
      "ok": true,
      "headers": {
        "access-control-allow-credentials": "true",
        "access-control-allow-origin": "https://buggy-books-fe.onrender.com",
        "alt-svc": "h3=\":443\"; ma=86400",
        "cache-control": "no-store",
        "cf-cache-status": "DYNAMIC",
        "cf-ray": "a1d1e558b9b8ba62-SJC",
        "content-encoding": "br",
        "content-length": "106",
        "content-type": "text/plain; charset=UTF-8",
        "date": "Sat, 18 Jul 2026 13:40:02 GMT",
        "rndr-id": "bdea6c7c-4a59-4b23",
        "server": "cloudflare",
        "vary": "Origin, Accept-Encoding",
        "x-render-origin-server": "Render"
      },
      "body": "0{\"sid\":\"4rEIUNOPnmQzfkVrAAAI\",\"upgrades\":[\"websocket\"],\"pingInterval\":25000,\"pingTimeout\":20000,\"maxPayload\":1000000}"
    }
  },
  {
    "id": "1784382002026-2",
    "startedAt": "2026-07-18T13:40:02.026Z",
    "url": "https://buggy-books.onrender.com/api/books?page=1&limit=8",
    "method": "GET",
    "resourceType": "fetch",
    "navigationRequest": false,
    "headers": {
      "sec-ch-ua-platform": "\"Linux\"",
      "referer": "https://buggy-books-fe.onrender.com/",
      "user-agent": "Mozilla/5.0 (X11; Linux x86_64) AppleWebKit/537.36 (KHTML, like Gecko) HeadlessChrome/150.0.0.0 Safari/537.36",
      "sec-ch-ua": "\"Not;A=Brand\";v=\"8\", \"Chromium\";v=\"150\", \"Google Chrome\";v=\"150\"",
      "content-type": "application/json",
      "sec-ch-ua-mobile": "?0",
      "accept-language": "en-US"
    },
    "postData": null,
    "endedAt": "2026-07-18T13:40:02.240Z",
    "durationMs": 214,
    "response": {
      "status": 200,
      "statusText": "",
      "ok": true,
      "headers": {
        "access-control-allow-credentials": "true",
        "access-control-allow-origin": "https://buggy-books-fe.onrender.com",
        "alt-svc": "h3=\":443\"; ma=86400",
        "cf-cache-status": "DYNAMIC",
        "cf-ray": "a1d1e5594925f99f-SJC",
        "content-encoding": "br",
        "content-length": "903",
        "content-security-policy": "default-src 'self';base-uri 'self';font-src 'self' https: data:;form-action 'self';frame-ancestors 'self';img-src 'self' data:;object-src 'none';script-src 'self';script-src-attr 'none';style-src 'self' https: 'unsafe-inline';upgrade-insecure-requests",
        "content-type": "application/json; charset=utf-8",
        "cross-origin-opener-policy": "same-origin",
        "cross-origin-resource-policy": "same-origin",
        "date": "Sat, 18 Jul 2026 13:40:02 GMT",
        "etag": "W/\"8dd-1eYedvc9P4YRO/rTyZQlBkE8zmI\"",
        "origin-agent-cluster": "?1",
        "priority": "u=1,i",
        "ratelimit-limit": "600",
        "ratelimit-policy": "600;w=60",
        "ratelimit-remaining": "588",
        "ratelimit-reset": "48",
        "referrer-policy": "no-referrer",
        "rndr-id": "d860510c-6a69-4396",
        "server": "cloudflare",
        "server-timing": "cfExtPri",
        "strict-transport-security": "max-age=31536000; includeSubDomains",
        "vary": "Origin, Accept-Encoding",
        "x-content-type-options": "nosniff",
        "x-correlation-id": "38729a12-e0b8-496d-89ae-57a21e5109fc",
        "x-dns-prefetch-control": "off",
        "x-download-options": "noopen",
        "x-frame-options": "SAMEORIGIN",
        "x-permitted-cross-domain-policies": "none",
        "x-render-origin-server": "Render",
        "x-xss-protection": "0"
      },
      "body": "{\"books\":[{\"id\":\"1\",\"title\":\"The Great Buggy Gatsby\",\"author\":\"F. Scott Fitzgerald\",\"price\":10.99,\"genre\":\"Classic\",\"description\":\"A story of wealth, obsession, and bugs in the Jazz Age.\",\"image\":\"https://images.unsplash.com/photo-1544947950-fa07a98d237f?q=80&w=600&auto=format&fit=crop\"},{\"id\":\"2\",\"title\":\"To Kill a Mockingbird Exception\",\"author\":\"Harper Lee\",\"price\":15.5,\"genre\":\"Classic\",\"description\":\"A coming-of-age tale with unhandled exceptions.\",\"image\":\"https://images.unsplash.com/photo-1512820790803-83ca734da794?q=80&w=600&auto=format&fit=crop\"},{\"id\":\"3\",\"title\":\"1984 Bugs\",\"author\":\"George Orwell\",\"price\":12,\"genre\":\"Dystopian\",\"description\":\"Big Bug is watching your code.\",\"image\":\"https://images.unsplash.com/photo-1543002588-bfa74002ed7e?q=80&w=600&auto=format&fit=crop\"},{\"id\":\"4\",\"title\":\"Pride and Prejudice and Performance Issues\",\"author\":\"Jane Austen\",\"price\":9.99,\"genre\":\"Classic\",\"description\":\"A tale of love, society, and slow query performance.\",\"image\":\"https://images.unsplash.com/photo-1589829085413-56de8ae18c73?q=80&w=600&auto=format&fit=crop\"},{\"id\":\"5\",\"title\":\"The Null and the Furious\",\"author\":\"Cormac McCarthy\",\"price\":13.99,\"genre\":\"Thriller\",\"description\":\"Null pointer exceptions wreak havoc on the open road.\",\"image\":\"https://images.unsplash.com/photo-1476275466078-4007374efbbe?q=80&w=600&auto=format&fit=crop\"},{\"id\":\"6\",\"title\":\"Harry Potter and the Goblet of Fire Events\",\"author\":\"J.K. Rowling\",\"price\":19.99,\"genre\":\"Fantasy\",\"description\":\"Asynchronous magic tournaments and event loop chaos.\",\"image\":\"https://images.unsplash.com/photo-1589998059171-988d887df646?q=80&w=600&auto=format&fit=crop\"},{\"id\":\"7\",\"title\":\"The Hitchhiker's Guide to the API\",\"author\":\"Douglas Adams\",\"price\":11.5,\"genre\":\"Sci-Fi\",\"description\":\"The answer to life, the universe, and REST endpoints is 42.\",\"image\":\"https://images.unsplash.com/photo-1462331940025-496dfbfc7564?q=80&w=600&auto=format&fit=crop\"},{\"id\":\"8\",\"title\":\"Moby Stack Overflow\",\"author\":\"Herman Melville\",\"price\":8.99,\"genre\":\"Classic\",\"description\":\"Captain Ahab's obsessive pursuit of the white stack trace.\",\"image\":\"https://images.unsplash.com/photo-1623018035782-b269248df916?q=80&w=600&auto=format&fit=crop\"}],\"total\":15,\"page\":1,\"totalPages\":2,\"limit\":8}"
    }
  },
  {
    "id": "1784382002027-3",
    "startedAt": "2026-07-18T13:40:02.027Z",
    "url": "https://buggy-books.onrender.com/api/test/config",
    "method": "GET",
    "resourceType": "fetch",
    "navigationRequest": false,
    "headers": {
      "sec-ch-ua-platform": "\"Linux\"",
      "referer": "https://buggy-books-fe.onrender.com/",
      "user-agent": "Mozilla/5.0 (X11; Linux x86_64) AppleWebKit/537.36 (KHTML, like Gecko) HeadlessChrome/150.0.0.0 Safari/537.36",
      "sec-ch-ua": "\"Not;A=Brand\";v=\"8\", \"Chromium\";v=\"150\", \"Google Chrome\";v=\"150\"",
      "accept-language": "en-US",
      "sec-ch-ua-mobile": "?0"
    },
    "postData": null,
    "endedAt": "2026-07-18T13:40:02.109Z",
    "durationMs": 82,
    "response": {
      "status": 200,
      "statusText": "",
      "ok": true,
      "headers": {
        "access-control-allow-credentials": "true",
        "access-control-allow-origin": "https://buggy-books-fe.onrender.com",
        "alt-svc": "h3=\":443\"; ma=86400",
        "cf-cache-status": "DYNAMIC",
        "cf-ray": "a1d1e558cffbcf16-SJC",
        "content-encoding": "br",
        "content-length": "138",
        "content-security-policy": "default-src 'self';base-uri 'self';font-src 'self' https: data:;form-action 'self';frame-ancestors 'self';img-src 'self' data:;object-src 'none';script-src 'self';script-src-attr 'none';style-src 'self' https: 'unsafe-inline';upgrade-insecure-requests",
        "content-type": "application/json; charset=utf-8",
        "cross-origin-opener-policy": "same-origin",
        "cross-origin-resource-policy": "same-origin",
        "date": "Sat, 18 Jul 2026 13:40:02 GMT",
        "etag": "W/\"a8-7gPNKfrsLBb14LKrwkGpEOOXtkg\"",
        "origin-agent-cluster": "?1",
        "ratelimit-limit": "600",
        "ratelimit-policy": "600;w=60",
        "ratelimit-remaining": "589",
        "ratelimit-reset": "48",
        "referrer-policy": "no-referrer",
        "rndr-id": "dc8b0743-c56c-42fa",
        "server": "cloudflare",
        "strict-transport-security": "max-age=31536000; includeSubDomains",
        "vary": "Origin, Accept-Encoding",
        "x-content-type-options": "nosniff",
        "x-correlation-id": "cd3aa7c6-2143-4a25-86b4-fddd37506744",
        "x-dns-prefetch-control": "off",
        "x-download-options": "noopen",
        "x-frame-options": "SAMEORIGIN",
        "x-permitted-cross-domain-policies": "none",
        "x-render-origin-server": "Render",
        "x-xss-protection": "0"
      },
      "body": "{\"checkoutFailureRate\":0.15,\"inventoryDelayMs\":3000,\"jwtExpirySeconds\":900,\"websocketDropRate\":0,\"uploadFailureRate\":0,\"injectA11yViolations\":false,\"visualChaos\":false}"
    }
  },
  {
    "id": "1784382002132-4",
    "startedAt": "2026-07-18T13:40:02.132Z",
    "url": "https://buggy-books.onrender.com/socket.io/?EIO=4&transport=polling&t=ez0lphis&sid=4rEIUNOPnmQzfkVrAAAI",
    "method": "POST",
    "resourceType": "xhr",
    "navigationRequest": false,
    "headers": {
      "sec-ch-ua-platform": "\"Linux\"",
      "referer": "https://buggy-books-fe.onrender.com/",
      "accept-language": "en-US",
      "sec-ch-ua": "\"Not;A=Brand\";v=\"8\", \"Chromium\";v=\"150\", \"Google Chrome\";v=\"150\"",
      "sec-ch-ua-mobile": "?0",
      "user-agent": "Mozilla/5.0 (X11; Linux x86_64) AppleWebKit/537.36 (KHTML, like Gecko) HeadlessChrome/150.0.0.0 Safari/537.36",
      "accept": "*/*",
      "content-type": "text/plain;charset=UTF-8"
    },
    "postData": "40",
    "endedAt": "2026-07-18T13:40:02.241Z",
    "durationMs": 109,
    "response": {
      "status": 200,
      "statusText": "",
      "ok": true,
      "headers": {
        "access-control-allow-credentials": "true",
        "access-control-allow-origin": "https://buggy-books-fe.onrender.com",
        "alt-svc": "h3=\":443\"; ma=86400",
        "cache-control": "no-store",
        "cf-cache-status": "DYNAMIC",
        "cf-ray": "a1d1e5594922f99f-SJC",
        "content-encoding": "br",
        "content-length": "6",
        "content-type": "text/html",
        "date": "Sat, 18 Jul 2026 13:40:02 GMT",
        "priority": "u=1,i",
        "rndr-id": "2c1f7991-b3a3-4e51",
        "server": "cloudflare",
        "server-timing": "cfExtPri",
        "vary": "Origin, Accept-Encoding",
        "x-render-origin-server": "Render"
      },
      "body": "ok"
    }
  },
  {
    "id": "1784382002132-5",
    "startedAt": "2026-07-18T13:40:02.132Z",
    "url": "https://buggy-books.onrender.com/socket.io/?EIO=4&transport=polling&t=ez0lr9lj&sid=4rEIUNOPnmQzfkVrAAAI",
    "method": "GET",
    "resourceType": "xhr",
    "navigationRequest": false,
    "headers": {
      "sec-ch-ua-platform": "\"Linux\"",
      "referer": "https://buggy-books-fe.onrender.com/",
      "user-agent": "Mozilla/5.0 (X11; Linux x86_64) AppleWebKit/537.36 (KHTML, like Gecko) HeadlessChrome/150.0.0.0 Safari/537.36",
      "accept": "*/*",
      "sec-ch-ua": "\"Not;A=Brand\";v=\"8\", \"Chromium\";v=\"150\", \"Google Chrome\";v=\"150\"",
      "accept-language": "en-US",
      "sec-ch-ua-mobile": "?0"
    },
    "postData": null,
    "endedAt": "2026-07-18T13:40:02.241Z",
    "durationMs": 109,
    "response": {
      "status": 200,
      "statusText": "",
      "ok": true,
      "headers": {
        "access-control-allow-credentials": "true",
        "access-control-allow-origin": "https://buggy-books-fe.onrender.com",
        "alt-svc": "h3=\":443\"; ma=86400",
        "cache-control": "no-store",
        "cf-cache-status": "DYNAMIC",
        "cf-ray": "a1d1e5594923f99f-SJC",
        "content-encoding": "br",
        "content-length": "36",
        "content-type": "text/plain; charset=UTF-8",
        "date": "Sat, 18 Jul 2026 13:40:02 GMT",
        "priority": "u=1,i",
        "rndr-id": "f1e131b8-9d33-483e",
        "server": "cloudflare",
        "server-timing": "cfExtPri",
        "vary": "Origin, Accept-Encoding",
        "x-render-origin-server": "Render"
      },
      "body": "40{\"sid\":\"Dkk3u9iQtLWwWFRFAAAJ\"}"
    }
  },
  {
    "id": "1784382002229-6",
    "startedAt": "2026-07-18T13:40:02.229Z",
    "url": "https://buggy-books.onrender.com/socket.io/?EIO=4&transport=polling&t=ez0ofo2c&sid=4rEIUNOPnmQzfkVrAAAI",
    "method": "GET",
    "resourceType": "xhr",
    "navigationRequest": false,
    "headers": {
      "sec-ch-ua-platform": "\"Linux\"",
      "referer": "https://buggy-books-fe.onrender.com/",
      "user-agent": "Mozilla/5.0 (X11; Linux x86_64) AppleWebKit/537.36 (KHTML, like Gecko) HeadlessChrome/150.0.0.0 Safari/537.36",
      "accept": "*/*",
      "sec-ch-ua": "\"Not;A=Brand\";v=\"8\", \"Chromium\";v=\"150\", \"Google Chrome\";v=\"150\"",
      "accept-language": "en-US",
      "sec-ch-ua-mobile": "?0"
    },
    "postData": null,
    "endedAt": "2026-07-18T13:40:02.397Z",
    "durationMs": 168,
    "response": {
      "status": 200,
      "statusText": "",
      "ok": true,
      "headers": {
        "access-control-allow-credentials": "true",
        "access-control-allow-origin": "https://buggy-books-fe.onrender.com",
        "alt-svc": "h3=\":443\"; ma=86400",
        "cache-control": "no-store",
        "cf-cache-status": "DYNAMIC",
        "cf-ray": "a1d1e559e953f99f-SJC",
        "content-encoding": "br",
        "content-length": "5",
        "content-type": "text/plain; charset=UTF-8",
        "date": "Sat, 18 Jul 2026 13:40:02 GMT",
        "priority": "u=1,i",
        "rndr-id": "a4f0dbf5-1d27-4ee1",
        "server": "cloudflare",
        "server-timing": "cfExtPri",
        "vary": "Origin, Accept-Encoding",
        "x-render-origin-server": "Render"
      },
      "body": "6"
    }
  },
  {
    "id": "1784382002397-7",
    "startedAt": "2026-07-18T13:40:02.397Z",
    "url": "https://buggy-books.onrender.com/api/books?page=2&limit=8",
    "method": "GET",
    "resourceType": "fetch",
    "navigationRequest": false,
    "headers": {
      "sec-ch-ua-platform": "\"Linux\"",
      "referer": "https://buggy-books-fe.onrender.com/",
      "user-agent": "Mozilla/5.0 (X11; Linux x86_64) AppleWebKit/537.36 (KHTML, like Gecko) HeadlessChrome/150.0.0.0 Safari/537.36",
      "sec-ch-ua": "\"Not;A=Brand\";v=\"8\", \"Chromium\";v=\"150\", \"Google Chrome\";v=\"150\"",
      "content-type": "application/json",
      "sec-ch-ua-mobile": "?0",
      "accept-language": "en-US"
    },
    "postData": null,
    "endedAt": "2026-07-18T13:40:02.495Z",
    "durationMs": 98,
    "response": {
      "status": 200,
      "statusText": "",
      "ok": true,
      "headers": {
        "access-control-allow-credentials": "true",
        "access-control-allow-origin": "https://buggy-books-fe.onrender.com",
        "alt-svc": "h3=\":443\"; ma=86400",
        "cf-cache-status": "DYNAMIC",
        "cf-ray": "a1d1e55b49d7f99f-SJC",
        "content-encoding": "br",
        "content-length": "808",
        "content-security-policy": "default-src 'self';base-uri 'self';font-src 'self' https: data:;form-action 'self';frame-ancestors 'self';img-src 'self' data:;object-src 'none';script-src 'self';script-src-attr 'none';style-src 'self' https: 'unsafe-inline';upgrade-insecure-requests",
        "content-type": "application/json; charset=utf-8",
        "cross-origin-opener-policy": "same-origin",
        "cross-origin-resource-policy": "same-origin",
        "date": "Sat, 18 Jul 2026 13:40:02 GMT",
        "etag": "W/\"7d0-WCs+USLYSI3/6JdC/E8eNejh5cg\"",
        "origin-agent-cluster": "?1",
        "priority": "u=1,i",
        "ratelimit-limit": "600",
        "ratelimit-policy": "600;w=60",
        "ratelimit-remaining": "585",
        "ratelimit-reset": "47",
        "referrer-policy": "no-referrer",
        "rndr-id": "6d84d000-b677-4fbf",
        "server": "cloudflare",
        "server-timing": "cfExtPri",
        "strict-transport-security": "max-age=31536000; includeSubDomains",
        "vary": "Origin, Accept-Encoding",
        "x-content-type-options": "nosniff",
        "x-correlation-id": "744e2a46-ab97-4b60-b5c5-590ee16f63f7",
        "x-dns-prefetch-control": "off",
        "x-download-options": "noopen",
        "x-frame-options": "SAMEORIGIN",
        "x-permitted-cross-domain-policies": "none",
        "x-render-origin-server": "Render",
        "x-xss-protection": "0"
      },
      "body": "{\"books\":[{\"id\":\"9\",\"title\":\"War and Parse\",\"author\":\"Leo Tolstoy\",\"price\":17.99,\"genre\":\"Classic\",\"description\":\"An epic battle between JSON and XML parsers.\",\"image\":\"https://images.unsplash.com/photo-1495446815901-a7297e633e8d?q=80&w=600&auto=format&fit=crop\"},{\"id\":\"10\",\"title\":\"Crime and Refactoring\",\"author\":\"Fyodor Dostoevsky\",\"price\":14.5,\"genre\":\"Thriller\",\"description\":\"A developer's guilt-ridden journey of merging to production.\",\"image\":\"https://images.unsplash.com/photo-1506880018603-83d5b814b5a6?q=80&w=600&auto=format&fit=crop\"},{\"id\":\"11\",\"title\":\"Brave New Debug World\",\"author\":\"Aldous Huxley\",\"price\":11.99,\"genre\":\"Dystopian\",\"description\":\"A world where logging is banned and breakpoints are illegal.\",\"image\":\"https://images.unsplash.com/photo-1614332287897-cdc485fa562d?q=80&w=600&auto=format&fit=crop\"},{\"id\":\"12\",\"title\":\"Of Memory and Men\",\"author\":\"John Steinbeck\",\"price\":9.5,\"genre\":\"Classic\",\"description\":\"Two developers dream of the perfect memory allocation scheme.\",\"image\":\"https://images.unsplash.com/photo-1524995997946-a1c2e315a42f?q=80&w=600&auto=format&fit=crop\"},{\"id\":\"13\",\"title\":\"Fahrenheit 500: Internal Server Error\",\"author\":\"Ray Bradbury\",\"price\":12.99,\"genre\":\"Dystopian\",\"description\":\"A society that burns documentation.\",\"image\":\"https://images.unsplash.com/photo-1541963463532-d68292c34b19?q=80&w=600&auto=format&fit=crop\"},{\"id\":\"14\",\"title\":\"The Catcher in the Deploy\",\"author\":\"J.D. Salinger\",\"price\":10,\"genre\":\"Classic\",\"description\":\"Holden catches failed deployments before they hit production.\",\"image\":\"https://images.unsplash.com/photo-1532012197267-da84d127e765?q=80&w=600&auto=format&fit=crop\"},{\"id\":\"15\",\"title\":\"Don Quixote de la Repository\",\"author\":\"Miguel de Cervantes\",\"price\":16.99,\"genre\":\"Classic\",\"description\":\"A delusional developer tilts at windmill microservices.\",\"image\":\"https://images.unsplash.com/photo-1497633762265-9d179a990aa6?q=80&w=600&auto=format&fit=crop\"}],\"total\":15,\"page\":2,\"totalPages\":2,\"limit\":8}"
    }
  },
  {
    "id": "1784382004505-8",
    "startedAt": "2026-07-18T13:40:04.505Z",
    "url": "https://buggy-books.onrender.com/api/books?page=1&limit=8",
    "method": "GET",
    "resourceType": "fetch",
    "navigationRequest": false,
    "headers": {
      "sec-ch-ua-platform": "\"Linux\"",
      "referer": "https://buggy-books-fe.onrender.com/",
      "user-agent": "Mozilla/5.0 (X11; Linux x86_64) AppleWebKit/537.36 (KHTML, like Gecko) HeadlessChrome/150.0.0.0 Safari/537.36",
      "sec-ch-ua": "\"Not;A=Brand\";v=\"8\", \"Chromium\";v=\"150\", \"Google Chrome\";v=\"150\"",
      "content-type": "application/json",
      "sec-ch-ua-mobile": "?0",
      "accept-language": "en-US"
    },
    "postData": null,
    "endedAt": "2026-07-18T13:40:04.557Z",
    "durationMs": 52,
    "response": {
      "status": 200,
      "statusText": "",
      "ok": true,
      "headers": {
        "access-control-allow-credentials": "true",
        "access-control-allow-origin": "https://buggy-books-fe.onrender.com",
        "alt-svc": "h3=\":443\"; ma=86400",
        "cf-cache-status": "DYNAMIC",
        "cf-ray": "a1d1e5682e7cf99f-SJC",
        "content-security-policy": "default-src 'self';base-uri 'self';font-src 'self' https: data:;form-action 'self';frame-ancestors 'self';img-src 'self' data:;object-src 'none';script-src 'self';script-src-attr 'none';style-src 'self' https: 'unsafe-inline';upgrade-insecure-requests",
        "cross-origin-opener-policy": "same-origin",
        "cross-origin-resource-policy": "same-origin",
        "date": "Sat, 18 Jul 2026 13:40:04 GMT",
        "etag": "W/\"8dd-1eYedvc9P4YRO/rTyZQlBkE8zmI\"",
        "origin-agent-cluster": "?1",
        "priority": "u=1,i",
        "ratelimit-limit": "600",
        "ratelimit-policy": "600;w=60",
        "ratelimit-remaining": "580",
        "ratelimit-reset": "45",
        "referrer-policy": "no-referrer",
        "rndr-id": "859cfd4e-6e19-4204",
        "server": "cloudflare",
        "server-timing": "cfExtPri",
        "strict-transport-security": "max-age=31536000; includeSubDomains",
        "vary": "Origin",
        "x-content-type-options": "nosniff",
        "x-correlation-id": "56a41ca1-7859-426b-8cf0-dfedd25e51a6",
        "x-dns-prefetch-control": "off",
        "x-download-options": "noopen",
        "x-frame-options": "SAMEORIGIN",
        "x-permitted-cross-domain-policies": "none",
        "x-render-origin-server": "Render",
        "x-xss-protection": "0"
      },
      "body": "{\"books\":[{\"id\":\"1\",\"title\":\"The Great Buggy Gatsby\",\"author\":\"F. Scott Fitzgerald\",\"price\":10.99,\"genre\":\"Classic\",\"description\":\"A story of wealth, obsession, and bugs in the Jazz Age.\",\"image\":\"https://images.unsplash.com/photo-1544947950-fa07a98d237f?q=80&w=600&auto=format&fit=crop\"},{\"id\":\"2\",\"title\":\"To Kill a Mockingbird Exception\",\"author\":\"Harper Lee\",\"price\":15.5,\"genre\":\"Classic\",\"description\":\"A coming-of-age tale with unhandled exceptions.\",\"image\":\"https://images.unsplash.com/photo-1512820790803-83ca734da794?q=80&w=600&auto=format&fit=crop\"},{\"id\":\"3\",\"title\":\"1984 Bugs\",\"author\":\"George Orwell\",\"price\":12,\"genre\":\"Dystopian\",\"description\":\"Big Bug is watching your code.\",\"image\":\"https://images.unsplash.com/photo-1543002588-bfa74002ed7e?q=80&w=600&auto=format&fit=crop\"},{\"id\":\"4\",\"title\":\"Pride and Prejudice and Performance Issues\",\"author\":\"Jane Austen\",\"price\":9.99,\"genre\":\"Classic\",\"description\":\"A tale of love, society, and slow query performance.\",\"image\":\"https://images.unsplash.com/photo-1589829085413-56de8ae18c73?q=80&w=600&auto=format&fit=crop\"},{\"id\":\"5\",\"title\":\"The Null and the Furious\",\"author\":\"Cormac McCarthy\",\"price\":13.99,\"genre\":\"Thriller\",\"description\":\"Null pointer exceptions wreak havoc on the open road.\",\"image\":\"https://images.unsplash.com/photo-1476275466078-4007374efbbe?q=80&w=600&auto=format&fit=crop\"},{\"id\":\"6\",\"title\":\"Harry Potter and the Goblet of Fire Events\",\"author\":\"J.K. Rowling\",\"price\":19.99,\"genre\":\"Fantasy\",\"description\":\"Asynchronous magic tournaments and event loop chaos.\",\"image\":\"https://images.unsplash.com/photo-1589998059171-988d887df646?q=80&w=600&auto=format&fit=crop\"},{\"id\":\"7\",\"title\":\"The Hitchhiker's Guide to the API\",\"author\":\"Douglas Adams\",\"price\":11.5,\"genre\":\"Sci-Fi\",\"description\":\"The answer to life, the universe, and REST endpoints is 42.\",\"image\":\"https://images.unsplash.com/photo-1462331940025-496dfbfc7564?q=80&w=600&auto=format&fit=crop\"},{\"id\":\"8\",\"title\":\"Moby Stack Overflow\",\"author\":\"Herman Melville\",\"price\":8.99,\"genre\":\"Classic\",\"description\":\"Captain Ahab's obsessive pursuit of the white stack trace.\",\"image\":\"https://images.unsplash.com/photo-1623018035782-b269248df916?q=80&w=600&auto=format&fit=crop\"}],\"total\":15,\"page\":1,\"totalPages\":2,\"limit\":8}"
    }
  },
  {
    "id": "1784382005015-9",
    "startedAt": "2026-07-18T13:40:05.015Z",
    "url": "https://buggy-books.onrender.com/api/test/config",
    "method": "GET",
    "resourceType": "fetch",
    "navigationRequest": false,
    "headers": {
      "sec-ch-ua-platform": "\"Linux\"",
      "referer": "https://buggy-books-fe.onrender.com/",
      "user-agent": "Mozilla/5.0 (X11; Linux x86_64) AppleWebKit/537.36 (KHTML, like Gecko) HeadlessChrome/150.0.0.0 Safari/537.36",
      "sec-ch-ua": "\"Not;A=Brand\";v=\"8\", \"Chromium\";v=\"150\", \"Google Chrome\";v=\"150\"",
      "accept-language": "en-US",
      "sec-ch-ua-mobile": "?0"
    },
    "postData": null,
    "endedAt": "2026-07-18T13:40:05.058Z",
    "durationMs": 43,
    "response": {
      "status": 200,
      "statusText": "",
      "ok": true,
      "headers": {
        "access-control-allow-credentials": "true",
        "access-control-allow-origin": "https://buggy-books-fe.onrender.com",
        "alt-svc": "h3=\":443\"; ma=86400",
        "cf-cache-status": "DYNAMIC",
        "cf-ray": "a1d1e56b5ba32db6-SJC",
        "content-security-policy": "default-src 'self';base-uri 'self';font-src 'self' https: data:;form-action 'self';frame-ancestors 'self';img-src 'self' data:;object-src 'none';script-src 'self';script-src-attr 'none';style-src 'self' https: 'unsafe-inline';upgrade-insecure-requests",
        "cross-origin-opener-policy": "same-origin",
        "cross-origin-resource-policy": "same-origin",
        "date": "Sat, 18 Jul 2026 13:40:05 GMT",
        "etag": "W/\"a8-7gPNKfrsLBb14LKrwkGpEOOXtkg\"",
        "origin-agent-cluster": "?1",
        "priority": "u=1,i",
        "ratelimit-limit": "600",
        "ratelimit-policy": "600;w=60",
        "ratelimit-remaining": "576",
        "ratelimit-reset": "45",
        "referrer-policy": "no-referrer",
        "rndr-id": "aff127b6-9d45-4b13",
        "server": "cloudflare",
        "server-timing": "cfExtPri",
        "strict-transport-security": "max-age=31536000; includeSubDomains",
        "vary": "Origin",
        "x-content-type-options": "nosniff",
        "x-correlation-id": "b9aefcd9-315d-4d19-b74b-e3259c456a18",
        "x-dns-prefetch-control": "off",
        "x-download-options": "noopen",
        "x-frame-options": "SAMEORIGIN",
        "x-permitted-cross-domain-policies": "none",
        "x-render-origin-server": "Render",
        "x-xss-protection": "0"
      },
      "body": "{\"checkoutFailureRate\":0.15,\"inventoryDelayMs\":3000,\"jwtExpirySeconds\":900,\"websocketDropRate\":0,\"uploadFailureRate\":0,\"injectA11yViolations\":false,\"visualChaos\":false}"
    }
  },
  {
    "id": "1784382008014-10",
    "startedAt": "2026-07-18T13:40:08.014Z",
    "url": "https://buggy-books.onrender.com/api/test/config",
    "method": "GET",
    "resourceType": "fetch",
    "navigationRequest": false,
    "headers": {
      "sec-ch-ua-platform": "\"Linux\"",
      "referer": "https://buggy-books-fe.onrender.com/",
      "user-agent": "Mozilla/5.0 (X11; Linux x86_64) AppleWebKit/537.36 (KHTML, like Gecko) HeadlessChrome/150.0.0.0 Safari/537.36",
      "sec-ch-ua": "\"Not;A=Brand\";v=\"8\", \"Chromium\";v=\"150\", \"Google Chrome\";v=\"150\"",
      "accept-language": "en-US",
      "sec-ch-ua-mobile": "?0"
    },
    "postData": null,
    "endedAt": "2026-07-18T13:40:08.102Z",
    "durationMs": 88,
    "response": {
      "status": 200,
      "statusText": "",
      "ok": true,
      "headers": {
        "access-control-allow-credentials": "true",
        "access-control-allow-origin": "https://buggy-books-fe.onrender.com",
        "alt-svc": "h3=\":443\"; ma=86400",
        "cf-cache-status": "DYNAMIC",
        "cf-ray": "a1d1e57e1a0e2db6-SJC",
        "content-security-policy": "default-src 'self';base-uri 'self';font-src 'self' https: data:;form-action 'self';frame-ancestors 'self';img-src 'self' data:;object-src 'none';script-src 'self';script-src-attr 'none';style-src 'self' https: 'unsafe-inline';upgrade-insecure-requests",
        "cross-origin-opener-policy": "same-origin",
        "cross-origin-resource-policy": "same-origin",
        "date": "Sat, 18 Jul 2026 13:40:08 GMT",
        "etag": "W/\"a8-7gPNKfrsLBb14LKrwkGpEOOXtkg\"",
        "origin-agent-cluster": "?1",
        "priority": "u=1,i",
        "ratelimit-limit": "600",
        "ratelimit-policy": "600;w=60",
        "ratelimit-remaining": "571",
        "ratelimit-reset": "42",
        "referrer-policy": "no-referrer",
        "rndr-id": "5728f0b5-6932-467a",
        "server": "cloudflare",
        "server-timing": "cfExtPri",
        "strict-transport-security": "max-age=31536000; includeSubDomains",
        "vary": "Origin",
        "x-content-type-options": "nosniff",
        "x-correlation-id": "7e679c5d-5b59-4dd6-9f6c-8af2b107ffed",
        "x-dns-prefetch-control": "off",
        "x-download-options": "noopen",
        "x-frame-options": "SAMEORIGIN",
        "x-permitted-cross-domain-policies": "none",
        "x-render-origin-server": "Render",
        "x-xss-protection": "0"
      },
      "body": "{\"checkoutFailureRate\":0.15,\"inventoryDelayMs\":3000,\"jwtExpirySeconds\":900,\"websocketDropRate\":0,\"uploadFailureRate\":0,\"injectA11yViolations\":false,\"visualChaos\":false}"
    }
  }
]