{"uid":"4143f0534ed132b0","name":"Testcase 3: Pagination: Minimum limit (page=1, limit=1)","fullName":"api/BookCatalog/Test_001_BooksApi.spec.ts:122:9","historyId":"8e205d680286bb6e7e3a01df550b1ced:4151609b82fd60da52fe302128be4a3c","time":{"start":1784359374481,"stop":1784359374589,"duration":108},"status":"passed","flaky":false,"newFailed":false,"newBroken":false,"newPassed":false,"retriesCount":0,"retriesStatusChange":false,"beforeStages":[],"testStage":{"status":"passed","steps":[{"name":" [2026-07-18 07:22:54] [INFO] \uD83D\uDE80 Making GET request to https://buggy-books.onrender.com/api/books?page=1&limit=1","time":{"start":1784359374484,"stop":1784359374484,"duration":0},"status":"passed","steps":[],"attachments":[],"parameters":[],"stepsCount":0,"shouldDisplayMessage":false,"attachmentsCount":0,"hasContent":false,"attachmentStep":false},{"name":"✅ [2026-07-18 07:22:54] [PASS] ✅ Get paged books list for Minimum limit Success! Status: 200 OK","time":{"start":1784359374586,"stop":1784359374587,"duration":1},"status":"passed","steps":[],"attachments":[],"parameters":[],"stepsCount":0,"shouldDisplayMessage":false,"attachmentsCount":0,"hasContent":false,"attachmentStep":false},{"name":" [2026-07-18 07:22:54] [INFO] \uD83D\uDCE5 Response Payload: {\n  \"books\": [\n    {\n      \"id\": \"1\",\n      \"title\": \"The Great Buggy Gatsby\",\n      \"author\": \"F. Scott Fitzgerald\",\n      \"price\": 10.99,\n      \"genre\": \"Classic\",\n      \"description\": \"A story of wealth, obsession, and bugs in the Jazz Age.\",\n      \"image\": \"https://images.unsplash.com/photo-1544947950-fa07a98d237f?q=80&w=600&auto=format&fit=crop\"\n    }\n  ],\n  \"total\": 15,\n  \"page\": 1,\n  \"totalPages\": 15,\n  \"limit\": 1\n}","time":{"start":1784359374587,"stop":1784359374587,"duration":0},"status":"passed","steps":[],"attachments":[],"parameters":[],"stepsCount":0,"shouldDisplayMessage":false,"attachmentsCount":0,"hasContent":false,"attachmentStep":false},{"name":"✅ [2026-07-18 07:22:54] [PASS]  Status code should be 200 for Minimum limit Success !! Actual and Expected Values are:: 200","time":{"start":1784359374588,"stop":1784359374588,"duration":0},"status":"passed","steps":[],"attachments":[],"parameters":[],"stepsCount":0,"shouldDisplayMessage":false,"attachmentsCount":0,"hasContent":false,"attachmentStep":false},{"name":"✅ [2026-07-18 07:22:54] [PASS]  Response page should be 1 for Minimum limit Success !! Actual and Expected Values are:: 1","time":{"start":1784359374589,"stop":1784359374589,"duration":0},"status":"passed","steps":[],"attachments":[],"parameters":[],"stepsCount":0,"shouldDisplayMessage":false,"attachmentsCount":0,"hasContent":false,"attachmentStep":false},{"name":"✅ [2026-07-18 07:22:54] [PASS]  Books array length should be less than or equal to limit 1 Success !! Actual and Expected Values are:: true","time":{"start":1784359374591,"stop":1784359374591,"duration":0},"status":"passed","steps":[],"attachments":[],"parameters":[],"stepsCount":0,"shouldDisplayMessage":false,"attachmentsCount":0,"hasContent":false,"attachmentStep":false}],"attachments":[{"uid":"62d564b40ed14441","name":"stdout","source":"62d564b40ed14441.txt","type":"text/plain","size":1063}],"parameters":[],"stepsCount":6,"shouldDisplayMessage":false,"attachmentsCount":1,"hasContent":true,"attachmentStep":false},"afterStages":[],"labels":[{"name":"language","value":"javascript"},{"name":"framework","value":"playwright"},{"name":"package","value":"api.BookCatalog.Test_001_BooksApi.spec.ts"},{"name":"titlePath","value":" > Google Chrome > api/BookCatalog/Test_001_BooksApi.spec.ts > Books API - List and Security"},{"name":"host","value":"0abd2b79697e"},{"name":"thread","value":"pid-1518-worker-0"},{"name":"parentSuite","value":"Google Chrome"},{"name":"suite","value":"api/BookCatalog/Test_001_BooksApi.spec.ts"},{"name":"subSuite","value":"Books API - List and Security"},{"name":"resultFormat","value":"allure2"}],"parameters":[{"name":"Project","value":"Google Chrome"}],"links":[],"hidden":false,"retry":false,"extra":{"severity":"normal","retries":[],"categories":[],"history":{"statistic":{"failed":0,"broken":0,"skipped":0,"passed":2,"unknown":0,"total":2},"items":[{"uid":"91fe5970c8905564","reportUrl":"https://munna7862.github.io/buggy-books/AutomationReports/Docker/2/#testresult/91fe5970c8905564","status":"passed","time":{"start":1784356180101,"stop":1784356180192,"duration":91}}]},"tags":[]},"source":"4143f0534ed132b0.json","parameterValues":["Google Chrome"]}